EESchema Schematic File Version 4
LIBS:JetsonGMSLCSI2-cache
EELAYER 26 0
EELAYER END
$Descr A4 11693 8268
encoding utf-8
Sheet 2 5
Title "JetsonTX2GMSLCSI2"
Date "2018-10-07"
Rev "1"
Comp "UC Robotics Team"
Comment1 ""
Comment2 ""
Comment3 ""
Comment4 ""
$EndDescr
$Comp
L JetsonLib:MAX9290 U2
U 1 1 5BBA1C5A
P 4100 3400
AR Path="/5BBA1B7D/5BBA1C5A" Ref="U2"  Part="1" 
AR Path="/5BC96DA2/5BBA1C5A" Ref="U3"  Part="1" 
AR Path="/5BC995E5/5BBA1C5A" Ref="U4"  Part="1" 
F 0 "U4" H 4300 4678 50  0000 C CNN
F 1 "MAX9288" H 4300 4587 50  0000 C CNN
F 2 "Package_DFN_QFN:QFN-48-1EP_7x7mm_P0.5mm_EP5.15x5.15mm_ThermalVias" H 1450 4300 50  0001 C CNN
F 3 "https://datasheets.maximintegrated.com/en/ds/MAX9288-MAX9290.pdf" H 1800 4200 50  0001 C CNN
F 4 "700-MAX9288GTM/V+" H 4100 3400 50  0001 C CNN "MouserPartNumber"
F 5 "Maxim" H 500 4100 50  0001 C CNN "Manufacturer"
F 6 "Mouser" H 550 4000 50  0001 C CNN "Distributer"
F 7 "700-MAX9288GTM/V+" H 1150 4000 50  0001 C CNN "Distributer Part Number"
	1    4100 3400
	1    0    0    -1  
$EndComp
Text Label 3000 3100 0    50   ~ 0
IN+
Text Label 3000 3200 0    50   ~ 0
IN-
Text Label 3000 3300 0    50   ~ 0
LMN0
Wire Wire Line
	3000 3300 3200 3300
Wire Wire Line
	3000 3200 3200 3200
Wire Wire Line
	3000 3100 3200 3100
NoConn ~ 3200 3400
$Comp
L Connector:Conn_Coaxial J11
U 1 1 5BBA2117
P 3750 6450
AR Path="/5BBA1B7D/5BBA2117" Ref="J11"  Part="1" 
AR Path="/5BC96DA2/5BBA2117" Ref="J19"  Part="1" 
AR Path="/5BC995E5/5BBA2117" Ref="J27"  Part="1" 
F 0 "J27" H 3849 6426 50  0000 L CNN
F 1 "Conn_Coaxial" H 3849 6335 50  0000 L CNN
F 2 "JetsonGMSLCSI2:FAKRA" H 3750 6450 50  0001 C CNN
F 3 " ~" H 3750 6450 50  0001 C CNN
F 4 "523-FA1-NHRP-PCB-8" H 3750 6450 50  0001 C CNN "MouserPartNumber"
	1    3750 6450
	-1   0    0    -1  
$EndComp
$Comp
L power:GND #PWR026
U 1 1 5BBA220C
P 3750 6700
AR Path="/5BBA1B7D/5BBA220C" Ref="#PWR026"  Part="1" 
AR Path="/5BC96DA2/5BBA220C" Ref="#PWR067"  Part="1" 
AR Path="/5BC995E5/5BBA220C" Ref="#PWR0108"  Part="1" 
F 0 "#PWR0108" H 3750 6450 50  0001 C CNN
F 1 "GND" H 3755 6527 50  0000 C CNN
F 2 "" H 3750 6700 50  0001 C CNN
F 3 "" H 3750 6700 50  0001 C CNN
	1    3750 6700
	1    0    0    -1  
$EndComp
Wire Wire Line
	3750 6700 3750 6650
$Comp
L power:GND #PWR029
U 1 1 5BBA224A
P 4900 7200
AR Path="/5BBA1B7D/5BBA224A" Ref="#PWR029"  Part="1" 
AR Path="/5BC96DA2/5BBA224A" Ref="#PWR070"  Part="1" 
AR Path="/5BC995E5/5BBA224A" Ref="#PWR0111"  Part="1" 
F 0 "#PWR0111" H 4900 6950 50  0001 C CNN
F 1 "GND" H 4905 7027 50  0000 C CNN
F 2 "" H 4900 7200 50  0001 C CNN
F 3 "" H 4900 7200 50  0001 C CNN
	1    4900 7200
	1    0    0    -1  
$EndComp
$Comp
L Device:R R12
U 1 1 5BBA238D
P 4900 7000
AR Path="/5BBA1B7D/5BBA238D" Ref="R12"  Part="1" 
AR Path="/5BC96DA2/5BBA238D" Ref="R25"  Part="1" 
AR Path="/5BC995E5/5BBA238D" Ref="R38"  Part="1" 
F 0 "R38" H 4970 7046 50  0000 L CNN
F 1 "49.9" H 4970 6955 50  0000 L CNN
F 2 "Resistor_SMD:R_0402_1005Metric" V 4830 7000 50  0001 C CNN
F 3 "~" H 4900 7000 50  0001 C CNN
F 4 "603-RC0402FR-0749R9L" H 4900 7000 50  0001 C CNN "MouserPartNumber"
	1    4900 7000
	1    0    0    -1  
$EndComp
Wire Wire Line
	4900 7200 4900 7150
Text Label 5300 6800 0    50   ~ 0
IN-
Wire Wire Line
	4900 6850 4900 6800
Wire Wire Line
	4900 6800 4950 6800
Wire Wire Line
	5250 6800 5300 6800
$Comp
L Device:R R11
U 1 1 5BBA275A
P 4000 6250
AR Path="/5BBA1B7D/5BBA275A" Ref="R11"  Part="1" 
AR Path="/5BC96DA2/5BBA275A" Ref="R24"  Part="1" 
AR Path="/5BC995E5/5BBA275A" Ref="R37"  Part="1" 
F 0 "R37" H 4070 6296 50  0000 L CNN
F 1 "4.99k 1%" H 4070 6205 50  0000 L CNN
F 2 "Resistor_SMD:R_0402_1005Metric" V 3930 6250 50  0001 C CNN
F 3 "~" H 4000 6250 50  0001 C CNN
F 4 "603-RC0402FR-074K99L" H 4000 6250 50  0001 C CNN "MouserPartNumber"
	1    4000 6250
	1    0    0    -1  
$EndComp
$Comp
L Device:R R10
U 1 1 5BBA27D4
P 4000 5850
AR Path="/5BBA1B7D/5BBA27D4" Ref="R10"  Part="1" 
AR Path="/5BC96DA2/5BBA27D4" Ref="R23"  Part="1" 
AR Path="/5BC995E5/5BBA27D4" Ref="R36"  Part="1" 
F 0 "R36" H 4070 5896 50  0000 L CNN
F 1 "45.3k 1%" H 4070 5805 50  0000 L CNN
F 2 "Resistor_SMD:R_0402_1005Metric" V 3930 5850 50  0001 C CNN
F 3 "~" H 4000 5850 50  0001 C CNN
F 4 "603-RC0402FR-0745K3L" H 4000 5850 50  0001 C CNN "MouserPartNumber"
	1    4000 5850
	1    0    0    -1  
$EndComp
$Comp
L power:+1V8 #PWR028
U 1 1 5BBA28A7
P 4000 5650
AR Path="/5BBA1B7D/5BBA28A7" Ref="#PWR028"  Part="1" 
AR Path="/5BC96DA2/5BBA28A7" Ref="#PWR069"  Part="1" 
AR Path="/5BC995E5/5BBA28A7" Ref="#PWR0110"  Part="1" 
F 0 "#PWR0110" H 4000 5500 50  0001 C CNN
F 1 "+1V8" H 4015 5823 50  0000 C CNN
F 2 "" H 4000 5650 50  0001 C CNN
F 3 "" H 4000 5650 50  0001 C CNN
	1    4000 5650
	1    0    0    -1  
$EndComp
Wire Wire Line
	4000 5650 4000 5700
Wire Wire Line
	4000 6100 4000 6050
Wire Wire Line
	3950 6450 4000 6450
Wire Wire Line
	4000 6450 4000 6400
Text Label 4800 6450 0    50   ~ 0
IN+
$Comp
L Device:C C2
U 1 1 5BBA3041
P 4600 6450
AR Path="/5BBA1B7D/5BBA3041" Ref="C2"  Part="1" 
AR Path="/5BC96DA2/5BBA3041" Ref="C22"  Part="1" 
AR Path="/5BC995E5/5BBA3041" Ref="C42"  Part="1" 
F 0 "C42" V 4348 6450 50  0000 C CNN
F 1 "0.22uF" V 4439 6450 50  0000 C CNN
F 2 "Capacitor_SMD:C_0402_1005Metric" H 4638 6300 50  0001 C CNN
F 3 "~" H 4600 6450 50  0001 C CNN
F 4 "710-885012105002" H 4600 6450 50  0001 C CNN "MouserPartNumber"
	1    4600 6450
	0    1    1    0   
$EndComp
Connection ~ 4000 6450
Wire Wire Line
	4750 6450 4800 6450
Text Label 4050 6050 0    50   ~ 0
LMN0
Wire Wire Line
	4050 6050 4000 6050
Connection ~ 4000 6050
Wire Wire Line
	4000 6050 4000 6000
Wire Wire Line
	4000 6450 4450 6450
$Comp
L Device:C C1
U 1 1 5BBA409F
P 5100 6800
AR Path="/5BBA1B7D/5BBA409F" Ref="C1"  Part="1" 
AR Path="/5BC96DA2/5BBA409F" Ref="C21"  Part="1" 
AR Path="/5BC995E5/5BBA409F" Ref="C41"  Part="1" 
F 0 "C41" V 4848 6800 50  0000 C CNN
F 1 "0.22uF" V 4939 6800 50  0000 C CNN
F 2 "Capacitor_SMD:C_0402_1005Metric" H 5138 6650 50  0001 C CNN
F 3 "~" H 5100 6800 50  0001 C CNN
F 4 "710-885012105002" H 5100 6800 50  0001 C CNN "MouserPartNumber"
	1    5100 6800
	0    1    1    0   
$EndComp
NoConn ~ 3200 2700
NoConn ~ 3200 2800
NoConn ~ 3200 2900
Text Label 3000 3600 0    50   ~ 0
BWS
Wire Wire Line
	3000 3600 3200 3600
Text Label 900  1800 0    50   ~ 0
BWS
$Comp
L Connector_Generic:Conn_01x03 J4
U 1 1 5BBA55CF
P 1600 1800
AR Path="/5BBA1B7D/5BBA55CF" Ref="J4"  Part="1" 
AR Path="/5BC96DA2/5BBA55CF" Ref="J12"  Part="1" 
AR Path="/5BC995E5/5BBA55CF" Ref="J20"  Part="1" 
F 0 "J20" H 1680 1842 50  0000 L CNN
F 1 "Conn_01x03" H 1680 1751 50  0000 L CNN
F 2 "Jumper:SolderJumper-3_P1.3mm_Open_RoundedPad1.0x1.5mm" H 1600 1800 50  0001 C CNN
F 3 "~" H 1600 1800 50  0001 C CNN
	1    1600 1800
	1    0    0    -1  
$EndComp
Wire Wire Line
	4500 4550 4500 4600
Wire Wire Line
	4500 4600 4600 4600
Wire Wire Line
	4700 4600 4700 4550
Wire Wire Line
	4600 4550 4600 4600
Connection ~ 4600 4600
Wire Wire Line
	4600 4600 4700 4600
Wire Wire Line
	3700 4550 3700 4600
Wire Wire Line
	3700 4600 3800 4600
Wire Wire Line
	3800 4600 3800 4550
Wire Wire Line
	4000 4600 4100 4600
Wire Wire Line
	4100 4600 4100 4550
Wire Wire Line
	4000 4550 4000 4600
Wire Wire Line
	4250 4550 4250 4600
Wire Wire Line
	4250 4600 4350 4600
Wire Wire Line
	4350 4600 4350 4550
$Comp
L power:+3V3 #PWR025
U 1 1 5BBA7BC7
P 3650 4600
AR Path="/5BBA1B7D/5BBA7BC7" Ref="#PWR025"  Part="1" 
AR Path="/5BC96DA2/5BBA7BC7" Ref="#PWR066"  Part="1" 
AR Path="/5BC995E5/5BBA7BC7" Ref="#PWR0107"  Part="1" 
F 0 "#PWR0107" H 3650 4450 50  0001 C CNN
F 1 "+3V3" V 3665 4728 50  0000 L CNN
F 2 "" H 3650 4600 50  0001 C CNN
F 3 "" H 3650 4600 50  0001 C CNN
	1    3650 4600
	0    -1   -1   0   
$EndComp
Wire Wire Line
	3650 4600 3700 4600
Connection ~ 3700 4600
$Comp
L Device:C C9
U 1 1 5BBA8183
P 9000 1700
AR Path="/5BBA1B7D/5BBA8183" Ref="C9"  Part="1" 
AR Path="/5BC96DA2/5BBA8183" Ref="C29"  Part="1" 
AR Path="/5BC995E5/5BBA8183" Ref="C49"  Part="1" 
F 0 "C49" H 9115 1746 50  0000 L CNN
F 1 "0.1uF" H 9115 1655 50  0000 L CNN
F 2 "Capacitor_SMD:C_0402_1005Metric" H 9038 1550 50  0001 C CNN
F 3 "~" H 9000 1700 50  0001 C CNN
F 4 "710-885012105018" H 9000 1700 50  0001 C CNN "MouserPartNumber"
	1    9000 1700
	1    0    0    -1  
$EndComp
$Comp
L power:GND #PWR046
U 1 1 5BBA8DB7
P 9000 1950
AR Path="/5BBA1B7D/5BBA8DB7" Ref="#PWR046"  Part="1" 
AR Path="/5BC96DA2/5BBA8DB7" Ref="#PWR087"  Part="1" 
AR Path="/5BC995E5/5BBA8DB7" Ref="#PWR0128"  Part="1" 
F 0 "#PWR0128" H 9000 1700 50  0001 C CNN
F 1 "GND" H 9005 1777 50  0000 C CNN
F 2 "" H 9000 1950 50  0001 C CNN
F 3 "" H 9000 1950 50  0001 C CNN
	1    9000 1950
	1    0    0    -1  
$EndComp
$Comp
L power:+3V3 #PWR045
U 1 1 5BBA8E3C
P 9000 1450
AR Path="/5BBA1B7D/5BBA8E3C" Ref="#PWR045"  Part="1" 
AR Path="/5BC96DA2/5BBA8E3C" Ref="#PWR086"  Part="1" 
AR Path="/5BC995E5/5BBA8E3C" Ref="#PWR0127"  Part="1" 
F 0 "#PWR0127" H 9000 1300 50  0001 C CNN
F 1 "+3V3" H 9015 1623 50  0000 C CNN
F 2 "" H 9000 1450 50  0001 C CNN
F 3 "" H 9000 1450 50  0001 C CNN
	1    9000 1450
	1    0    0    -1  
$EndComp
Wire Wire Line
	9000 1450 9000 1500
Wire Wire Line
	9000 1850 9000 1900
$Comp
L Device:C C13
U 1 1 5BBAD37B
P 9450 1700
AR Path="/5BBA1B7D/5BBAD37B" Ref="C13"  Part="1" 
AR Path="/5BC96DA2/5BBAD37B" Ref="C33"  Part="1" 
AR Path="/5BC995E5/5BBAD37B" Ref="C53"  Part="1" 
F 0 "C53" H 9565 1746 50  0000 L CNN
F 1 "0.001uF" H 9565 1655 50  0000 L CNN
F 2 "Capacitor_SMD:C_0402_1005Metric" H 9488 1550 50  0001 C CNN
F 3 "~" H 9450 1700 50  0001 C CNN
F 4 "710-885012005018" H 9450 1700 50  0001 C CNN "MouserPartNumber"
	1    9450 1700
	1    0    0    -1  
$EndComp
Wire Wire Line
	9000 1500 9450 1500
Wire Wire Line
	9450 1500 9450 1550
Connection ~ 9000 1500
Wire Wire Line
	9000 1500 9000 1550
Wire Wire Line
	9450 1850 9450 1900
Wire Wire Line
	9450 1900 9000 1900
Connection ~ 9000 1900
Wire Wire Line
	9000 1900 9000 1950
$Comp
L Device:R R5
U 1 1 5BBAEE04
P 1250 1800
AR Path="/5BBA1B7D/5BBAEE04" Ref="R5"  Part="1" 
AR Path="/5BC96DA2/5BBAEE04" Ref="R18"  Part="1" 
AR Path="/5BC995E5/5BBAEE04" Ref="R31"  Part="1" 
F 0 "R31" H 1320 1846 50  0000 L CNN
F 1 "5.9k" H 1320 1755 50  0000 L CNN
F 2 "Resistor_SMD:R_0402_1005Metric" V 1180 1800 50  0001 C CNN
F 3 "~" H 1250 1800 50  0001 C CNN
F 4 "603-RC0402FR-135K9L" H 1250 1800 50  0001 C CNN "MouserPartNumber"
	1    1250 1800
	0    -1   -1   0   
$EndComp
$Comp
L power:GND #PWR017
U 1 1 5BBB0623
P 1400 1950
AR Path="/5BBA1B7D/5BBB0623" Ref="#PWR017"  Part="1" 
AR Path="/5BC96DA2/5BBB0623" Ref="#PWR058"  Part="1" 
AR Path="/5BC995E5/5BBB0623" Ref="#PWR099"  Part="1" 
F 0 "#PWR099" H 1400 1700 50  0001 C CNN
F 1 "GND" H 1405 1777 50  0000 C CNN
F 2 "" H 1400 1950 50  0001 C CNN
F 3 "" H 1400 1950 50  0001 C CNN
	1    1400 1950
	1    0    0    -1  
$EndComp
Wire Wire Line
	1400 1950 1400 1900
$Comp
L power:+1V8 #PWR016
U 1 1 5BBB0F2B
P 1400 1650
AR Path="/5BBA1B7D/5BBB0F2B" Ref="#PWR016"  Part="1" 
AR Path="/5BC96DA2/5BBB0F2B" Ref="#PWR057"  Part="1" 
AR Path="/5BC995E5/5BBB0F2B" Ref="#PWR098"  Part="1" 
F 0 "#PWR098" H 1400 1500 50  0001 C CNN
F 1 "+1V8" H 1415 1823 50  0000 C CNN
F 2 "" H 1400 1650 50  0001 C CNN
F 3 "" H 1400 1650 50  0001 C CNN
	1    1400 1650
	1    0    0    -1  
$EndComp
Wire Wire Line
	1400 1650 1400 1700
$Comp
L power:+1V8 #PWR027
U 1 1 5BBB194D
P 3950 4700
AR Path="/5BBA1B7D/5BBB194D" Ref="#PWR027"  Part="1" 
AR Path="/5BC96DA2/5BBB194D" Ref="#PWR068"  Part="1" 
AR Path="/5BC995E5/5BBB194D" Ref="#PWR0109"  Part="1" 
F 0 "#PWR0109" H 3950 4550 50  0001 C CNN
F 1 "+1V8" V 3965 4828 50  0000 L CNN
F 2 "" H 3950 4700 50  0001 C CNN
F 3 "" H 3950 4700 50  0001 C CNN
	1    3950 4700
	0    -1   -1   0   
$EndComp
Wire Wire Line
	3950 4700 4000 4700
Wire Wire Line
	4000 4700 4000 4600
Connection ~ 4000 4600
$Comp
L Device:C C10
U 1 1 5BBB24D7
P 9000 2650
AR Path="/5BBA1B7D/5BBB24D7" Ref="C10"  Part="1" 
AR Path="/5BC96DA2/5BBB24D7" Ref="C30"  Part="1" 
AR Path="/5BC995E5/5BBB24D7" Ref="C50"  Part="1" 
F 0 "C50" H 9115 2696 50  0000 L CNN
F 1 "0.1uF" H 9115 2605 50  0000 L CNN
F 2 "Capacitor_SMD:C_0402_1005Metric" H 9038 2500 50  0001 C CNN
F 3 "~" H 9000 2650 50  0001 C CNN
F 4 "710-885012105018" H 9000 2650 50  0001 C CNN "MouserPartNumber"
	1    9000 2650
	1    0    0    -1  
$EndComp
$Comp
L power:GND #PWR048
U 1 1 5BBB24DE
P 9000 2900
AR Path="/5BBA1B7D/5BBB24DE" Ref="#PWR048"  Part="1" 
AR Path="/5BC96DA2/5BBB24DE" Ref="#PWR089"  Part="1" 
AR Path="/5BC995E5/5BBB24DE" Ref="#PWR0130"  Part="1" 
F 0 "#PWR0130" H 9000 2650 50  0001 C CNN
F 1 "GND" H 9005 2727 50  0000 C CNN
F 2 "" H 9000 2900 50  0001 C CNN
F 3 "" H 9000 2900 50  0001 C CNN
	1    9000 2900
	1    0    0    -1  
$EndComp
$Comp
L power:+3V3 #PWR047
U 1 1 5BBB24E4
P 9000 2400
AR Path="/5BBA1B7D/5BBB24E4" Ref="#PWR047"  Part="1" 
AR Path="/5BC96DA2/5BBB24E4" Ref="#PWR088"  Part="1" 
AR Path="/5BC995E5/5BBB24E4" Ref="#PWR0129"  Part="1" 
F 0 "#PWR0129" H 9000 2250 50  0001 C CNN
F 1 "+3V3" H 9015 2573 50  0000 C CNN
F 2 "" H 9000 2400 50  0001 C CNN
F 3 "" H 9000 2400 50  0001 C CNN
	1    9000 2400
	1    0    0    -1  
$EndComp
Wire Wire Line
	9000 2400 9000 2450
Wire Wire Line
	9000 2800 9000 2850
$Comp
L Device:C C14
U 1 1 5BBB24ED
P 9450 2650
AR Path="/5BBA1B7D/5BBB24ED" Ref="C14"  Part="1" 
AR Path="/5BC96DA2/5BBB24ED" Ref="C34"  Part="1" 
AR Path="/5BC995E5/5BBB24ED" Ref="C54"  Part="1" 
F 0 "C54" H 9565 2696 50  0000 L CNN
F 1 "0.001uF" H 9565 2605 50  0000 L CNN
F 2 "Capacitor_SMD:C_0402_1005Metric" H 9488 2500 50  0001 C CNN
F 3 "~" H 9450 2650 50  0001 C CNN
F 4 "710-885012005018" H 9450 2650 50  0001 C CNN "MouserPartNumber"
	1    9450 2650
	1    0    0    -1  
$EndComp
Wire Wire Line
	9000 2450 9450 2450
Wire Wire Line
	9450 2450 9450 2500
Connection ~ 9000 2450
Wire Wire Line
	9000 2450 9000 2500
Wire Wire Line
	9450 2800 9450 2850
Wire Wire Line
	9450 2850 9000 2850
Connection ~ 9000 2850
Wire Wire Line
	9000 2850 9000 2900
$Comp
L Device:C C11
U 1 1 5BBB6CA1
P 9050 4100
AR Path="/5BBA1B7D/5BBB6CA1" Ref="C11"  Part="1" 
AR Path="/5BC96DA2/5BBB6CA1" Ref="C31"  Part="1" 
AR Path="/5BC995E5/5BBB6CA1" Ref="C51"  Part="1" 
F 0 "C51" H 9165 4146 50  0000 L CNN
F 1 "0.1uF" H 9165 4055 50  0000 L CNN
F 2 "Capacitor_SMD:C_0402_1005Metric" H 9088 3950 50  0001 C CNN
F 3 "~" H 9050 4100 50  0001 C CNN
F 4 "710-885012105018" H 9050 4100 50  0001 C CNN "MouserPartNumber"
	1    9050 4100
	1    0    0    -1  
$EndComp
$Comp
L power:GND #PWR050
U 1 1 5BBB6CA8
P 9050 4350
AR Path="/5BBA1B7D/5BBB6CA8" Ref="#PWR050"  Part="1" 
AR Path="/5BC96DA2/5BBB6CA8" Ref="#PWR091"  Part="1" 
AR Path="/5BC995E5/5BBB6CA8" Ref="#PWR0132"  Part="1" 
F 0 "#PWR0132" H 9050 4100 50  0001 C CNN
F 1 "GND" H 9055 4177 50  0000 C CNN
F 2 "" H 9050 4350 50  0001 C CNN
F 3 "" H 9050 4350 50  0001 C CNN
	1    9050 4350
	1    0    0    -1  
$EndComp
Wire Wire Line
	9050 3850 9050 3900
Wire Wire Line
	9050 4250 9050 4300
$Comp
L Device:C C15
U 1 1 5BBB6CB7
P 9500 4100
AR Path="/5BBA1B7D/5BBB6CB7" Ref="C15"  Part="1" 
AR Path="/5BC96DA2/5BBB6CB7" Ref="C35"  Part="1" 
AR Path="/5BC995E5/5BBB6CB7" Ref="C55"  Part="1" 
F 0 "C55" H 9615 4146 50  0000 L CNN
F 1 "0.001uF" H 9615 4055 50  0000 L CNN
F 2 "Capacitor_SMD:C_0402_1005Metric" H 9538 3950 50  0001 C CNN
F 3 "~" H 9500 4100 50  0001 C CNN
F 4 "710-885012005018" H 9500 4100 50  0001 C CNN "MouserPartNumber"
	1    9500 4100
	1    0    0    -1  
$EndComp
Wire Wire Line
	9050 3900 9500 3900
Wire Wire Line
	9500 3900 9500 3950
Connection ~ 9050 3900
Wire Wire Line
	9050 3900 9050 3950
Wire Wire Line
	9500 4250 9500 4300
Wire Wire Line
	9500 4300 9050 4300
Connection ~ 9050 4300
Wire Wire Line
	9050 4300 9050 4350
$Comp
L Device:C C12
U 1 1 5BBB6CC8
P 9050 5050
AR Path="/5BBA1B7D/5BBB6CC8" Ref="C12"  Part="1" 
AR Path="/5BC96DA2/5BBB6CC8" Ref="C32"  Part="1" 
AR Path="/5BC995E5/5BBB6CC8" Ref="C52"  Part="1" 
F 0 "C52" H 9165 5096 50  0000 L CNN
F 1 "0.1uF" H 9165 5005 50  0000 L CNN
F 2 "Capacitor_SMD:C_0402_1005Metric" H 9088 4900 50  0001 C CNN
F 3 "~" H 9050 5050 50  0001 C CNN
F 4 "710-885012105018" H 9050 5050 50  0001 C CNN "MouserPartNumber"
	1    9050 5050
	1    0    0    -1  
$EndComp
$Comp
L power:GND #PWR052
U 1 1 5BBB6CCF
P 9050 5300
AR Path="/5BBA1B7D/5BBB6CCF" Ref="#PWR052"  Part="1" 
AR Path="/5BC96DA2/5BBB6CCF" Ref="#PWR093"  Part="1" 
AR Path="/5BC995E5/5BBB6CCF" Ref="#PWR0134"  Part="1" 
F 0 "#PWR0134" H 9050 5050 50  0001 C CNN
F 1 "GND" H 9055 5127 50  0000 C CNN
F 2 "" H 9050 5300 50  0001 C CNN
F 3 "" H 9050 5300 50  0001 C CNN
	1    9050 5300
	1    0    0    -1  
$EndComp
Wire Wire Line
	9050 4800 9050 4850
Wire Wire Line
	9050 5200 9050 5250
$Comp
L Device:C C16
U 1 1 5BBB6CDE
P 9500 5050
AR Path="/5BBA1B7D/5BBB6CDE" Ref="C16"  Part="1" 
AR Path="/5BC96DA2/5BBB6CDE" Ref="C36"  Part="1" 
AR Path="/5BC995E5/5BBB6CDE" Ref="C56"  Part="1" 
F 0 "C56" H 9615 5096 50  0000 L CNN
F 1 "0.001uF" H 9615 5005 50  0000 L CNN
F 2 "Capacitor_SMD:C_0402_1005Metric" H 9538 4900 50  0001 C CNN
F 3 "~" H 9500 5050 50  0001 C CNN
F 4 "710-885012005018" H 9500 5050 50  0001 C CNN "MouserPartNumber"
	1    9500 5050
	1    0    0    -1  
$EndComp
Wire Wire Line
	9050 4850 9500 4850
Wire Wire Line
	9500 4850 9500 4900
Connection ~ 9050 4850
Wire Wire Line
	9050 4850 9050 4900
Wire Wire Line
	9500 5200 9500 5250
Wire Wire Line
	9500 5250 9050 5250
Connection ~ 9050 5250
Wire Wire Line
	9050 5250 9050 5300
$Comp
L power:+1V8 #PWR049
U 1 1 5BBB954D
P 9050 3850
AR Path="/5BBA1B7D/5BBB954D" Ref="#PWR049"  Part="1" 
AR Path="/5BC96DA2/5BBB954D" Ref="#PWR090"  Part="1" 
AR Path="/5BC995E5/5BBB954D" Ref="#PWR0131"  Part="1" 
F 0 "#PWR0131" H 9050 3700 50  0001 C CNN
F 1 "+1V8" H 9065 4023 50  0000 C CNN
F 2 "" H 9050 3850 50  0001 C CNN
F 3 "" H 9050 3850 50  0001 C CNN
	1    9050 3850
	1    0    0    -1  
$EndComp
$Comp
L power:+1V8 #PWR051
U 1 1 5BBBA9E4
P 9050 4800
AR Path="/5BBA1B7D/5BBBA9E4" Ref="#PWR051"  Part="1" 
AR Path="/5BC96DA2/5BBBA9E4" Ref="#PWR092"  Part="1" 
AR Path="/5BC995E5/5BBBA9E4" Ref="#PWR0133"  Part="1" 
F 0 "#PWR0133" H 9050 4650 50  0001 C CNN
F 1 "+1V8" H 9065 4973 50  0000 C CNN
F 2 "" H 9050 4800 50  0001 C CNN
F 3 "" H 9050 4800 50  0001 C CNN
	1    9050 4800
	1    0    0    -1  
$EndComp
Wire Wire Line
	4000 4700 4250 4700
Wire Wire Line
	4250 4700 4250 4600
Connection ~ 4000 4700
Connection ~ 4250 4600
Wire Wire Line
	4250 4700 4500 4700
Wire Wire Line
	4500 4700 4500 4600
Connection ~ 4250 4700
Connection ~ 4500 4600
$Comp
L Device:C C17
U 1 1 5BBC2154
P 10100 4100
AR Path="/5BBA1B7D/5BBC2154" Ref="C17"  Part="1" 
AR Path="/5BC96DA2/5BBC2154" Ref="C37"  Part="1" 
AR Path="/5BC995E5/5BBC2154" Ref="C57"  Part="1" 
F 0 "C57" H 10215 4146 50  0000 L CNN
F 1 "0.1uF" H 10215 4055 50  0000 L CNN
F 2 "Capacitor_SMD:C_0402_1005Metric" H 10138 3950 50  0001 C CNN
F 3 "~" H 10100 4100 50  0001 C CNN
F 4 "710-885012105018" H 10100 4100 50  0001 C CNN "MouserPartNumber"
	1    10100 4100
	1    0    0    -1  
$EndComp
$Comp
L power:GND #PWR054
U 1 1 5BBC215B
P 10100 4350
AR Path="/5BBA1B7D/5BBC215B" Ref="#PWR054"  Part="1" 
AR Path="/5BC96DA2/5BBC215B" Ref="#PWR095"  Part="1" 
AR Path="/5BC995E5/5BBC215B" Ref="#PWR0136"  Part="1" 
F 0 "#PWR0136" H 10100 4100 50  0001 C CNN
F 1 "GND" H 10105 4177 50  0000 C CNN
F 2 "" H 10100 4350 50  0001 C CNN
F 3 "" H 10100 4350 50  0001 C CNN
	1    10100 4350
	1    0    0    -1  
$EndComp
Wire Wire Line
	10100 3850 10100 3900
Wire Wire Line
	10100 4250 10100 4300
$Comp
L Device:C C19
U 1 1 5BBC2164
P 10550 4100
AR Path="/5BBA1B7D/5BBC2164" Ref="C19"  Part="1" 
AR Path="/5BC96DA2/5BBC2164" Ref="C39"  Part="1" 
AR Path="/5BC995E5/5BBC2164" Ref="C59"  Part="1" 
F 0 "C59" H 10665 4146 50  0000 L CNN
F 1 "0.001uF" H 10665 4055 50  0000 L CNN
F 2 "Capacitor_SMD:C_0402_1005Metric" H 10588 3950 50  0001 C CNN
F 3 "~" H 10550 4100 50  0001 C CNN
F 4 "710-885012005018" H 10550 4100 50  0001 C CNN "MouserPartNumber"
	1    10550 4100
	1    0    0    -1  
$EndComp
Wire Wire Line
	10100 3900 10550 3900
Wire Wire Line
	10550 3900 10550 3950
Connection ~ 10100 3900
Wire Wire Line
	10100 3900 10100 3950
Wire Wire Line
	10550 4250 10550 4300
Wire Wire Line
	10550 4300 10100 4300
Connection ~ 10100 4300
Wire Wire Line
	10100 4300 10100 4350
$Comp
L Device:C C18
U 1 1 5BBC2175
P 10100 5050
AR Path="/5BBA1B7D/5BBC2175" Ref="C18"  Part="1" 
AR Path="/5BC96DA2/5BBC2175" Ref="C38"  Part="1" 
AR Path="/5BC995E5/5BBC2175" Ref="C58"  Part="1" 
F 0 "C58" H 10215 5096 50  0000 L CNN
F 1 "0.1uF" H 10215 5005 50  0000 L CNN
F 2 "Capacitor_SMD:C_0402_1005Metric" H 10138 4900 50  0001 C CNN
F 3 "~" H 10100 5050 50  0001 C CNN
F 4 "710-885012105018" H 10100 5050 50  0001 C CNN "MouserPartNumber"
	1    10100 5050
	1    0    0    -1  
$EndComp
$Comp
L power:GND #PWR056
U 1 1 5BBC217C
P 10100 5300
AR Path="/5BBA1B7D/5BBC217C" Ref="#PWR056"  Part="1" 
AR Path="/5BC96DA2/5BBC217C" Ref="#PWR097"  Part="1" 
AR Path="/5BC995E5/5BBC217C" Ref="#PWR0138"  Part="1" 
F 0 "#PWR0138" H 10100 5050 50  0001 C CNN
F 1 "GND" H 10105 5127 50  0000 C CNN
F 2 "" H 10100 5300 50  0001 C CNN
F 3 "" H 10100 5300 50  0001 C CNN
	1    10100 5300
	1    0    0    -1  
$EndComp
Wire Wire Line
	10100 4800 10100 4850
Wire Wire Line
	10100 5200 10100 5250
$Comp
L Device:C C20
U 1 1 5BBC2185
P 10550 5050
AR Path="/5BBA1B7D/5BBC2185" Ref="C20"  Part="1" 
AR Path="/5BC96DA2/5BBC2185" Ref="C40"  Part="1" 
AR Path="/5BC995E5/5BBC2185" Ref="C60"  Part="1" 
F 0 "C60" H 10665 5096 50  0000 L CNN
F 1 "0.001uF" H 10665 5005 50  0000 L CNN
F 2 "Capacitor_SMD:C_0402_1005Metric" H 10588 4900 50  0001 C CNN
F 3 "~" H 10550 5050 50  0001 C CNN
F 4 "710-885012005018" H 10550 5050 50  0001 C CNN "MouserPartNumber"
	1    10550 5050
	1    0    0    -1  
$EndComp
Wire Wire Line
	10100 4850 10550 4850
Wire Wire Line
	10550 4850 10550 4900
Connection ~ 10100 4850
Wire Wire Line
	10100 4850 10100 4900
Wire Wire Line
	10550 5200 10550 5250
Wire Wire Line
	10550 5250 10100 5250
Connection ~ 10100 5250
Wire Wire Line
	10100 5250 10100 5300
$Comp
L power:+1V8 #PWR053
U 1 1 5BBC2194
P 10100 3850
AR Path="/5BBA1B7D/5BBC2194" Ref="#PWR053"  Part="1" 
AR Path="/5BC96DA2/5BBC2194" Ref="#PWR094"  Part="1" 
AR Path="/5BC995E5/5BBC2194" Ref="#PWR0135"  Part="1" 
F 0 "#PWR0135" H 10100 3700 50  0001 C CNN
F 1 "+1V8" H 10115 4023 50  0000 C CNN
F 2 "" H 10100 3850 50  0001 C CNN
F 3 "" H 10100 3850 50  0001 C CNN
	1    10100 3850
	1    0    0    -1  
$EndComp
$Comp
L power:+1V8 #PWR055
U 1 1 5BBC219A
P 10100 4800
AR Path="/5BBA1B7D/5BBC219A" Ref="#PWR055"  Part="1" 
AR Path="/5BC96DA2/5BBC219A" Ref="#PWR096"  Part="1" 
AR Path="/5BC995E5/5BBC219A" Ref="#PWR0137"  Part="1" 
F 0 "#PWR0137" H 10100 4650 50  0001 C CNN
F 1 "+1V8" H 10115 4973 50  0000 C CNN
F 2 "" H 10100 4800 50  0001 C CNN
F 3 "" H 10100 4800 50  0001 C CNN
	1    10100 4800
	1    0    0    -1  
$EndComp
$Comp
L Device:C C3
U 1 1 5BBC41F9
P 7050 4100
AR Path="/5BBA1B7D/5BBC41F9" Ref="C3"  Part="1" 
AR Path="/5BC96DA2/5BBC41F9" Ref="C23"  Part="1" 
AR Path="/5BC995E5/5BBC41F9" Ref="C43"  Part="1" 
F 0 "C43" H 7165 4146 50  0000 L CNN
F 1 "0.1uF" H 7165 4055 50  0000 L CNN
F 2 "Capacitor_SMD:C_0402_1005Metric" H 7088 3950 50  0001 C CNN
F 3 "~" H 7050 4100 50  0001 C CNN
F 4 "710-885012105018" H 7050 4100 50  0001 C CNN "MouserPartNumber"
	1    7050 4100
	1    0    0    -1  
$EndComp
$Comp
L power:GND #PWR036
U 1 1 5BBC4200
P 7050 4350
AR Path="/5BBA1B7D/5BBC4200" Ref="#PWR036"  Part="1" 
AR Path="/5BC96DA2/5BBC4200" Ref="#PWR077"  Part="1" 
AR Path="/5BC995E5/5BBC4200" Ref="#PWR0118"  Part="1" 
F 0 "#PWR0118" H 7050 4100 50  0001 C CNN
F 1 "GND" H 7055 4177 50  0000 C CNN
F 2 "" H 7050 4350 50  0001 C CNN
F 3 "" H 7050 4350 50  0001 C CNN
	1    7050 4350
	1    0    0    -1  
$EndComp
Wire Wire Line
	7050 3850 7050 3900
Wire Wire Line
	7050 4250 7050 4300
$Comp
L Device:C C4
U 1 1 5BBC4209
P 7500 4100
AR Path="/5BBA1B7D/5BBC4209" Ref="C4"  Part="1" 
AR Path="/5BC96DA2/5BBC4209" Ref="C24"  Part="1" 
AR Path="/5BC995E5/5BBC4209" Ref="C44"  Part="1" 
F 0 "C44" H 7615 4146 50  0000 L CNN
F 1 "0.001uF" H 7615 4055 50  0000 L CNN
F 2 "Capacitor_SMD:C_0402_1005Metric" H 7538 3950 50  0001 C CNN
F 3 "~" H 7500 4100 50  0001 C CNN
F 4 "710-885012005018" H 7500 4100 50  0001 C CNN "MouserPartNumber"
	1    7500 4100
	1    0    0    -1  
$EndComp
Wire Wire Line
	7050 3900 7500 3900
Wire Wire Line
	7500 3900 7500 3950
Connection ~ 7050 3900
Wire Wire Line
	7050 3900 7050 3950
Wire Wire Line
	7500 4250 7500 4300
Wire Wire Line
	7500 4300 7050 4300
Connection ~ 7050 4300
Wire Wire Line
	7050 4300 7050 4350
$Comp
L power:+1V8 #PWR035
U 1 1 5BBC4218
P 7050 3850
AR Path="/5BBA1B7D/5BBC4218" Ref="#PWR035"  Part="1" 
AR Path="/5BC96DA2/5BBC4218" Ref="#PWR076"  Part="1" 
AR Path="/5BC995E5/5BBC4218" Ref="#PWR0117"  Part="1" 
F 0 "#PWR0117" H 7050 3700 50  0001 C CNN
F 1 "+1V8" H 7065 4023 50  0000 C CNN
F 2 "" H 7050 3850 50  0001 C CNN
F 3 "" H 7050 3850 50  0001 C CNN
	1    7050 3850
	1    0    0    -1  
$EndComp
Text Notes 8800 3300 0    50   ~ 0
Place near pins 6 and 47,\n0.001uF closer to pin
$Comp
L Device:C C5
U 1 1 5BBE3517
P 8050 4100
AR Path="/5BBA1B7D/5BBE3517" Ref="C5"  Part="1" 
AR Path="/5BC96DA2/5BBE3517" Ref="C25"  Part="1" 
AR Path="/5BC995E5/5BBE3517" Ref="C45"  Part="1" 
F 0 "C45" H 8165 4146 50  0000 L CNN
F 1 "0.1uF" H 8165 4055 50  0000 L CNN
F 2 "Capacitor_SMD:C_0402_1005Metric" H 8088 3950 50  0001 C CNN
F 3 "~" H 8050 4100 50  0001 C CNN
F 4 "710-885012105018" H 8050 4100 50  0001 C CNN "MouserPartNumber"
	1    8050 4100
	1    0    0    -1  
$EndComp
$Comp
L power:GND #PWR042
U 1 1 5BBE351E
P 8050 4350
AR Path="/5BBA1B7D/5BBE351E" Ref="#PWR042"  Part="1" 
AR Path="/5BC96DA2/5BBE351E" Ref="#PWR083"  Part="1" 
AR Path="/5BC995E5/5BBE351E" Ref="#PWR0124"  Part="1" 
F 0 "#PWR0124" H 8050 4100 50  0001 C CNN
F 1 "GND" H 8055 4177 50  0000 C CNN
F 2 "" H 8050 4350 50  0001 C CNN
F 3 "" H 8050 4350 50  0001 C CNN
	1    8050 4350
	1    0    0    -1  
$EndComp
Wire Wire Line
	8050 3850 8050 3900
Wire Wire Line
	8050 4250 8050 4300
$Comp
L Device:C C7
U 1 1 5BBE3527
P 8500 4100
AR Path="/5BBA1B7D/5BBE3527" Ref="C7"  Part="1" 
AR Path="/5BC96DA2/5BBE3527" Ref="C27"  Part="1" 
AR Path="/5BC995E5/5BBE3527" Ref="C47"  Part="1" 
F 0 "C47" H 8615 4146 50  0000 L CNN
F 1 "0.001uF" H 8615 4055 50  0000 L CNN
F 2 "Capacitor_SMD:C_0402_1005Metric" H 8538 3950 50  0001 C CNN
F 3 "~" H 8500 4100 50  0001 C CNN
F 4 "710-885012005018" H 8500 4100 50  0001 C CNN "MouserPartNumber"
	1    8500 4100
	1    0    0    -1  
$EndComp
Wire Wire Line
	8050 3900 8500 3900
Wire Wire Line
	8500 3900 8500 3950
Connection ~ 8050 3900
Wire Wire Line
	8050 3900 8050 3950
Wire Wire Line
	8500 4250 8500 4300
Wire Wire Line
	8500 4300 8050 4300
Connection ~ 8050 4300
Wire Wire Line
	8050 4300 8050 4350
$Comp
L Device:C C6
U 1 1 5BBE3537
P 8050 5050
AR Path="/5BBA1B7D/5BBE3537" Ref="C6"  Part="1" 
AR Path="/5BC96DA2/5BBE3537" Ref="C26"  Part="1" 
AR Path="/5BC995E5/5BBE3537" Ref="C46"  Part="1" 
F 0 "C46" H 8165 5096 50  0000 L CNN
F 1 "0.1uF" H 8165 5005 50  0000 L CNN
F 2 "Capacitor_SMD:C_0402_1005Metric" H 8088 4900 50  0001 C CNN
F 3 "~" H 8050 5050 50  0001 C CNN
F 4 "710-885012105018" H 8050 5050 50  0001 C CNN "MouserPartNumber"
	1    8050 5050
	1    0    0    -1  
$EndComp
$Comp
L power:GND #PWR044
U 1 1 5BBE353E
P 8050 5300
AR Path="/5BBA1B7D/5BBE353E" Ref="#PWR044"  Part="1" 
AR Path="/5BC96DA2/5BBE353E" Ref="#PWR085"  Part="1" 
AR Path="/5BC995E5/5BBE353E" Ref="#PWR0126"  Part="1" 
F 0 "#PWR0126" H 8050 5050 50  0001 C CNN
F 1 "GND" H 8055 5127 50  0000 C CNN
F 2 "" H 8050 5300 50  0001 C CNN
F 3 "" H 8050 5300 50  0001 C CNN
	1    8050 5300
	1    0    0    -1  
$EndComp
Wire Wire Line
	8050 4800 8050 4850
Wire Wire Line
	8050 5200 8050 5250
$Comp
L Device:C C8
U 1 1 5BBE3547
P 8500 5050
AR Path="/5BBA1B7D/5BBE3547" Ref="C8"  Part="1" 
AR Path="/5BC96DA2/5BBE3547" Ref="C28"  Part="1" 
AR Path="/5BC995E5/5BBE3547" Ref="C48"  Part="1" 
F 0 "C48" H 8615 5096 50  0000 L CNN
F 1 "0.001uF" H 8615 5005 50  0000 L CNN
F 2 "Capacitor_SMD:C_0402_1005Metric" H 8538 4900 50  0001 C CNN
F 3 "~" H 8500 5050 50  0001 C CNN
F 4 "710-885012005018" H 8500 5050 50  0001 C CNN "MouserPartNumber"
	1    8500 5050
	1    0    0    -1  
$EndComp
Wire Wire Line
	8050 4850 8500 4850
Wire Wire Line
	8500 4850 8500 4900
Connection ~ 8050 4850
Wire Wire Line
	8050 4850 8050 4900
Wire Wire Line
	8500 5200 8500 5250
Wire Wire Line
	8500 5250 8050 5250
Connection ~ 8050 5250
Wire Wire Line
	8050 5250 8050 5300
$Comp
L power:+1V8 #PWR041
U 1 1 5BBE3556
P 8050 3850
AR Path="/5BBA1B7D/5BBE3556" Ref="#PWR041"  Part="1" 
AR Path="/5BC96DA2/5BBE3556" Ref="#PWR082"  Part="1" 
AR Path="/5BC995E5/5BBE3556" Ref="#PWR0123"  Part="1" 
F 0 "#PWR0123" H 8050 3700 50  0001 C CNN
F 1 "+1V8" H 8065 4023 50  0000 C CNN
F 2 "" H 8050 3850 50  0001 C CNN
F 3 "" H 8050 3850 50  0001 C CNN
	1    8050 3850
	1    0    0    -1  
$EndComp
$Comp
L power:+1V8 #PWR043
U 1 1 5BBE355C
P 8050 4800
AR Path="/5BBA1B7D/5BBE355C" Ref="#PWR043"  Part="1" 
AR Path="/5BC96DA2/5BBE355C" Ref="#PWR084"  Part="1" 
AR Path="/5BC995E5/5BBE355C" Ref="#PWR0125"  Part="1" 
F 0 "#PWR0125" H 8050 4650 50  0001 C CNN
F 1 "+1V8" H 8065 4973 50  0000 C CNN
F 2 "" H 8050 4800 50  0001 C CNN
F 3 "" H 8050 4800 50  0001 C CNN
	1    8050 4800
	1    0    0    -1  
$EndComp
Text Notes 6700 5200 0    50   ~ 0
Place near pins 10, 21, 23, 25,\n36, 37, and 43\n0.001uF closer to pin
Text Notes 4450 5600 0    50   ~ 0
Analog In Circuitry
NoConn ~ 5000 4550
Text Label 3000 3700 0    50   ~ 0
MS
Wire Wire Line
	3000 3700 3200 3700
$Comp
L Connector_Generic:Conn_01x02 J5
U 1 1 5BC0CDCC
P 1300 2800
AR Path="/5BBA1B7D/5BC0CDCC" Ref="J5"  Part="1" 
AR Path="/5BC96DA2/5BC0CDCC" Ref="J13"  Part="1" 
AR Path="/5BC995E5/5BC0CDCC" Ref="J21"  Part="1" 
F 0 "J21" H 1380 2792 50  0000 L CNN
F 1 "Conn_01x02" H 1380 2701 50  0000 L CNN
F 2 "Jumper:SolderJumper-2_P1.3mm_Open_RoundedPad1.0x1.5mm" H 1300 2800 50  0001 C CNN
F 3 "~" H 1300 2800 50  0001 C CNN
	1    1300 2800
	1    0    0    -1  
$EndComp
Text Label 950  2900 0    50   ~ 0
MS
Wire Wire Line
	950  2900 1100 2900
$Comp
L power:+1V8 #PWR018
U 1 1 5BC13D92
P 1050 2750
AR Path="/5BBA1B7D/5BC13D92" Ref="#PWR018"  Part="1" 
AR Path="/5BC96DA2/5BC13D92" Ref="#PWR059"  Part="1" 
AR Path="/5BC995E5/5BC13D92" Ref="#PWR0100"  Part="1" 
F 0 "#PWR0100" H 1050 2600 50  0001 C CNN
F 1 "+1V8" H 1065 2923 50  0000 C CNN
F 2 "" H 1050 2750 50  0001 C CNN
F 3 "" H 1050 2750 50  0001 C CNN
	1    1050 2750
	1    0    0    -1  
$EndComp
Wire Wire Line
	1050 2750 1050 2800
Wire Wire Line
	1050 2800 1100 2800
Text Label 3000 3800 0    50   ~ 0
EQS
Wire Wire Line
	3000 3800 3200 3800
$Comp
L Connector_Generic:Conn_01x02 J6
U 1 1 5BC1B485
P 1800 3700
AR Path="/5BBA1B7D/5BC1B485" Ref="J6"  Part="1" 
AR Path="/5BC96DA2/5BC1B485" Ref="J14"  Part="1" 
AR Path="/5BC995E5/5BC1B485" Ref="J22"  Part="1" 
F 0 "J22" H 1880 3692 50  0000 L CNN
F 1 "Conn_01x02" H 1880 3601 50  0000 L CNN
F 2 "Jumper:SolderJumper-2_P1.3mm_Open_RoundedPad1.0x1.5mm" H 1800 3700 50  0001 C CNN
F 3 "~" H 1800 3700 50  0001 C CNN
	1    1800 3700
	1    0    0    -1  
$EndComp
Text Label 1150 3800 0    50   ~ 0
EQS
Wire Wire Line
	1150 3800 1300 3800
$Comp
L power:+1V8 #PWR019
U 1 1 5BC1B48E
P 1550 3600
AR Path="/5BBA1B7D/5BC1B48E" Ref="#PWR019"  Part="1" 
AR Path="/5BC96DA2/5BC1B48E" Ref="#PWR060"  Part="1" 
AR Path="/5BC995E5/5BC1B48E" Ref="#PWR0101"  Part="1" 
F 0 "#PWR0101" H 1550 3450 50  0001 C CNN
F 1 "+1V8" H 1565 3773 50  0000 C CNN
F 2 "" H 1550 3600 50  0001 C CNN
F 3 "" H 1550 3600 50  0001 C CNN
	1    1550 3600
	1    0    0    -1  
$EndComp
Wire Wire Line
	1550 3700 1600 3700
$Comp
L Device:R R6
U 1 1 5BC26F37
P 1450 3800
AR Path="/5BBA1B7D/5BC26F37" Ref="R6"  Part="1" 
AR Path="/5BC96DA2/5BC26F37" Ref="R19"  Part="1" 
AR Path="/5BC995E5/5BC26F37" Ref="R32"  Part="1" 
F 0 "R32" H 1520 3846 50  0000 L CNN
F 1 "30k" H 1520 3755 50  0000 L CNN
F 2 "Resistor_SMD:R_0402_1005Metric" V 1380 3800 50  0001 C CNN
F 3 "~" H 1450 3800 50  0001 C CNN
F 4 "603-RC0402FR-0730KL" H 1450 3800 50  0001 C CNN "MouserPartNumber"
	1    1450 3800
	0    1    1    0   
$EndComp
$Comp
L Device:R R9
U 1 1 5BC2B95B
P 1200 4500
AR Path="/5BBA1B7D/5BC2B95B" Ref="R9"  Part="1" 
AR Path="/5BC96DA2/5BC2B95B" Ref="R22"  Part="1" 
AR Path="/5BC995E5/5BC2B95B" Ref="R35"  Part="1" 
F 0 "R35" H 1270 4546 50  0000 L CNN
F 1 "5.9k" H 1270 4455 50  0000 L CNN
F 2 "Resistor_SMD:R_0402_1005Metric" V 1130 4500 50  0001 C CNN
F 3 "~" H 1200 4500 50  0001 C CNN
F 4 "603-RC0402FR-135K9L" H 1200 4500 50  0001 C CNN "MouserPartNumber"
	1    1200 4500
	1    0    0    -1  
$EndComp
Text Label 950  4350 0    50   ~ 0
DRS
Wire Wire Line
	950  4350 1200 4350
$Comp
L Connector_Generic:Conn_01x02 J10
U 1 1 5BC37A79
P 1450 4250
AR Path="/5BBA1B7D/5BC37A79" Ref="J10"  Part="1" 
AR Path="/5BC96DA2/5BC37A79" Ref="J18"  Part="1" 
AR Path="/5BC995E5/5BC37A79" Ref="J26"  Part="1" 
F 0 "J26" H 1530 4242 50  0000 L CNN
F 1 "Conn_01x02" H 1530 4151 50  0000 L CNN
F 2 "Jumper:SolderJumper-2_P1.3mm_Open_RoundedPad1.0x1.5mm" H 1450 4250 50  0001 C CNN
F 3 "~" H 1450 4250 50  0001 C CNN
	1    1450 4250
	1    0    0    -1  
$EndComp
Wire Wire Line
	1200 4350 1250 4350
Connection ~ 1200 4350
$Comp
L power:GND #PWR024
U 1 1 5BC3FD82
P 1200 4700
AR Path="/5BBA1B7D/5BC3FD82" Ref="#PWR024"  Part="1" 
AR Path="/5BC96DA2/5BC3FD82" Ref="#PWR065"  Part="1" 
AR Path="/5BC995E5/5BC3FD82" Ref="#PWR0106"  Part="1" 
F 0 "#PWR0106" H 1200 4450 50  0001 C CNN
F 1 "GND" H 1205 4527 50  0000 C CNN
F 2 "" H 1200 4700 50  0001 C CNN
F 3 "" H 1200 4700 50  0001 C CNN
	1    1200 4700
	1    0    0    -1  
$EndComp
Wire Wire Line
	1200 4700 1200 4650
$Comp
L power:+1V8 #PWR023
U 1 1 5BC441C7
P 1200 4200
AR Path="/5BBA1B7D/5BC441C7" Ref="#PWR023"  Part="1" 
AR Path="/5BC96DA2/5BC441C7" Ref="#PWR064"  Part="1" 
AR Path="/5BC995E5/5BC441C7" Ref="#PWR0105"  Part="1" 
F 0 "#PWR0105" H 1200 4050 50  0001 C CNN
F 1 "+1V8" H 1215 4373 50  0000 C CNN
F 2 "" H 1200 4200 50  0001 C CNN
F 3 "" H 1200 4200 50  0001 C CNN
	1    1200 4200
	1    0    0    -1  
$EndComp
Wire Wire Line
	1200 4200 1200 4250
Wire Wire Line
	1200 4250 1250 4250
Text Label 3000 4000 0    50   ~ 0
DRS
Wire Wire Line
	3000 4000 3200 4000
Text Label 3000 4100 0    50   ~ 0
CXTP
Wire Wire Line
	3000 4100 3200 4100
$Comp
L Connector_Generic:Conn_01x02 J7
U 1 1 5BC51F67
P 1600 5600
AR Path="/5BBA1B7D/5BC51F67" Ref="J7"  Part="1" 
AR Path="/5BC96DA2/5BC51F67" Ref="J15"  Part="1" 
AR Path="/5BC995E5/5BC51F67" Ref="J23"  Part="1" 
F 0 "J23" H 1680 5592 50  0000 L CNN
F 1 "Conn_01x02" H 1680 5501 50  0000 L CNN
F 2 "Jumper:SolderJumper-2_P1.3mm_Open_RoundedPad1.0x1.5mm" H 1600 5600 50  0001 C CNN
F 3 "~" H 1600 5600 50  0001 C CNN
	1    1600 5600
	1    0    0    -1  
$EndComp
Text Label 950  5700 0    50   ~ 0
CXTP
Wire Wire Line
	950  5700 1100 5700
$Comp
L power:+1V8 #PWR020
U 1 1 5BC51F70
P 1400 5550
AR Path="/5BBA1B7D/5BC51F70" Ref="#PWR020"  Part="1" 
AR Path="/5BC96DA2/5BC51F70" Ref="#PWR061"  Part="1" 
AR Path="/5BC995E5/5BC51F70" Ref="#PWR0102"  Part="1" 
F 0 "#PWR0102" H 1400 5400 50  0001 C CNN
F 1 "+1V8" H 1415 5723 50  0000 C CNN
F 2 "" H 1400 5550 50  0001 C CNN
F 3 "" H 1400 5550 50  0001 C CNN
	1    1400 5550
	1    0    0    -1  
$EndComp
$Comp
L Device:R R7
U 1 1 5BC65A9F
P 1250 5700
AR Path="/5BBA1B7D/5BC65A9F" Ref="R7"  Part="1" 
AR Path="/5BC96DA2/5BC65A9F" Ref="R20"  Part="1" 
AR Path="/5BC995E5/5BC65A9F" Ref="R33"  Part="1" 
F 0 "R33" H 1320 5746 50  0000 L CNN
F 1 "5.9k" H 1320 5655 50  0000 L CNN
F 2 "Resistor_SMD:R_0402_1005Metric" V 1180 5700 50  0001 C CNN
F 3 "~" H 1250 5700 50  0001 C CNN
F 4 "603-RC0402FR-135K9L" H 1250 5700 50  0001 C CNN "MouserPartNumber"
	1    1250 5700
	0    -1   -1   0   
$EndComp
Wire Wire Line
	1400 5550 1400 5600
Text HLabel 2950 3900 0    50   Input ~ 0
~PWDN
Wire Wire Line
	2950 3900 3200 3900
Text HLabel 5450 3100 2    50   Output ~ 0
DOUT_1_+
Text HLabel 5450 3200 2    50   Output ~ 0
DOUT_1_-
Text HLabel 5450 3350 2    50   Output ~ 0
DOUT_2_+
Text HLabel 5450 3450 2    50   Output ~ 0
DOUT_2_-
Text HLabel 5450 3600 2    50   Output ~ 0
DOUT_3_+
Text HLabel 5450 3700 2    50   Output ~ 0
DOUT_3_-
Text HLabel 5450 3850 2    50   Output ~ 0
DOUT_4_+
Text HLabel 5450 3950 2    50   Output ~ 0
DOUT_4_-
Text HLabel 5450 4100 2    50   Output ~ 0
CLK+
Text HLabel 5450 4200 2    50   Output ~ 0
CLK-
NoConn ~ 5400 2650
NoConn ~ 5400 2750
NoConn ~ 3950 2300
NoConn ~ 4050 2300
NoConn ~ 4150 2300
Text HLabel 3650 2250 1    50   BiDi ~ 0
SDA
Wire Wire Line
	3650 2250 3650 2300
Text HLabel 3750 2250 1    50   BiDi ~ 0
SCL
Wire Wire Line
	3750 2250 3750 2300
$Comp
L power:+1V8 #PWR030
U 1 1 5BCB6B1B
P 4650 2250
AR Path="/5BBA1B7D/5BCB6B1B" Ref="#PWR030"  Part="1" 
AR Path="/5BC96DA2/5BCB6B1B" Ref="#PWR071"  Part="1" 
AR Path="/5BC995E5/5BCB6B1B" Ref="#PWR0112"  Part="1" 
F 0 "#PWR0112" H 4650 2100 50  0001 C CNN
F 1 "+1V8" H 4665 2423 50  0000 C CNN
F 2 "" H 4650 2250 50  0001 C CNN
F 3 "" H 4650 2250 50  0001 C CNN
	1    4650 2250
	1    0    0    -1  
$EndComp
Wire Wire Line
	4650 2250 4650 2300
Text Label 4950 2100 3    50   ~ 0
CDS
Wire Wire Line
	4950 2300 4950 2100
$Comp
L Connector_Generic:Conn_01x02 J9
U 1 1 5BCD1924
P 1300 6900
AR Path="/5BBA1B7D/5BCD1924" Ref="J9"  Part="1" 
AR Path="/5BC96DA2/5BCD1924" Ref="J17"  Part="1" 
AR Path="/5BC995E5/5BCD1924" Ref="J25"  Part="1" 
F 0 "J25" H 1380 6892 50  0000 L CNN
F 1 "Conn_01x02" H 1380 6801 50  0000 L CNN
F 2 "Jumper:SolderJumper-2_P1.3mm_Open_RoundedPad1.0x1.5mm" H 1300 6900 50  0001 C CNN
F 3 "~" H 1300 6900 50  0001 C CNN
	1    1300 6900
	1    0    0    -1  
$EndComp
Text Label 950  7000 0    50   ~ 0
CDS
Wire Wire Line
	950  7000 1100 7000
$Comp
L power:+1V8 #PWR022
U 1 1 5BCD192D
P 1050 6850
AR Path="/5BBA1B7D/5BCD192D" Ref="#PWR022"  Part="1" 
AR Path="/5BC96DA2/5BCD192D" Ref="#PWR063"  Part="1" 
AR Path="/5BC995E5/5BCD192D" Ref="#PWR0104"  Part="1" 
F 0 "#PWR0104" H 1050 6700 50  0001 C CNN
F 1 "+1V8" H 1065 7023 50  0000 C CNN
F 2 "" H 1050 6850 50  0001 C CNN
F 3 "" H 1050 6850 50  0001 C CNN
	1    1050 6850
	1    0    0    -1  
$EndComp
Wire Wire Line
	1050 6850 1050 6900
Wire Wire Line
	1050 6900 1100 6900
$Comp
L Connector_Generic:Conn_01x02 J8
U 1 1 5BCD818C
P 1600 6450
AR Path="/5BBA1B7D/5BCD818C" Ref="J8"  Part="1" 
AR Path="/5BC96DA2/5BCD818C" Ref="J16"  Part="1" 
AR Path="/5BC995E5/5BCD818C" Ref="J24"  Part="1" 
F 0 "J24" H 1680 6442 50  0000 L CNN
F 1 "Conn_01x02" H 1680 6351 50  0000 L CNN
F 2 "Jumper:SolderJumper-2_P1.3mm_Open_RoundedPad1.0x1.5mm" H 1600 6450 50  0001 C CNN
F 3 "~" H 1600 6450 50  0001 C CNN
	1    1600 6450
	1    0    0    -1  
$EndComp
Text Label 950  6550 0    50   ~ 0
HIM
Wire Wire Line
	950  6550 1100 6550
$Comp
L power:+1V8 #PWR021
U 1 1 5BCD8195
P 1350 6350
AR Path="/5BBA1B7D/5BCD8195" Ref="#PWR021"  Part="1" 
AR Path="/5BC96DA2/5BCD8195" Ref="#PWR062"  Part="1" 
AR Path="/5BC995E5/5BCD8195" Ref="#PWR0103"  Part="1" 
F 0 "#PWR0103" H 1350 6200 50  0001 C CNN
F 1 "+1V8" H 1365 6523 50  0000 C CNN
F 2 "" H 1350 6350 50  0001 C CNN
F 3 "" H 1350 6350 50  0001 C CNN
	1    1350 6350
	1    0    0    -1  
$EndComp
Wire Wire Line
	1350 6450 1400 6450
$Comp
L Device:R R8
U 1 1 5BCD819E
P 1250 6550
AR Path="/5BBA1B7D/5BCD819E" Ref="R8"  Part="1" 
AR Path="/5BC96DA2/5BCD819E" Ref="R21"  Part="1" 
AR Path="/5BC995E5/5BCD819E" Ref="R34"  Part="1" 
F 0 "R34" H 1320 6596 50  0000 L CNN
F 1 "30k" H 1320 6505 50  0000 L CNN
F 2 "Resistor_SMD:R_0402_1005Metric" V 1180 6550 50  0001 C CNN
F 3 "~" H 1250 6550 50  0001 C CNN
F 4 "603-RC0402FR-0730KL" H 1250 6550 50  0001 C CNN "MouserPartNumber"
	1    1250 6550
	0    -1   -1   0   
$EndComp
Text Label 4850 2100 3    50   ~ 0
HIM
Wire Wire Line
	4850 2100 4850 2300
Text Label 5600 2850 2    50   ~ 0
ERR
Wire Wire Line
	5400 2850 5600 2850
Text Label 5600 2950 2    50   ~ 0
LFLT
Wire Wire Line
	5600 2950 5400 2950
Wire Wire Line
	5400 3100 5450 3100
Wire Wire Line
	5450 3200 5400 3200
Wire Wire Line
	5400 3350 5450 3350
Wire Wire Line
	5450 3450 5400 3450
Wire Wire Line
	5400 3600 5450 3600
Wire Wire Line
	5450 3700 5400 3700
Wire Wire Line
	5400 3850 5450 3850
Wire Wire Line
	5400 3950 5450 3950
Wire Wire Line
	5400 4100 5450 4100
Wire Wire Line
	5400 4200 5450 4200
Text Label 6450 1250 0    50   ~ 0
ERR
Wire Wire Line
	6450 1250 6600 1250
$Comp
L power:+3V3 #PWR033
U 1 1 5BC32C08
P 7100 850
AR Path="/5BBA1B7D/5BC32C08" Ref="#PWR033"  Part="1" 
AR Path="/5BC96DA2/5BC32C08" Ref="#PWR074"  Part="1" 
AR Path="/5BC995E5/5BC32C08" Ref="#PWR0115"  Part="1" 
F 0 "#PWR0115" H 7100 700 50  0001 C CNN
F 1 "+3V3" H 7115 1023 50  0000 C CNN
F 2 "" H 7100 850 50  0001 C CNN
F 3 "" H 7100 850 50  0001 C CNN
	1    7100 850 
	1    0    0    -1  
$EndComp
$Comp
L power:+3V3 #PWR039
U 1 1 5BC32CA2
P 8050 2550
AR Path="/5BBA1B7D/5BC32CA2" Ref="#PWR039"  Part="1" 
AR Path="/5BC96DA2/5BC32CA2" Ref="#PWR080"  Part="1" 
AR Path="/5BC995E5/5BC32CA2" Ref="#PWR0121"  Part="1" 
F 0 "#PWR0121" H 8050 2400 50  0001 C CNN
F 1 "+3V3" H 8065 2723 50  0000 C CNN
F 2 "" H 8050 2550 50  0001 C CNN
F 3 "" H 8050 2550 50  0001 C CNN
	1    8050 2550
	0    1    1    0   
$EndComp
$Comp
L Device:LED D2
U 1 1 5BC3327E
P 7900 1250
AR Path="/5BBA1B7D/5BC3327E" Ref="D2"  Part="1" 
AR Path="/5BC96DA2/5BC3327E" Ref="D4"  Part="1" 
AR Path="/5BC995E5/5BC3327E" Ref="D6"  Part="1" 
F 0 "D6" V 7938 1132 50  0000 R CNN
F 1 "RED" V 7847 1132 50  0000 R CNN
F 2 "LED_SMD:LED_0603_1608Metric" H 7900 1250 50  0001 C CNN
F 3 "https://www.mouser.com/datasheet/2/445/150060RS75000-368563.pdf" H 7900 1250 50  0001 C CNN
F 4 "710-150060RS75000" H 7900 1250 50  0001 C CNN "MouserPartNumber"
	1    7900 1250
	1    0    0    -1  
$EndComp
$Comp
L Device:R R14
U 1 1 5BC3A934
P 7550 1250
AR Path="/5BBA1B7D/5BC3A934" Ref="R14"  Part="1" 
AR Path="/5BC96DA2/5BC3A934" Ref="R27"  Part="1" 
AR Path="/5BC995E5/5BC3A934" Ref="R40"  Part="1" 
F 0 "R40" H 7620 1296 50  0000 L CNN
F 1 "162" H 7620 1205 50  0000 L CNN
F 2 "Resistor_SMD:R_0402_1005Metric" V 7480 1250 50  0001 C CNN
F 3 "" H 7550 1250 50  0001 C CNN
F 4 "603-RC0402FR-07162RL" H 7550 1250 50  0001 C CNN "MouserPartNumber"
	1    7550 1250
	0    1    1    0   
$EndComp
Wire Wire Line
	7750 1250 7700 1250
$Comp
L Device:LED D3
U 1 1 5BC49DAF
P 7850 2550
AR Path="/5BBA1B7D/5BC49DAF" Ref="D3"  Part="1" 
AR Path="/5BC96DA2/5BC49DAF" Ref="D5"  Part="1" 
AR Path="/5BC995E5/5BC49DAF" Ref="D7"  Part="1" 
F 0 "D7" V 7888 2433 50  0000 R CNN
F 1 "BLUE" V 7797 2433 50  0000 R CNN
F 2 "LED_SMD:LED_0603_1608Metric" H 7850 2550 50  0001 C CNN
F 3 "https://www.mouser.com/datasheet/2/445/150060BS75000-368917.pdf" H 7850 2550 50  0001 C CNN
F 4 "710-150060BS75000" H 7850 2550 50  0001 C CNN "MouserPartNumber"
	1    7850 2550
	1    0    0    -1  
$EndComp
$Comp
L Device:R R16
U 1 1 5BC49DB7
P 7500 2550
AR Path="/5BBA1B7D/5BC49DB7" Ref="R16"  Part="1" 
AR Path="/5BC96DA2/5BC49DB7" Ref="R29"  Part="1" 
AR Path="/5BC995E5/5BC49DB7" Ref="R42"  Part="1" 
F 0 "R42" H 7570 2596 50  0000 L CNN
F 1 "24" H 7570 2505 50  0000 L CNN
F 2 "Resistor_SMD:R_0402_1005Metric" V 7430 2550 50  0001 C CNN
F 3 "" H 7500 2550 50  0001 C CNN
F 4 "603-RC0402FR-0724RL" H 7500 2550 50  0001 C CNN "MouserPartNumber"
	1    7500 2550
	0    1    1    0   
$EndComp
Text HLabel 4350 2050 1    50   Input ~ 0
ADD0
Text HLabel 4450 2050 1    50   Input ~ 0
ADD1
Text HLabel 4550 2050 1    50   Input ~ 0
ADD2
Wire Wire Line
	4350 2050 4350 2300
Wire Wire Line
	4450 2300 4450 2050
Wire Wire Line
	4550 2300 4550 2050
Text Notes 7500 1100 0    50   ~ 0
Error indicator
Text Notes 7400 2400 0    50   ~ 0
Line Fault indicator
Wire Notes Line
	6200 6700 6200 3250
Wire Notes Line
	6200 3250 8650 3250
Wire Notes Line
	8650 3250 8650 1150
Text Notes 8250 5950 0    50   ~ 0
Power conditioning
Text Notes 750  5200 1    50   ~ 0
Configuration Solder Bridges\nWe really don't know what these values are supposed to be...
$Comp
L power:+1V8 #PWR031
U 1 1 5BCC4AD7
P 6900 850
AR Path="/5BBA1B7D/5BCC4AD7" Ref="#PWR031"  Part="1" 
AR Path="/5BC96DA2/5BCC4AD7" Ref="#PWR072"  Part="1" 
AR Path="/5BC995E5/5BCC4AD7" Ref="#PWR0113"  Part="1" 
F 0 "#PWR0113" H 6900 700 50  0001 C CNN
F 1 "+1V8" H 6915 1023 50  0000 C CNN
F 2 "" H 6900 850 50  0001 C CNN
F 3 "" H 6900 850 50  0001 C CNN
	1    6900 850 
	1    0    0    -1  
$EndComp
Wire Wire Line
	8050 2550 8000 2550
Wire Wire Line
	7700 2550 7650 2550
Text Label 4350 6450 2    20   ~ 0
GMSL_TRANSIENT
Text Label 4950 6800 2    20   ~ 0
GMSL_TRANSIENT2
$Comp
L power:GND #PWR0140
U 1 1 5BBE4219
P 4850 4550
AR Path="/5BC96DA2/5BBE4219" Ref="#PWR0140"  Part="1" 
AR Path="/5BBA1B7D/5BBE4219" Ref="#PWR0139"  Part="1" 
AR Path="/5BC995E5/5BBE4219" Ref="#PWR0141"  Part="1" 
F 0 "#PWR0141" H 4850 4300 50  0001 C CNN
F 1 "GND" H 4855 4377 50  0000 C CNN
F 2 "" H 4850 4550 50  0001 C CNN
F 3 "" H 4850 4550 50  0001 C CNN
	1    4850 4550
	1    0    0    -1  
$EndComp
Wire Wire Line
	1350 6350 1350 6450
Wire Wire Line
	1550 3600 1550 3700
Wire Wire Line
	900  1800 1100 1800
$Comp
L Device:L L1
U 1 1 5BE0118B
P 4000 6650
AR Path="/5BBA1B7D/5BE0118B" Ref="L1"  Part="1" 
AR Path="/5BC96DA2/5BE0118B" Ref="L2"  Part="1" 
AR Path="/5BC995E5/5BE0118B" Ref="L3"  Part="1" 
F 0 "L3" H 4053 6696 50  0000 L CNN
F 1 "220nH" H 4053 6605 50  0000 L CNN
F 2 "Inductors_SMD:L_0402" H 4000 6650 50  0001 C CNN
F 3 "https://www.mouser.com/datasheet/2/597/0402df-1076561.pdf" H 4000 6650 50  0001 C CNN
F 4 "994-0402DF-221XJRU" H 4000 6650 50  0001 C CNN "MouserPartNumber"
	1    4000 6650
	1    0    0    -1  
$EndComp
Wire Wire Line
	4000 6450 4000 6500
Wire Wire Line
	4000 6800 4000 6850
Wire Wire Line
	4000 6850 4100 6850
Text GLabel 4100 6850 2    50   Input ~ 0
GMSL_POWER
$Comp
L Logic_LevelTranslator:SN74LVC1T45DBV U7
U 1 1 5BE7FDF1
P 7000 1250
AR Path="/5BBA1B7D/5BE7FDF1" Ref="U7"  Part="1" 
AR Path="/5BC96DA2/5BE7FDF1" Ref="U9"  Part="1" 
AR Path="/5BC995E5/5BE7FDF1" Ref="U11"  Part="1" 
F 0 "U11" H 7350 1000 50  0000 L CNN
F 1 "SN74LVC1T45DBV" H 7350 950 50  0000 L CNN
F 2 "Package_TO_SOT_SMD:SOT-363_SC-70-6" H 7000 800 50  0001 C CNN
F 3 "https://www.mouser.com/datasheet/2/115/74AVC1T45-1018717.pdf" H 6100 600 50  0001 C CNN
F 4 "621-74AVC1T45DW-7" H 7000 1250 50  0001 C CNN "MouserPartNumber"
	1    7000 1250
	1    0    0    -1  
$EndComp
$Comp
L power:GND #PWR0114
U 1 1 5BEF966C
P 7000 1650
AR Path="/5BBA1B7D/5BEF966C" Ref="#PWR0114"  Part="1" 
AR Path="/5BC96DA2/5BEF966C" Ref="#PWR0159"  Part="1" 
AR Path="/5BC995E5/5BEF966C" Ref="#PWR0166"  Part="1" 
F 0 "#PWR0166" H 7000 1400 50  0001 C CNN
F 1 "GND" H 7005 1477 50  0000 C CNN
F 2 "" H 7000 1650 50  0001 C CNN
F 3 "" H 7000 1650 50  0001 C CNN
	1    7000 1650
	1    0    0    -1  
$EndComp
$Comp
L power:+3V3 #PWR0116
U 1 1 5BEF9760
P 8050 1250
AR Path="/5BBA1B7D/5BEF9760" Ref="#PWR0116"  Part="1" 
AR Path="/5BC96DA2/5BEF9760" Ref="#PWR0160"  Part="1" 
AR Path="/5BC995E5/5BEF9760" Ref="#PWR0167"  Part="1" 
F 0 "#PWR0167" H 8050 1100 50  0001 C CNN
F 1 "+3V3" V 8065 1378 50  0000 L CNN
F 2 "" H 8050 1250 50  0001 C CNN
F 3 "" H 8050 1250 50  0001 C CNN
	1    8050 1250
	0    1    1    0   
$EndComp
$Comp
L power:+3V3 #PWR0119
U 1 1 5BEF9A07
P 6600 1450
AR Path="/5BBA1B7D/5BEF9A07" Ref="#PWR0119"  Part="1" 
AR Path="/5BC96DA2/5BEF9A07" Ref="#PWR0161"  Part="1" 
AR Path="/5BC995E5/5BEF9A07" Ref="#PWR0168"  Part="1" 
F 0 "#PWR0168" H 6600 1300 50  0001 C CNN
F 1 "+3V3" V 6615 1578 50  0000 L CNN
F 2 "" H 6600 1450 50  0001 C CNN
F 3 "" H 6600 1450 50  0001 C CNN
	1    6600 1450
	0    -1   -1   0   
$EndComp
Text Label 6400 2550 0    50   ~ 0
LFLT
Wire Wire Line
	6400 2550 6550 2550
$Comp
L power:+3V3 #PWR0120
U 1 1 5BF1222C
P 7050 2150
AR Path="/5BBA1B7D/5BF1222C" Ref="#PWR0120"  Part="1" 
AR Path="/5BC96DA2/5BF1222C" Ref="#PWR0162"  Part="1" 
AR Path="/5BC995E5/5BF1222C" Ref="#PWR0169"  Part="1" 
F 0 "#PWR0169" H 7050 2000 50  0001 C CNN
F 1 "+3V3" H 7065 2323 50  0000 C CNN
F 2 "" H 7050 2150 50  0001 C CNN
F 3 "" H 7050 2150 50  0001 C CNN
	1    7050 2150
	1    0    0    -1  
$EndComp
$Comp
L power:+1V8 #PWR0122
U 1 1 5BF12232
P 6850 2150
AR Path="/5BBA1B7D/5BF12232" Ref="#PWR0122"  Part="1" 
AR Path="/5BC96DA2/5BF12232" Ref="#PWR0163"  Part="1" 
AR Path="/5BC995E5/5BF12232" Ref="#PWR0170"  Part="1" 
F 0 "#PWR0170" H 6850 2000 50  0001 C CNN
F 1 "+1V8" H 6865 2323 50  0000 C CNN
F 2 "" H 6850 2150 50  0001 C CNN
F 3 "" H 6850 2150 50  0001 C CNN
	1    6850 2150
	1    0    0    -1  
$EndComp
$Comp
L Logic_LevelTranslator:SN74LVC1T45DBV U6
U 1 1 5BF12239
P 6950 2550
AR Path="/5BBA1B7D/5BF12239" Ref="U6"  Part="1" 
AR Path="/5BC96DA2/5BF12239" Ref="U8"  Part="1" 
AR Path="/5BC995E5/5BF12239" Ref="U10"  Part="1" 
F 0 "U10" H 7300 2300 50  0000 L CNN
F 1 "SN74LVC1T45DBV" H 7300 2250 50  0000 L CNN
F 2 "Package_TO_SOT_SMD:SOT-363_SC-70-6" H 6950 2100 50  0001 C CNN
F 3 "https://www.mouser.com/datasheet/2/115/74AVC1T45-1018717.pdf" H 6050 1900 50  0001 C CNN
F 4 "621-74AVC1T45DW-7" H 6950 2550 50  0001 C CNN "MouserPartNumber"
	1    6950 2550
	1    0    0    -1  
$EndComp
$Comp
L power:GND #PWR0157
U 1 1 5BF1223F
P 6950 2950
AR Path="/5BBA1B7D/5BF1223F" Ref="#PWR0157"  Part="1" 
AR Path="/5BC96DA2/5BF1223F" Ref="#PWR0164"  Part="1" 
AR Path="/5BC995E5/5BF1223F" Ref="#PWR0171"  Part="1" 
F 0 "#PWR0171" H 6950 2700 50  0001 C CNN
F 1 "GND" H 6955 2777 50  0000 C CNN
F 2 "" H 6950 2950 50  0001 C CNN
F 3 "" H 6950 2950 50  0001 C CNN
	1    6950 2950
	1    0    0    -1  
$EndComp
$Comp
L power:+3V3 #PWR0158
U 1 1 5BF12245
P 6550 2750
AR Path="/5BBA1B7D/5BF12245" Ref="#PWR0158"  Part="1" 
AR Path="/5BC96DA2/5BF12245" Ref="#PWR0165"  Part="1" 
AR Path="/5BC995E5/5BF12245" Ref="#PWR0172"  Part="1" 
F 0 "#PWR0172" H 6550 2600 50  0001 C CNN
F 1 "+3V3" V 6565 2878 50  0000 L CNN
F 2 "" H 6550 2750 50  0001 C CNN
F 3 "" H 6550 2750 50  0001 C CNN
	1    6550 2750
	0    -1   -1   0   
$EndComp
$EndSCHEMATC
