EESchema Schematic File Version 4
LIBS:JetsonGMSLCSI2-cache
EELAYER 26 0
EELAYER END
$Descr A4 11693 8268
encoding utf-8
Sheet 1 5
Title "JetsonTX2GMSLCSI2"
Date "2018-10-07"
Rev "1"
Comp "UC Robotics Team"
Comment1 ""
Comment2 ""
Comment3 ""
Comment4 ""
$EndDescr
$Comp
L power:+3V3 #PWR08
U 1 1 5BB90051
P 7450 1650
F 0 "#PWR08" H 7450 1500 50  0001 C CNN
F 1 "+3V3" H 7465 1823 50  0000 C CNN
F 2 "" H 7450 1650 50  0001 C CNN
F 3 "" H 7450 1650 50  0001 C CNN
	1    7450 1650
	1    0    0    -1  
$EndComp
Wire Wire Line
	7300 1700 7350 1700
Wire Wire Line
	7450 1700 7450 1650
Wire Wire Line
	7300 1800 7350 1800
Wire Wire Line
	7350 1800 7350 1700
Connection ~ 7350 1700
Wire Wire Line
	7350 1700 7450 1700
Wire Wire Line
	7300 2000 7350 2000
Wire Wire Line
	7350 2000 7350 1800
Connection ~ 7350 1800
$Comp
L power:GND #PWR07
U 1 1 5BB901D7
P 7350 5550
F 0 "#PWR07" H 7350 5300 50  0001 C CNN
F 1 "GND" H 7355 5377 50  0000 C CNN
F 2 "" H 7350 5550 50  0001 C CNN
F 3 "" H 7350 5550 50  0001 C CNN
	1    7350 5550
	1    0    0    -1  
$EndComp
Wire Wire Line
	7350 5550 7350 5500
Wire Wire Line
	7350 3000 7300 3000
Wire Wire Line
	7300 3100 7350 3100
Connection ~ 7350 3100
Wire Wire Line
	7350 3100 7350 3000
Wire Wire Line
	7300 3200 7350 3200
Connection ~ 7350 3200
Wire Wire Line
	7350 3200 7350 3100
Wire Wire Line
	7300 3300 7350 3300
Connection ~ 7350 3300
Wire Wire Line
	7350 3300 7350 3200
Wire Wire Line
	7300 3400 7350 3400
Connection ~ 7350 3400
Wire Wire Line
	7350 3400 7350 3300
Wire Wire Line
	7300 3500 7350 3500
Connection ~ 7350 3500
Wire Wire Line
	7350 3500 7350 3400
Wire Wire Line
	7300 3600 7350 3600
Connection ~ 7350 3600
Wire Wire Line
	7350 3600 7350 3500
Wire Wire Line
	7300 3700 7350 3700
Connection ~ 7350 3700
Wire Wire Line
	7350 3700 7350 3600
Wire Wire Line
	7300 3800 7350 3800
Connection ~ 7350 3800
Wire Wire Line
	7350 3800 7350 3700
Wire Wire Line
	7300 3900 7350 3900
Connection ~ 7350 3900
Wire Wire Line
	7350 3900 7350 3800
Wire Wire Line
	7300 4000 7350 4000
Connection ~ 7350 4000
Wire Wire Line
	7350 4000 7350 3900
Wire Wire Line
	7300 4100 7350 4100
Connection ~ 7350 4100
Wire Wire Line
	7350 4100 7350 4000
Wire Wire Line
	7300 4200 7350 4200
Connection ~ 7350 4200
Wire Wire Line
	7350 4200 7350 4100
Wire Wire Line
	7300 4300 7350 4300
Connection ~ 7350 4300
Wire Wire Line
	7350 4300 7350 4200
Wire Wire Line
	7300 4400 7350 4400
Connection ~ 7350 4400
Wire Wire Line
	7350 4400 7350 4300
Wire Wire Line
	7300 4500 7350 4500
Connection ~ 7350 4500
Wire Wire Line
	7350 4500 7350 4400
Wire Wire Line
	7300 4600 7350 4600
Connection ~ 7350 4600
Wire Wire Line
	7350 4600 7350 4500
Wire Wire Line
	7300 4700 7350 4700
Connection ~ 7350 4700
Wire Wire Line
	7350 4700 7350 4600
Wire Wire Line
	7300 4800 7350 4800
Connection ~ 7350 4800
Wire Wire Line
	7350 4800 7350 4700
Wire Wire Line
	7300 4900 7350 4900
Connection ~ 7350 4900
Wire Wire Line
	7350 4900 7350 4800
Wire Wire Line
	7300 5000 7350 5000
Connection ~ 7350 5000
Wire Wire Line
	7350 5000 7350 4900
Wire Wire Line
	7300 5100 7350 5100
Connection ~ 7350 5100
Wire Wire Line
	7350 5100 7350 5000
Wire Wire Line
	7300 5200 7350 5200
Connection ~ 7350 5200
Wire Wire Line
	7350 5200 7350 5100
Wire Wire Line
	7300 5300 7350 5300
Connection ~ 7350 5300
Wire Wire Line
	7350 5300 7350 5200
Wire Wire Line
	7300 5400 7350 5400
Connection ~ 7350 5400
Wire Wire Line
	7350 5400 7350 5300
Wire Wire Line
	7300 5500 7350 5500
Connection ~ 7350 5500
Wire Wire Line
	7350 5500 7350 5400
$Comp
L power:+1V8 #PWR010
U 1 1 5BB9B8D6
P 7450 2550
F 0 "#PWR010" H 7450 2400 50  0001 C CNN
F 1 "+1V8" H 7465 2723 50  0000 C CNN
F 2 "" H 7450 2550 50  0001 C CNN
F 3 "" H 7450 2550 50  0001 C CNN
	1    7450 2550
	1    0    0    -1  
$EndComp
Wire Wire Line
	7300 2800 7550 2800
Wire Wire Line
	7300 2600 7450 2600
Wire Wire Line
	7450 2600 7450 2550
$Comp
L power:+1V2 #PWR011
U 1 1 5BBA06F7
P 7550 2750
F 0 "#PWR011" H 7550 2600 50  0001 C CNN
F 1 "+1V2" H 7565 2923 50  0000 C CNN
F 2 "" H 7550 2750 50  0001 C CNN
F 3 "" H 7550 2750 50  0001 C CNN
	1    7550 2750
	1    0    0    -1  
$EndComp
Wire Wire Line
	7550 2750 7550 2800
$Sheet
S 2150 1250 950  1350
U 5BBA1B7D
F0 "Decoder1" 50
F1 "Decoder.sch" 50
F2 "~PWDN" I L 2150 2450 50 
F3 "DOUT_1_+" O R 3100 1300 50 
F4 "DOUT_1_-" O R 3100 1400 50 
F5 "DOUT_2_+" O R 3100 1700 50 
F6 "DOUT_2_-" O R 3100 1800 50 
F7 "DOUT_3_+" O R 3100 2000 50 
F8 "DOUT_4_-" O R 3100 2500 50 
F9 "DOUT_4_+" O R 3100 2400 50 
F10 "CLK+" O R 3100 1500 50 
F11 "CLK-" O R 3100 1600 50 
F12 "SDA" B L 2150 1950 50 
F13 "SCL" B L 2150 2050 50 
F14 "ADD0" I L 2150 1450 50 
F15 "ADD1" I L 2150 1550 50 
F16 "ADD2" I L 2150 1650 50 
F17 "DOUT_3_-" O R 3100 2100 50 
$EndSheet
Wire Wire Line
	3100 1300 3200 1300
Wire Wire Line
	3100 1400 3200 1400
Wire Wire Line
	3100 1500 3200 1500
Wire Wire Line
	3100 1600 3200 1600
Wire Wire Line
	3100 1700 3200 1700
Wire Wire Line
	3200 1800 3100 1800
Wire Wire Line
	3100 2000 3200 2000
Wire Wire Line
	3100 2100 3200 2100
Wire Wire Line
	3100 2400 3200 2400
Wire Wire Line
	3100 2500 3200 2500
$Sheet
S 2150 2650 950  1350
U 5BC96DA2
F0 "Decoder2" 50
F1 "Decoder.sch" 50
F2 "~PWDN" I L 2150 3850 50 
F3 "DOUT_1_+" O R 3100 2700 50 
F4 "DOUT_1_-" O R 3100 2800 50 
F5 "DOUT_2_+" O R 3100 3100 50 
F6 "DOUT_2_-" O R 3100 3200 50 
F7 "DOUT_3_+" O R 3100 3400 50 
F8 "DOUT_4_-" O R 3100 3900 50 
F9 "DOUT_4_+" O R 3100 3800 50 
F10 "CLK+" O R 3100 2900 50 
F11 "CLK-" O R 3100 3000 50 
F12 "SDA" B L 2150 3350 50 
F13 "SCL" B L 2150 3450 50 
F14 "ADD0" I L 2150 2850 50 
F15 "ADD1" I L 2150 2950 50 
F16 "ADD2" I L 2150 3050 50 
F17 "DOUT_3_-" O R 3100 3500 50 
$EndSheet
Wire Wire Line
	3100 2700 3200 2700
Wire Wire Line
	3100 2800 3200 2800
Wire Wire Line
	3100 2900 3200 2900
Wire Wire Line
	3100 3000 3200 3000
Wire Wire Line
	3100 3100 3200 3100
Wire Wire Line
	3200 3200 3100 3200
Wire Wire Line
	3100 3400 3200 3400
Wire Wire Line
	3100 3500 3200 3500
Wire Wire Line
	3100 3800 3200 3800
Wire Wire Line
	3100 3900 3200 3900
$Sheet
S 2150 4050 950  1350
U 5BC995E5
F0 "Decoder3" 50
F1 "Decoder.sch" 50
F2 "~PWDN" I L 2150 5250 50 
F3 "DOUT_1_+" O R 3100 4100 50 
F4 "DOUT_1_-" O R 3100 4200 50 
F5 "DOUT_2_+" O R 3100 4500 50 
F6 "DOUT_2_-" O R 3100 4600 50 
F7 "DOUT_3_+" O R 3100 4800 50 
F8 "DOUT_4_-" O R 3100 5300 50 
F9 "DOUT_4_+" O R 3100 5200 50 
F10 "CLK+" O R 3100 4300 50 
F11 "CLK-" O R 3100 4400 50 
F12 "SDA" B L 2150 4750 50 
F13 "SCL" B L 2150 4850 50 
F14 "ADD0" I L 2150 4250 50 
F15 "ADD1" I L 2150 4350 50 
F16 "ADD2" I L 2150 4450 50 
F17 "DOUT_3_-" O R 3100 4900 50 
$EndSheet
Wire Wire Line
	3100 4100 3200 4100
Wire Wire Line
	3100 4200 3200 4200
Wire Wire Line
	3100 4300 3200 4300
Wire Wire Line
	3100 4400 3200 4400
Wire Wire Line
	3100 4500 3200 4500
Wire Wire Line
	3200 4600 3100 4600
Wire Wire Line
	3100 4800 3200 4800
Wire Wire Line
	3100 4900 3200 4900
Wire Wire Line
	3100 5200 3200 5200
Wire Wire Line
	3100 5300 3200 5300
Text Label 1950 1950 0    50   ~ 0
SDA
Text Label 1950 2050 0    50   ~ 0
SCL
Wire Wire Line
	1950 2050 2150 2050
Wire Wire Line
	1950 1950 2150 1950
Text Label 1950 3350 0    50   ~ 0
SDA
Text Label 1950 3450 0    50   ~ 0
SCL
Wire Wire Line
	1950 3450 2150 3450
Wire Wire Line
	1950 3350 2150 3350
Text Label 1950 4750 0    50   ~ 0
SDA
Text Label 1950 4850 0    50   ~ 0
SCL
Wire Wire Line
	1950 4850 2150 4850
Wire Wire Line
	1950 4750 2150 4750
NoConn ~ 3200 5500
NoConn ~ 3200 5600
NoConn ~ 4100 5800
NoConn ~ 4300 5800
NoConn ~ 4400 5800
NoConn ~ 4500 5800
NoConn ~ 4600 5800
NoConn ~ 4700 5800
NoConn ~ 5200 5800
NoConn ~ 5400 5800
NoConn ~ 5600 5800
NoConn ~ 5800 5800
NoConn ~ 6000 5800
NoConn ~ 6200 5800
NoConn ~ 6400 5800
NoConn ~ 6500 5800
NoConn ~ 6600 5800
NoConn ~ 6700 5800
NoConn ~ 6800 5800
NoConn ~ 4800 1100
NoConn ~ 4900 1100
NoConn ~ 5100 1100
NoConn ~ 5200 1100
NoConn ~ 5400 1100
NoConn ~ 5500 1100
NoConn ~ 5600 1100
NoConn ~ 5700 1100
NoConn ~ 5900 1100
NoConn ~ 6000 1100
NoConn ~ 6100 1100
NoConn ~ 6200 1100
NoConn ~ 3200 2200
NoConn ~ 3200 2300
NoConn ~ 3200 3600
NoConn ~ 3200 3700
NoConn ~ 3200 5000
NoConn ~ 3200 5100
Wire Wire Line
	2000 1400 2000 1450
Wire Wire Line
	2000 1650 2150 1650
Wire Wire Line
	2150 1550 2000 1550
Connection ~ 2000 1550
Wire Wire Line
	2000 1550 2000 1650
Wire Wire Line
	2000 1450 2150 1450
Connection ~ 2000 1450
Wire Wire Line
	2000 1450 2000 1550
Wire Wire Line
	2000 2800 2000 2850
Wire Wire Line
	2000 2850 2150 2850
Connection ~ 2000 2850
Wire Wire Line
	2000 2950 2150 2950
Wire Wire Line
	2000 2950 2000 2850
$Comp
L power:GND #PWR01
U 1 1 5BD7A419
P 1850 3100
F 0 "#PWR01" H 1850 2850 50  0001 C CNN
F 1 "GND" H 1855 2927 50  0000 C CNN
F 2 "" H 1850 3100 50  0001 C CNN
F 3 "" H 1850 3100 50  0001 C CNN
	1    1850 3100
	1    0    0    -1  
$EndComp
Wire Wire Line
	1850 3100 1850 3050
Wire Wire Line
	1850 3050 2150 3050
$Comp
L power:+1V8 #PWR05
U 1 1 5BD9731A
P 2000 4200
F 0 "#PWR05" H 2000 4050 50  0001 C CNN
F 1 "+1V8" H 2015 4373 50  0000 C CNN
F 2 "" H 2000 4200 50  0001 C CNN
F 3 "" H 2000 4200 50  0001 C CNN
	1    2000 4200
	1    0    0    -1  
$EndComp
Wire Wire Line
	2000 4200 2000 4250
Wire Wire Line
	2000 4250 2150 4250
$Comp
L power:GND #PWR02
U 1 1 5BD9C405
P 1900 4450
F 0 "#PWR02" H 1900 4200 50  0001 C CNN
F 1 "GND" H 1905 4277 50  0000 C CNN
F 2 "" H 1900 4450 50  0001 C CNN
F 3 "" H 1900 4450 50  0001 C CNN
	1    1900 4450
	1    0    0    -1  
$EndComp
Wire Wire Line
	1900 4450 2150 4450
$Comp
L power:+1V8 #PWR03
U 1 1 5BDA16DB
P 2000 1400
F 0 "#PWR03" H 2000 1250 50  0001 C CNN
F 1 "+1V8" H 2015 1573 50  0000 C CNN
F 2 "" H 2000 1400 50  0001 C CNN
F 3 "" H 2000 1400 50  0001 C CNN
	1    2000 1400
	1    0    0    -1  
$EndComp
$Comp
L power:+1V8 #PWR04
U 1 1 5BDA6992
P 2000 2800
F 0 "#PWR04" H 2000 2650 50  0001 C CNN
F 1 "+1V8" H 2015 2973 50  0000 C CNN
F 2 "" H 2000 2800 50  0001 C CNN
F 3 "" H 2000 2800 50  0001 C CNN
	1    2000 2800
	1    0    0    -1  
$EndComp
Wire Wire Line
	2150 4350 1900 4350
Wire Wire Line
	1900 4350 1900 4450
Connection ~ 1900 4450
$Comp
L Connector_Generic:Conn_01x02 J1
U 1 1 5BDCB124
P 1550 2450
F 0 "J1" H 1470 2125 50  0000 C CNN
F 1 "Conn_01x02" H 1470 2216 50  0000 C CNN
F 2 "Jumper:SolderJumper-2_P1.3mm_Bridged_RoundedPad1.0x1.5mm" H 1550 2450 50  0001 C CNN
F 3 "~" H 1550 2450 50  0001 C CNN
	1    1550 2450
	-1   0    0    1   
$EndComp
Text Label 2100 2350 2    50   ~ 0
D1_PWDN
Wire Wire Line
	1750 2350 2100 2350
Wire Wire Line
	1750 2450 2150 2450
$Comp
L Connector_Generic:Conn_01x02 J2
U 1 1 5BDEC855
P 1550 3850
F 0 "J2" H 1470 3525 50  0000 C CNN
F 1 "Conn_01x02" H 1470 3616 50  0000 C CNN
F 2 "Jumper:SolderJumper-2_P1.3mm_Bridged_RoundedPad1.0x1.5mm" H 1550 3850 50  0001 C CNN
F 3 "~" H 1550 3850 50  0001 C CNN
	1    1550 3850
	-1   0    0    1   
$EndComp
Text Label 2100 3750 2    50   ~ 0
D2_PWDN
Wire Wire Line
	1750 3750 2100 3750
Wire Wire Line
	1750 3850 2150 3850
$Comp
L Connector_Generic:Conn_01x02 J3
U 1 1 5BDF2652
P 1550 5250
F 0 "J3" H 1470 4925 50  0000 C CNN
F 1 "Conn_01x02" H 1470 5016 50  0000 C CNN
F 2 "Jumper:SolderJumper-2_P1.3mm_Bridged_RoundedPad1.0x1.5mm" H 1550 5250 50  0001 C CNN
F 3 "~" H 1550 5250 50  0001 C CNN
	1    1550 5250
	-1   0    0    1   
$EndComp
Text Label 2100 5150 2    50   ~ 0
D3_PWDN
Wire Wire Line
	1750 5150 2100 5150
Wire Wire Line
	1750 5250 2150 5250
Text Label 5000 5950 1    50   ~ 0
SDA
Wire Wire Line
	5000 5950 5000 5800
Text Label 4900 5950 1    50   ~ 0
SCL
Wire Wire Line
	4900 5950 4900 5800
Text Label 8800 2900 0    50   ~ 0
SCL
Wire Wire Line
	8800 2900 9000 2900
Text Label 9300 2900 0    50   ~ 0
SDA
$Comp
L power:+1V8 #PWR013
U 1 1 5BE181B5
P 9000 2550
F 0 "#PWR013" H 9000 2400 50  0001 C CNN
F 1 "+1V8" H 9015 2723 50  0000 C CNN
F 2 "" H 9000 2550 50  0001 C CNN
F 3 "" H 9000 2550 50  0001 C CNN
	1    9000 2550
	1    0    0    -1  
$EndComp
Wire Wire Line
	9000 2550 9000 2600
Wire Wire Line
	9500 2550 9500 2600
Wire Wire Line
	9300 2900 9500 2900
$Comp
L power:+1V8 #PWR014
U 1 1 5BE38592
P 9500 2550
F 0 "#PWR014" H 9500 2400 50  0001 C CNN
F 1 "+1V8" H 9515 2723 50  0000 C CNN
F 2 "" H 9500 2550 50  0001 C CNN
F 3 "" H 9500 2550 50  0001 C CNN
	1    9500 2550
	1    0    0    -1  
$EndComp
Text Notes 8950 3100 0    50   ~ 0
I2C Pullups\n(Optional?)
Text Label 5300 6150 1    50   ~ 0
D1_PWDN
Wire Wire Line
	5300 6150 5300 5800
Text Label 5700 6150 1    50   ~ 0
D2_PWDN
Wire Wire Line
	5700 6150 5700 5800
Text Label 6100 6150 1    50   ~ 0
D3_PWDN
Wire Wire Line
	6100 6150 6100 5800
NoConn ~ 4400 1100
NoConn ~ 4500 1100
NoConn ~ 4600 1100
$Comp
L power:+3V3 #PWR012
U 1 1 5BE7BB19
P 8900 1550
F 0 "#PWR012" H 8900 1400 50  0001 C CNN
F 1 "+3V3" H 8915 1723 50  0000 C CNN
F 2 "" H 8900 1550 50  0001 C CNN
F 3 "" H 8900 1550 50  0001 C CNN
	1    8900 1550
	1    0    0    -1  
$EndComp
$Comp
L Device:R R2
U 1 1 5BE7BB88
P 9100 1600
F 0 "R2" V 8893 1600 50  0000 C CNN
F 1 "200" V 8984 1600 50  0000 C CNN
F 2 "Resistor_SMD:R_0402_1005Metric" V 9030 1600 50  0001 C CNN
F 3 "~" H 9100 1600 50  0001 C CNN
F 4 "603-RC0402FR-07200RL" H 9100 1600 50  0001 C CNN "MouserPartNumber"
	1    9100 1600
	0    1    1    0   
$EndComp
Wire Wire Line
	8900 1550 8900 1600
Wire Wire Line
	8900 1600 8950 1600
$Comp
L Device:LED D1
U 1 1 5BE829C2
P 9450 1600
F 0 "D1" H 9442 1345 50  0000 C CNN
F 1 "GREEN" H 9442 1436 50  0000 C CNN
F 2 "LED_SMD:LED_0603_1608Metric" H 9450 1600 50  0001 C CNN
F 3 "~" H 9450 1600 50  0001 C CNN
F 4 "710-150060GS75000" H 9450 1600 50  0001 C CNN "MouserPartNumber"
	1    9450 1600
	-1   0    0    1   
$EndComp
Wire Wire Line
	9250 1600 9300 1600
$Comp
L power:GND #PWR015
U 1 1 5BE899C4
P 9650 1650
F 0 "#PWR015" H 9650 1400 50  0001 C CNN
F 1 "GND" H 9655 1477 50  0000 C CNN
F 2 "" H 9650 1650 50  0001 C CNN
F 3 "" H 9650 1650 50  0001 C CNN
	1    9650 1650
	1    0    0    -1  
$EndComp
Wire Wire Line
	9600 1600 9650 1600
Wire Wire Line
	9650 1600 9650 1650
Text Notes 9050 1200 0    50   ~ 0
Power Indicator
Text Notes 4900 3350 0    50   ~ 0
Jetson Connector
Text Notes 1050 3400 1    50   ~ 0
Transcoders
$Comp
L Device:R R?
U 1 1 5BBD60C3
P 9000 2750
AR Path="/5BBA1B7D/5BBD60C3" Ref="R?"  Part="1" 
AR Path="/5BC96DA2/5BBD60C3" Ref="R?"  Part="1" 
AR Path="/5BC995E5/5BBD60C3" Ref="R?"  Part="1" 
AR Path="/5BBD60C3" Ref="R1"  Part="1" 
F 0 "R1" H 9070 2796 50  0000 L CNN
F 1 "5.9k" H 9070 2705 50  0000 L CNN
F 2 "Resistor_SMD:R_0402_1005Metric" V 8930 2750 50  0001 C CNN
F 3 "~" H 9000 2750 50  0001 C CNN
F 4 "603-RC0402FR-135K9L" H 9000 2750 50  0001 C CNN "MouserPartNumber"
	1    9000 2750
	1    0    0    -1  
$EndComp
$Comp
L Device:R R?
U 1 1 5BBDCFAB
P 9500 2750
AR Path="/5BBA1B7D/5BBDCFAB" Ref="R?"  Part="1" 
AR Path="/5BC96DA2/5BBDCFAB" Ref="R?"  Part="1" 
AR Path="/5BC995E5/5BBDCFAB" Ref="R?"  Part="1" 
AR Path="/5BBDCFAB" Ref="R3"  Part="1" 
F 0 "R3" H 9570 2796 50  0000 L CNN
F 1 "5.9k" H 9570 2705 50  0000 L CNN
F 2 "Resistor_SMD:R_0402_1005Metric" V 9430 2750 50  0001 C CNN
F 3 "~" H 9500 2750 50  0001 C CNN
F 4 "603-RC0402FR-135K9L" H 9500 2750 50  0001 C CNN "MouserPartNumber"
	1    9500 2750
	1    0    0    -1  
$EndComp
$Sheet
S 1700 6250 750  650 
U 5BDA9688
F0 "Power" 50
F1 "power.sch" 50
$EndSheet
$Comp
L Connector_Generic:Conn_01x03 J28
U 1 1 5BDCCBAC
P 9350 4100
F 0 "J28" H 9430 4142 50  0000 L CNN
F 1 "Conn_01x03" H 9430 4051 50  0000 L CNN
F 2 "Jumper:SolderJumper-3_P1.3mm_Bridged2Bar12_RoundedPad1.0x1.5mm" H 9350 4100 50  0001 C CNN
F 3 "~" H 9350 4100 50  0001 C CNN
	1    9350 4100
	1    0    0    -1  
$EndComp
Text GLabel 9000 4100 0    50   Input ~ 0
GMSL_POWER
Wire Wire Line
	9000 4100 9150 4100
Wire Wire Line
	9150 4000 9000 4000
Wire Wire Line
	9000 4000 9000 3800
$Comp
L power:+12V #PWR0142
U 1 1 5BDD8AA9
P 9000 3800
F 0 "#PWR0142" H 9000 3650 50  0001 C CNN
F 1 "+12V" H 9015 3973 50  0000 C CNN
F 2 "" H 9000 3800 50  0001 C CNN
F 3 "" H 9000 3800 50  0001 C CNN
	1    9000 3800
	1    0    0    -1  
$EndComp
$Comp
L power:+5V #PWR0143
U 1 1 5BDDEAC9
P 9000 4400
F 0 "#PWR0143" H 9000 4250 50  0001 C CNN
F 1 "+5V" H 9015 4573 50  0000 C CNN
F 2 "" H 9000 4400 50  0001 C CNN
F 3 "" H 9000 4400 50  0001 C CNN
	1    9000 4400
	-1   0    0    1   
$EndComp
Wire Wire Line
	9000 4400 9000 4200
Wire Wire Line
	9000 4200 9150 4200
$Comp
L JetsonLib:QTH-060-01-H-D-A-CEC U1
U 1 1 5BB8FF37
P 6600 3100
F 0 "U1" H 5250 5278 50  0000 C CNN
F 1 "QTH-060-01-H-D-A-CEC" H 5250 5187 50  0000 C CNN
F 2 "JetsonGMSLCSI2:QTH-060-01-H-D-A" H 5100 2000 50  0001 C CNN
F 3 "JetsonTX1_TX2_Developer_Kit_Carrier_Board_Specification_C02.pdf" H 5200 1800 50  0001 C CNN
F 4 "200-QTH06001HDA" H 6600 3100 50  0001 C CNN "MouserPartNumber"
	1    6600 3100
	1    0    0    -1  
$EndComp
Wire Wire Line
	7300 1500 7350 1500
Wire Wire Line
	7350 1500 7350 1400
Wire Wire Line
	7350 1300 7300 1300
Wire Wire Line
	7300 1400 7350 1400
Connection ~ 7350 1400
Wire Wire Line
	7350 1400 7350 1300
Wire Wire Line
	7350 1300 7350 1100
Connection ~ 7350 1300
$Comp
L power:+5V #PWR0144
U 1 1 5BDF83E4
P 7350 1100
F 0 "#PWR0144" H 7350 950 50  0001 C CNN
F 1 "+5V" H 7365 1273 50  0000 C CNN
F 2 "" H 7350 1100 50  0001 C CNN
F 3 "" H 7350 1100 50  0001 C CNN
	1    7350 1100
	1    0    0    -1  
$EndComp
NoConn ~ 7300 2200
NoConn ~ 7300 2300
NoConn ~ 7300 2400
$Comp
L power:GND #PWR0145
U 1 1 5BF8F42A
P 9750 5350
F 0 "#PWR0145" H 9750 5100 50  0001 C CNN
F 1 "GND" H 9755 5177 50  0000 C CNN
F 2 "" H 9750 5350 50  0001 C CNN
F 3 "" H 9750 5350 50  0001 C CNN
	1    9750 5350
	0    1    1    0   
$EndComp
$Comp
L power:GNDPWR #PWR0148
U 1 1 5BF8F4E5
P 9950 5350
F 0 "#PWR0148" H 9950 5150 50  0001 C CNN
F 1 "GNDPWR" H 9954 5196 50  0000 C CNN
F 2 "" H 9950 5300 50  0001 C CNN
F 3 "" H 9950 5300 50  0001 C CNN
	1    9950 5350
	0    -1   -1   0   
$EndComp
$Comp
L Device:Net-Tie_2 NT1
U 1 1 5BF8F6CA
P 9850 5350
F 0 "NT1" H 9850 5528 50  0000 C CNN
F 1 "Net-Tie_2" H 9850 5437 50  0000 C CNN
F 2 "NetTie:NetTie-2_SMD_Pad2.0mm" H 9850 5350 50  0001 C CNN
F 3 "~" H 9850 5350 50  0001 C CNN
	1    9850 5350
	1    0    0    -1  
$EndComp
$EndSCHEMATC
