EESchema Schematic File Version 4
LIBS:JetsonGMSLCSI2-cache
EELAYER 26 0
EELAYER END
$Descr A4 11693 8268
encoding utf-8
Sheet 5 5
Title ""
Date ""
Rev ""
Comp ""
Comment1 ""
Comment2 ""
Comment3 ""
Comment4 ""
$EndDescr
$Comp
L JetsonLib:PAM2421 U5
U 1 1 5BDA973E
P 5450 4000
F 0 "U5" H 5450 4465 50  0000 C CNN
F 1 "PAM2421" H 5450 4374 50  0000 C CNN
F 2 "JetsonGMSLCSI2:SO-8EP" H 5450 4350 50  0001 C CNN
F 3 "https://www.mouser.com/datasheet/2/115/PAM2421_22_23-959631.pdf" H 5450 4350 50  0001 C CNN
F 4 "621-PAM2421AECADJR" H 5450 4000 50  0001 C CNN "MouserPartNumber"
	1    5450 4000
	1    0    0    -1  
$EndComp
$Comp
L power:+5V #PWR0147
U 1 1 5BDAF64D
P 3700 3900
F 0 "#PWR0147" H 3700 3750 50  0001 C CNN
F 1 "+5V" H 3715 4073 50  0000 C CNN
F 2 "" H 3700 3900 50  0001 C CNN
F 3 "" H 3700 3900 50  0001 C CNN
	1    3700 3900
	1    0    0    -1  
$EndComp
Wire Wire Line
	5000 4000 4900 4000
Wire Wire Line
	3700 4000 3700 3900
Wire Wire Line
	5000 4100 4900 4100
Wire Wire Line
	4900 4100 4900 4000
Connection ~ 4900 4000
$Comp
L Device:CP C61
U 1 1 5BDB8E47
P 3700 4150
F 0 "C61" H 3818 4196 50  0000 L CNN
F 1 "470uF" H 3818 4105 50  0000 L CNN
F 2 "Capacitor_THT:CP_Radial_D10.0mm_P5.00mm" H 3738 4000 50  0001 C CNN
F 3 "https://www.mouser.com/datasheet/2/231/lelon_REA[1]-1174811.pdf" H 3700 4150 50  0001 C CNN
F 4 "140-REA471M1EBK1012P" H 3700 4150 50  0001 C CNN "MouserPartNumber"
	1    3700 4150
	1    0    0    -1  
$EndComp
$Comp
L Device:CP C68
U 1 1 5BDB8FB3
P 7050 3950
F 0 "C68" H 7168 3996 50  0000 L CNN
F 1 "470uF" H 7168 3905 50  0000 L CNN
F 2 "Capacitor_THT:CP_Radial_D10.0mm_P5.00mm" H 7088 3800 50  0001 C CNN
F 3 "https://www.mouser.com/datasheet/2/231/lelon_REA[1]-1174811.pdf" H 7050 3950 50  0001 C CNN
F 4 "140-REA471M1EBK1012P" H 7050 3950 50  0001 C CNN "MouserPartNumber"
	1    7050 3950
	1    0    0    -1  
$EndComp
Wire Wire Line
	3700 4000 4150 4000
$Comp
L Device:CP C62
U 1 1 5BDB90A2
P 4150 4150
F 0 "C62" H 4268 4196 50  0000 L CNN
F 1 "10uF" H 4268 4105 50  0000 L CNN
F 2 "Capacitor_THT:CP_Radial_D6.3mm_P2.50mm" H 4188 4000 50  0001 C CNN
F 3 "~" H 4150 4150 50  0001 C CNN
F 4 "REA100M2ABK-0611P" H 4150 4150 50  0001 C CNN "MouserPartNumber"
	1    4150 4150
	1    0    0    -1  
$EndComp
Connection ~ 4150 4000
Wire Wire Line
	4150 4000 4550 4000
Connection ~ 3700 4000
$Comp
L Device:CP C67
U 1 1 5BDB91E4
P 6650 3950
F 0 "C67" H 6768 3996 50  0000 L CNN
F 1 "10uF" H 6768 3905 50  0000 L CNN
F 2 "Capacitor_THT:CP_Radial_D6.3mm_P2.50mm" H 6688 3800 50  0001 C CNN
F 3 "~" H 6650 3950 50  0001 C CNN
F 4 "REA100M2ABK-0611P" H 6650 3950 50  0001 C CNN "MouserPartNumber"
	1    6650 3950
	1    0    0    -1  
$EndComp
$Comp
L Device:C C63
U 1 1 5BDB9341
P 4550 4150
F 0 "C63" H 4665 4196 50  0000 L CNN
F 1 "1uF" H 4665 4105 50  0000 L CNN
F 2 "Capacitor_SMD:C_0603_1608Metric" H 4588 4000 50  0001 C CNN
F 3 "https://www.mouser.com/datasheet/2/445/885012106022-553988.pdf" H 4550 4150 50  0001 C CNN
F 4 "710-885012106022" H 4550 4150 50  0001 C CNN "MouserPartNumber"
	1    4550 4150
	1    0    0    -1  
$EndComp
Connection ~ 4550 4000
Wire Wire Line
	4550 4000 4650 4000
$Comp
L Device:C C66
U 1 1 5BDB9615
P 6200 4200
F 0 "C66" H 6315 4246 50  0000 L CNN
F 1 "10nF" H 6315 4155 50  0000 L CNN
F 2 "Capacitor_SMD:C_0402_1005Metric" H 6238 4050 50  0001 C CNN
F 3 "https://www.mouser.com/datasheet/2/447/UPY-AC_NP0X7R_16V-to-630V_8-1313906.pdf" H 6200 4200 50  0001 C CNN
F 4 "AC0402KPX7R9BB103" H 6200 4200 50  0001 C CNN "MouserPartNumber"
	1    6200 4200
	1    0    0    -1  
$EndComp
Wire Wire Line
	5900 4050 6200 4050
$Comp
L Device:R R30
U 1 1 5BDB987D
P 6150 4850
F 0 "R30" V 6357 4850 50  0000 C CNN
F 1 "84.5k" V 6266 4850 50  0000 C CNN
F 2 "Resistor_SMD:R_0402_1005Metric" V 6080 4850 50  0001 C CNN
F 3 "https://www.mouser.com/datasheet/2/447/PYu-RC_Group_51_RoHS_L_9-1314892.pdf" H 6150 4850 50  0001 C CNN
F 4 "603-RC0402FR-0784K5L" H 6150 4850 50  0001 C CNN "MouserPartNumber"
	1    6150 4850
	0    -1   -1   0   
$EndComp
$Comp
L Device:R R17
U 1 1 5BDB9953
P 5750 4850
F 0 "R17" V 5543 4850 50  0000 C CNN
F 1 "10k" V 5634 4850 50  0000 C CNN
F 2 "Resistor_SMD:R_0402_1005Metric" V 5680 4850 50  0001 C CNN
F 3 "https://www.mouser.com/datasheet/2/447/PYu-RC_Group_51_RoHS_L_9-1314892.pdf" H 5750 4850 50  0001 C CNN
F 4 "603-RC0402JR-7D10KL" H 5750 4850 50  0001 C CNN "MouserPartNumber"
	1    5750 4850
	0    1    1    0   
$EndComp
Wire Wire Line
	6000 4850 5950 4850
Wire Wire Line
	5950 4850 5950 4300
Wire Wire Line
	5950 4300 5900 4300
Connection ~ 5950 4850
Wire Wire Line
	5950 4850 5900 4850
$Comp
L Device:L_Core_Ferrite L4
U 1 1 5BDB9DB8
P 5450 3450
F 0 "L4" V 5675 3450 50  0000 C CNN
F 1 "6.8uH" V 5584 3450 50  0000 C CNN
F 2 "JetsonGMSLCSI2:SRN5040" H 5450 3450 50  0001 C CNN
F 3 "https://www.mouser.com/datasheet/2/54/bourns_09242018_SRN5040TA_datasheet-1483440.pdf" H 5450 3450 50  0001 C CNN
F 4 "652-SRN5040TA-6R8M" H 5450 3450 50  0001 C CNN "MouserPartNumber"
	1    5450 3450
	0    -1   -1   0   
$EndComp
Wire Wire Line
	4650 4000 4650 3450
Wire Wire Line
	4650 3450 5300 3450
Connection ~ 4650 4000
Wire Wire Line
	4650 4000 4900 4000
Wire Wire Line
	5600 3450 6050 3450
Wire Wire Line
	6050 3450 6050 3800
Wire Wire Line
	6050 3800 5900 3800
$Comp
L Device:D_Schottky D8
U 1 1 5BDBA639
P 6300 3800
F 0 "D8" H 6300 3584 50  0000 C CNN
F 1 "D_Schottky" H 6300 3675 50  0000 C CNN
F 2 "Diode_SMD:D_SOD-523" H 6300 3800 50  0001 C CNN
F 3 "https://www.mouser.com/datasheet/2/348/rb521sm-30t2r-e-1138936.pdf" H 6300 3800 50  0001 C CNN
F 4 "755-RB521SM-30T2R" H 6300 3800 50  0001 C CNN "MouserPartNumber"
	1    6300 3800
	-1   0    0    1   
$EndComp
Wire Wire Line
	6050 3800 6150 3800
Connection ~ 6050 3800
Wire Wire Line
	6450 3800 6500 3800
Wire Wire Line
	6500 3800 6500 4850
Wire Wire Line
	6500 4850 6300 4850
Wire Wire Line
	6500 3800 6650 3800
Connection ~ 6500 3800
Connection ~ 6650 3800
Wire Wire Line
	6650 3800 7050 3800
Wire Wire Line
	7050 3800 7450 3800
Wire Wire Line
	7450 3800 7450 3750
Connection ~ 7050 3800
$Comp
L power:+12V #PWR0153
U 1 1 5BDBB3E9
P 7450 3750
F 0 "#PWR0153" H 7450 3600 50  0001 C CNN
F 1 "+12V" H 7465 3923 50  0000 C CNN
F 2 "" H 7450 3750 50  0001 C CNN
F 3 "" H 7450 3750 50  0001 C CNN
	1    7450 3750
	1    0    0    -1  
$EndComp
$Comp
L Device:R R4
U 1 1 5BDBB698
P 4700 4800
F 0 "R4" H 4770 4846 50  0000 L CNN
F 1 "51k" H 4770 4755 50  0000 L CNN
F 2 "Resistor_SMD:R_0402_1005Metric" V 4630 4800 50  0001 C CNN
F 3 "https://www.mouser.com/datasheet/2/447/PYu-RC_Group_51_RoHS_L_9-1314892.pdf" H 4700 4800 50  0001 C CNN
F 4 "603-RC0402FR-0751KL" H 4700 4800 50  0001 C CNN "MouserPartNumber"
	1    4700 4800
	1    0    0    -1  
$EndComp
$Comp
L Device:C C64
U 1 1 5BDBB7F1
P 4700 5100
F 0 "C64" H 4815 5146 50  0000 L CNN
F 1 "2.2nF" H 4815 5055 50  0000 L CNN
F 2 "Capacitor_SMD:C_0402_1005Metric" H 4738 4950 50  0001 C CNN
F 3 "https://www.mouser.com/datasheet/2/445/885012205008-554381.pdf" H 4700 5100 50  0001 C CNN
F 4 "710-885012205008" H 4700 5100 50  0001 C CNN "MouserPartNumber"
	1    4700 5100
	1    0    0    -1  
$EndComp
$Comp
L Device:C C65
U 1 1 5BDBB8F9
P 5050 4950
F 0 "C65" H 5165 4996 50  0000 L CNN
F 1 "47pF" H 5165 4905 50  0000 L CNN
F 2 "Capacitor_SMD:C_0402_1005Metric" H 5088 4800 50  0001 C CNN
F 3 "https://www.mouser.com/datasheet/2/445/885012005078-1367631.pdf" H 5050 4950 50  0001 C CNN
F 4 "710-885012005078" H 5050 4950 50  0001 C CNN "MouserPartNumber"
	1    5050 4950
	1    0    0    -1  
$EndComp
Wire Wire Line
	5050 5100 5050 5300
Wire Wire Line
	4700 5300 4700 5250
Wire Wire Line
	5050 4800 5050 4600
Wire Wire Line
	5050 4600 4850 4600
Wire Wire Line
	4700 4600 4700 4650
Wire Wire Line
	5000 4300 4850 4300
Wire Wire Line
	4850 4300 4850 4600
Connection ~ 4850 4600
Wire Wire Line
	4850 4600 4700 4600
$Comp
L power:GNDPWR #PWR0149
U 1 1 5BF8A53C
P 5450 4500
F 0 "#PWR0149" H 5450 4300 50  0001 C CNN
F 1 "GNDPWR" H 5454 4346 50  0000 C CNN
F 2 "" H 5450 4450 50  0001 C CNN
F 3 "" H 5450 4450 50  0001 C CNN
	1    5450 4500
	1    0    0    -1  
$EndComp
$Comp
L power:GNDPWR #PWR0150
U 1 1 5BF8A606
P 5600 4850
F 0 "#PWR0150" H 5600 4650 50  0001 C CNN
F 1 "GNDPWR" V 5604 4741 50  0000 R CNN
F 2 "" H 5600 4800 50  0001 C CNN
F 3 "" H 5600 4800 50  0001 C CNN
	1    5600 4850
	0    1    1    0   
$EndComp
$Comp
L power:GNDPWR #PWR0151
U 1 1 5BF8A6DE
P 4850 5300
F 0 "#PWR0151" H 4850 5100 50  0001 C CNN
F 1 "GNDPWR" H 4854 5146 50  0000 C CNN
F 2 "" H 4850 5250 50  0001 C CNN
F 3 "" H 4850 5250 50  0001 C CNN
	1    4850 5300
	1    0    0    -1  
$EndComp
Wire Wire Line
	4700 5300 4850 5300
Connection ~ 4850 5300
Wire Wire Line
	4850 5300 5050 5300
$Comp
L power:GNDPWR #PWR0152
U 1 1 5BF8B2D1
P 3700 4300
F 0 "#PWR0152" H 3700 4100 50  0001 C CNN
F 1 "GNDPWR" H 3704 4146 50  0000 C CNN
F 2 "" H 3700 4250 50  0001 C CNN
F 3 "" H 3700 4250 50  0001 C CNN
	1    3700 4300
	1    0    0    -1  
$EndComp
$Comp
L power:GNDPWR #PWR0154
U 1 1 5BF8B31D
P 4150 4300
F 0 "#PWR0154" H 4150 4100 50  0001 C CNN
F 1 "GNDPWR" H 4154 4146 50  0000 C CNN
F 2 "" H 4150 4250 50  0001 C CNN
F 3 "" H 4150 4250 50  0001 C CNN
	1    4150 4300
	1    0    0    -1  
$EndComp
$Comp
L power:GNDPWR #PWR0155
U 1 1 5BF8B369
P 4550 4300
F 0 "#PWR0155" H 4550 4100 50  0001 C CNN
F 1 "GNDPWR" H 4554 4146 50  0000 C CNN
F 2 "" H 4550 4250 50  0001 C CNN
F 3 "" H 4550 4250 50  0001 C CNN
	1    4550 4300
	1    0    0    -1  
$EndComp
$Comp
L power:GNDPWR #PWR0156
U 1 1 5BF8D0BF
P 6200 4350
F 0 "#PWR0156" H 6200 4150 50  0001 C CNN
F 1 "GNDPWR" H 6204 4196 50  0000 C CNN
F 2 "" H 6200 4300 50  0001 C CNN
F 3 "" H 6200 4300 50  0001 C CNN
	1    6200 4350
	1    0    0    -1  
$EndComp
$Comp
L power:GNDPWR #PWR0173
U 1 1 5BF8D10B
P 7050 4100
F 0 "#PWR0173" H 7050 3900 50  0001 C CNN
F 1 "GNDPWR" H 7054 3946 50  0000 C CNN
F 2 "" H 7050 4050 50  0001 C CNN
F 3 "" H 7050 4050 50  0001 C CNN
	1    7050 4100
	1    0    0    -1  
$EndComp
$Comp
L power:GNDPWR #PWR0174
U 1 1 5BF8D157
P 6650 4100
F 0 "#PWR0174" H 6650 3900 50  0001 C CNN
F 1 "GNDPWR" H 6654 3946 50  0000 C CNN
F 2 "" H 6650 4050 50  0001 C CNN
F 3 "" H 6650 4050 50  0001 C CNN
	1    6650 4100
	1    0    0    -1  
$EndComp
$Comp
L power:GNDPWR #PWR?
U 1 1 5BFBE335
P 5000 3800
F 0 "#PWR?" H 5000 3600 50  0001 C CNN
F 1 "GNDPWR" H 5004 3646 50  0000 C CNN
F 2 "" H 5000 3750 50  0001 C CNN
F 3 "" H 5000 3750 50  0001 C CNN
	1    5000 3800
	0    1    1    0   
$EndComp
$EndSCHEMATC
