M48
;DRILL file {KiCad 5.0.1} date Sat 10 Nov 2018 11:11:53 AM EST
;FORMAT={-:-/ absolute / inch / decimal}
FMAT,2
INCH,TZ
T1C0.0079
T2C0.0100
T3C0.0157
T4C0.0315
T5C0.0394
T6C0.0461
T7C0.0669
%
G90
G05
M72
T1
X5.8582Y-4.5582
X5.8582Y-4.604
X5.8582Y-4.6497
X5.8582Y-4.6955
X5.8582Y-4.7413
X5.904Y-4.5582
X5.904Y-4.604
X5.904Y-4.6497
X5.904Y-4.6955
X5.904Y-4.7413
X5.9498Y-4.5582
X5.9498Y-4.604
X5.9498Y-4.6497
X5.9498Y-4.6955
X5.9498Y-4.7413
X5.9955Y-4.5582
X5.9955Y-4.604
X5.9955Y-4.6497
X5.9955Y-4.6955
X5.9955Y-4.7413
X6.0413Y-4.5582
X6.0413Y-4.604
X6.0413Y-4.6497
X6.0413Y-4.6955
X6.0413Y-4.7413
X5.8514Y-3.1383
X5.8514Y-3.184
X5.8514Y-3.2298
X5.8514Y-3.2756
X5.8514Y-3.3213
X5.8971Y-3.1383
X5.8971Y-3.184
X5.8971Y-3.2298
X5.8971Y-3.2756
X5.8971Y-3.3213
X5.9429Y-3.1383
X5.9429Y-3.184
X5.9429Y-3.2298
X5.9429Y-3.2756
X5.9429Y-3.3213
X5.9887Y-3.1383
X5.9887Y-3.184
X5.9887Y-3.2298
X5.9887Y-3.2756
X5.9887Y-3.3213
X6.0344Y-3.1383
X6.0344Y-3.184
X6.0344Y-3.2298
X6.0344Y-3.2756
X6.0344Y-3.3213
X5.8519Y-3.8406
X5.8519Y-3.8864
X5.8519Y-3.9322
X5.8519Y-3.9779
X5.8519Y-4.0237
X5.8977Y-3.8406
X5.8977Y-3.8864
X5.8977Y-3.9322
X5.8977Y-3.9779
X5.8977Y-4.0237
X5.9434Y-3.8406
X5.9434Y-3.8864
X5.9434Y-3.9322
X5.9434Y-3.9779
X5.9434Y-4.0237
X5.9892Y-3.8406
X5.9892Y-3.8864
X5.9892Y-3.9322
X5.9892Y-3.9779
X5.9892Y-4.0237
X6.035Y-3.8406
X6.035Y-3.8864
X6.035Y-3.9322
X6.035Y-3.9779
X6.035Y-4.0237
T2
X5.1577Y-4.0675
X5.1625Y-3.345
X5.165Y-3.635
X5.1764Y-3.6614
X5.1873Y-4.0675
X5.1925Y-3.6375
X5.1952Y-4.5551
X5.1964Y-4.4838
X5.1964Y-4.5134
X5.1975Y-3.1925
X5.2025Y-3.7475
X5.2046Y-4.1879
X5.2248Y-4.5551
X5.2254Y-4.1671
X5.2266Y-4.0537
X5.2275Y-4.3325
X5.2275Y-4.45
X5.23Y-4.3925
X5.2325Y-4.215
X5.2325Y-4.275
X5.235Y-3.7425
X5.3025Y-3.4475
X5.305Y-3.2925
X5.305Y-4.155
X5.3075Y-3.505
X5.3075Y-4.5125
X5.3123Y-4.6231
X5.3221Y-4.2796
X5.3221Y-4.3971
X5.3246Y-4.3371
X5.3359Y-4.2269
X5.3429Y-4.3004
X5.3429Y-4.4179
X5.3454Y-4.3579
X5.3548Y-3.4425
X5.3568Y-4.206
X5.4188Y-3.3598
X5.4189Y-4.4779
X5.4196Y-4.2278
X5.4275Y-3.4775
X5.4296Y-4.5729
X5.435Y-4.43
X5.4398Y-4.4571
X5.4404Y-4.2486
X5.4425Y-4.7277
X5.4425Y-4.7573
X5.4504Y-4.5521
X5.455Y-3.8827
X5.455Y-3.9123
X5.4575Y-4.3681
X5.4653Y-4.1844
X5.4775Y-3.29
X5.5196Y-4.7971
X5.5404Y-4.8179
X5.5425Y-3.8527
X5.5425Y-3.8823
X5.55Y-4.57
X5.5546Y-4.3083
X5.5575Y-3.645
X5.5575Y-3.7425
X5.5621Y-4.4529
X5.5623Y-4.0668
X5.5746Y-4.6004
X5.578Y-3.4132
X5.5793Y-3.3493
X5.5829Y-4.4321
X5.5879Y-3.5365
X5.595Y-3.8125
X5.5954Y-4.5796
X5.5989Y-3.434
X5.6001Y-3.3701
X5.6033Y-4.5529
X5.6121Y-3.6709
X5.6188Y-3.6966
X5.6241Y-4.532
X5.6321Y-3.1829
X5.6326Y-4.162
X5.6493Y-3.2793
X5.6495Y-3.867
X5.6529Y-3.1621
X5.6535Y-4.1412
X5.6548Y-3.6438
X5.6601Y-3.8376
X5.665Y-3.4925
X5.67Y-3.0925
X5.6701Y-3.3001
X5.6704Y-3.8879
X5.69Y-4.5429
X5.6921Y-3.1429
X5.7011Y-3.973
X5.71Y-3.635
X5.7129Y-3.1221
X5.7306Y-3.973
X5.7325Y-3.0925
X5.7375Y-4.8425
X5.7459Y-4.0995
X5.7571Y-4.2671
X5.765Y-2.8575
X5.7668Y-4.0787
X5.7725Y-4.11
X5.775Y-3.5375
X5.7775Y-3.41
X5.7779Y-4.2879
X5.7875Y-3.795
X5.79Y-4.78
X5.81Y-4.2225
X5.815Y-4.3054
X5.83Y-2.94
X5.83Y-3.65
X5.84Y-3.05
X5.84Y-4.37
X5.84Y-4.48
X5.8403Y-3.7609
X5.85Y-2.57
X5.86Y-3.51
X5.87Y-3.76
X5.8722Y-3.4108
X5.873Y-3.05
X5.8734Y-4.11
X5.8791Y-4.48
X5.8798Y-4.83
X5.88Y-3.6225
X5.89Y-4.22
X5.8944Y-3.7496
X5.8966Y-3.4003
X5.9Y-4.93
X5.9002Y-4.4638
X5.907Y-4.1
X5.9087Y-3.0487
X5.91Y-2.95
X5.91Y-3.66
X5.91Y-4.82
X5.9196Y-3.4135
X5.92Y-4.37
X5.9212Y-4.48
X5.93Y-4.21
X5.9336Y-4.1
X5.9367Y-4.8316
X5.9461Y-3.4116
X5.95Y-2.94
X5.95Y-3.65
X5.9563Y-4.1138
X5.96Y-2.5791
X5.96Y-4.37
X5.9606Y-4.82
X5.9626Y-4.48
X5.9731Y-3.4001
X5.98Y-3.5
X5.98Y-4.93
X5.9825Y-4.1096
X5.9842Y-4.8322
X6.Y-3.4
X6.0099Y-4.1109
X6.01Y-4.82
X6.0118Y-2.9307
X6.016Y-3.6444
X6.0194Y-4.3612
X6.02Y-4.94
X6.0315Y-3.41
X6.034Y-4.0997
X6.0383Y-2.9328
X6.0384Y-4.83
X6.0407Y-3.6543
X6.0433Y-4.3728
X6.05Y-4.21
X6.06Y-3.51
X6.0632Y-2.9421
X6.0672Y-3.6429
X6.07Y-4.3525
X6.0925Y-4.2175
X6.1Y-3.51
X6.1Y-4.07
X6.1088Y-3.2999
X6.11Y-3.1796
X6.11Y-3.2603
X6.11Y-3.65
X6.11Y-3.9627
X6.1187Y-4.7819
X6.12Y-3.87
X6.12Y-4.6
X6.12Y-4.6802
X6.1275Y-4.0486
X6.13Y-3.33
X6.1338Y-4.76
X6.14Y-2.88
X6.14Y-4.93
X6.15Y-2.94
X6.15Y-4.37
X6.1507Y-4.1207
X6.1585Y-4.844
X6.17Y-3.4
X6.17Y-3.4266
X6.17Y-4.1
X6.17Y-4.82
X6.18Y-3.02
X6.18Y-3.72
X6.18Y-4.44
X6.19Y-3.53
X6.1967Y-4.3874
X6.2Y-4.24
X6.21Y-4.96
X6.2124Y-3.3045
X6.22Y-3.09
X6.22Y-3.33
X6.22Y-3.3566
X6.22Y-3.53
X6.22Y-3.79
X6.22Y-3.9969
X6.22Y-4.0234
X6.22Y-4.05
X6.22Y-4.72
X6.23Y-3.28
X6.23Y-4.51
X6.2319Y-4.6962
X6.2319Y-4.7438
X6.2336Y-3.974
X6.24Y-2.96
X6.25Y-2.99
X6.25Y-3.66
X6.25Y-3.69
X6.25Y-4.13
X6.26Y-4.41
X6.2604Y-4.85
X6.27Y-4.8
X6.28Y-4.24
X6.31Y-3.39
X6.31Y-4.81
X6.325Y-2.9344
X6.33Y-3.49
X6.3442Y-4.9142
X6.49Y-2.99
X6.5Y-2.895
X6.5Y-3.44
X6.5Y-3.69
X6.5Y-4.13
X6.5Y-4.4
X6.5Y-4.85
X6.53Y-3.21
X6.53Y-3.91
X6.5399Y-4.63
X6.54Y-3.57
X6.54Y-4.26
T3
X5.71Y-2.68
X5.8Y-2.5
X5.82Y-2.87
X5.89Y-2.4946
X6.14Y-2.72
T4
X6.02Y-2.5516
X6.02Y-2.65
X5.64Y-2.5616
X5.64Y-2.66
T5
X5.45Y-2.8031
X5.45Y-3.
X6.36Y-2.59
X6.36Y-2.7869
T6
X6.3929Y-3.2098
X6.3934Y-3.9122
X6.3998Y-4.6297
T7
X6.2929Y-3.1098
X6.2929Y-3.3098
X6.4929Y-3.1098
X6.4929Y-3.3098
X6.2934Y-3.8122
X6.2934Y-4.0122
X6.4934Y-3.8122
X6.4934Y-4.0122
X6.2998Y-4.5297
X6.2998Y-4.7297
X6.4998Y-4.5297
X6.4998Y-4.7297
T0
M30
