EESchema Schematic File Version 4
LIBS:Dokalman2-cache
EELAYER 26 0
EELAYER END
$Descr A4 11693 8268
encoding utf-8
Sheet 1 1
Title ""
Date ""
Rev ""
Comp ""
Comment1 ""
Comment2 ""
Comment3 ""
Comment4 ""
$EndDescr
$Comp
L Connector:Raspberry_Pi_2_3 J7
U 1 1 5BB2700F
P 8700 4700
F 0 "J7" H 9450 5900 50  0000 C CNN
F 1 "Raspberry_Pi_2_3" H 9350 6000 50  0000 C CNN
F 2 "Connector_PinHeader_2.54mm:PinHeader_2x20_P2.54mm_Vertical" H 8700 4700 50  0001 C CNN
F 3 "https://www.raspberrypi.org/documentation/hardware/raspberrypi/schematics/rpi_SCH_3bplus_1p0_reduced.pdf" H 8700 4700 50  0001 C CNN
F 4 "855-M20-7832046" H 8700 4700 50  0001 C CNN "MouserPartNumber"
	1    8700 4700
	1    0    0    -1  
$EndComp
Text Notes 8200 2750 0    50   ~ 10
Raspberry Pi Connections\n
Text Notes 5550 900  0    50   ~ 10
LoRa Connections
$Comp
L Connector_Generic:Conn_01x03 J2
U 1 1 5BB2D057
P 4850 4300
F 0 "J2" H 4650 4000 50  0000 C CNN
F 1 "5V_Lights" H 4650 4100 50  0000 C CNN
F 2 "Connector_PinHeader_2.54mm:PinHeader_1x03_P2.54mm_Vertical" H 4850 4300 50  0001 C CNN
F 3 "https://www.mouser.com/datasheet/2/418/NG_CD_640456_W3-1255765.pdf" H 4850 4300 50  0001 C CNN
F 4 "571-6404563" H 4850 4300 50  0001 C CNN "MouserPartNumber"
	1    4850 4300
	-1   0    0    1   
$EndComp
$Comp
L Device:CP C1
U 1 1 5BB2D0F3
P 4300 3800
F 0 "C1" H 4415 3846 50  0000 L CNN
F 1 "1000uF" H 4415 3755 50  0000 L CNN
F 2 "Capacitor_THT:CP_Radial_D10.0mm_P5.00mm" H 4300 3800 50  0001 C CNN
F 3 "https://www.mouser.com/datasheet/2/231/lelon_REA[1]-1174811.pdf" H 4300 3800 50  0001 C CNN
F 4 "140-REA102M1ABK1012P" H 4300 3800 50  0001 C CNN "MouserPartNumber"
	1    4300 3800
	1    0    0    -1  
$EndComp
$Comp
L Connector:Conn_01x04_Male J8
U 1 1 5BB5C9EC
P 10050 2100
F 0 "J8" H 10156 2378 50  0000 C CNN
F 1 "Conn_01x04_Male" H 10156 2287 50  0000 C CNN
F 2 "Connector:FanPinHeader_1x04_P2.54mm_Vertical" H 10050 2100 50  0001 C CNN
F 3 "~" H 10050 2100 50  0001 C CNN
F 4 "538-47053-1000" H 10050 2100 50  0001 C CNN "MouserPartNumber"
	1    10050 2100
	1    0    0    -1  
$EndComp
Text Notes 5350 3900 2    50   ~ 0
Safety Lights
$Comp
L Connector:Conn_01x04_Male J9
U 1 1 5BB5EF24
P 10050 3000
F 0 "J9" H 10156 3278 50  0000 C CNN
F 1 "Conn_01x04_Male" H 10156 3187 50  0000 C CNN
F 2 "Connector:FanPinHeader_1x04_P2.54mm_Vertical" H 10050 3000 50  0001 C CNN
F 3 "~" H 10050 3000 50  0001 C CNN
F 4 "538-47053-1000" H 10050 3000 50  0001 C CNN "MouserPartNumber"
	1    10050 3000
	1    0    0    -1  
$EndComp
$Comp
L Connector:Conn_01x04_Male J10
U 1 1 5BB5F2F3
P 10050 3900
F 0 "J10" H 10156 4178 50  0000 C CNN
F 1 "Conn_01x04_Male" H 10156 4087 50  0000 C CNN
F 2 "Connector:FanPinHeader_1x04_P2.54mm_Vertical" H 10050 3900 50  0001 C CNN
F 3 "~" H 10050 3900 50  0001 C CNN
F 4 "538-47053-1000" H 10050 3900 50  0001 C CNN "MouserPartNumber"
	1    10050 3900
	1    0    0    -1  
$EndComp
NoConn ~ 7900 4100
NoConn ~ 7900 4200
NoConn ~ 7900 4300
NoConn ~ 7900 4500
NoConn ~ 7900 4600
NoConn ~ 7900 4700
NoConn ~ 9500 3800
NoConn ~ 9500 3900
NoConn ~ 9500 4100
NoConn ~ 9500 4200
NoConn ~ 9500 4400
NoConn ~ 9500 4500
NoConn ~ 9500 4600
NoConn ~ 9500 4800
NoConn ~ 7900 4900
NoConn ~ 7900 5100
NoConn ~ 7900 5200
NoConn ~ 7900 5300
NoConn ~ 7900 5400
NoConn ~ 9500 5500
NoConn ~ 9500 5400
NoConn ~ 9500 5200
NoConn ~ 9500 5100
NoConn ~ 9500 5000
NoConn ~ 9500 4900
$Comp
L Dokalman2:LoRa32u4-Dokalman2 LR1
U 1 1 5BD4A2E0
P 5900 1150
F 0 "LR1" H 5900 1275 50  0000 C CNN
F 1 "LoRa32u4" H 5900 1184 50  0000 C CNN
F 2 "Dokalman2:LoRa32u4" H 5900 1150 50  0001 C CNN
F 3 "" H 5900 1150 50  0001 C CNN
	1    5900 1150
	1    0    0    -1  
$EndComp
$Comp
L Connector:Conn_01x02_Male J1
U 1 1 5BB28EE1
P 2700 1500
F 0 "J1" H 2806 1678 50  0000 C CNN
F 1 "5V_In" H 2806 1587 50  0000 C CNN
F 2 "Dokalman2:PC-HSG-PP75" H 2700 1500 50  0001 C CNN
F 3 "~" H 2700 1500 50  0001 C CNN
F 4 "879-1336G1,879-1337G1" H 2700 1500 50  0001 C CNN "MouserPartNumber"
	1    2700 1500
	1    0    0    -1  
$EndComp
$Comp
L Connector:Conn_01x02_Male J11
U 1 1 5BB75FAB
P 2700 2000
F 0 "J11" H 2806 2178 50  0000 C CNN
F 1 "12V In" H 2806 2087 50  0000 C CNN
F 2 "Dokalman2:PC-HSG-PP75" H 2700 2000 50  0001 C CNN
F 3 "~" H 2700 2000 50  0001 C CNN
F 4 "879-1336G1,879-1337G1" H 2700 2000 50  0001 C CNN "MouserPartNumber"
	1    2700 2000
	1    0    0    -1  
$EndComp
Text Label 5200 1250 0    50   ~ 0
Reset
Wire Wire Line
	5200 1250 5450 1250
$Comp
L power:+3V3 #PWR0101
U 1 1 5BDCB3E1
P 5350 1350
F 0 "#PWR0101" H 5350 1200 50  0001 C CNN
F 1 "+3V3" V 5365 1478 50  0000 L CNN
F 2 "" H 5350 1350 50  0001 C CNN
F 3 "" H 5350 1350 50  0001 C CNN
	1    5350 1350
	0    -1   -1   0   
$EndComp
Wire Wire Line
	5350 1350 5450 1350
NoConn ~ 6350 1250
NoConn ~ 6350 1450
$Comp
L power:GND #PWR0102
U 1 1 5BDD35E2
P 5350 1550
F 0 "#PWR0102" H 5350 1300 50  0001 C CNN
F 1 "GND" V 5355 1422 50  0000 R CNN
F 2 "" H 5350 1550 50  0001 C CNN
F 3 "" H 5350 1550 50  0001 C CNN
	1    5350 1550
	0    1    1    0   
$EndComp
Wire Wire Line
	5350 1550 5450 1550
$Comp
L power:GND #PWR0103
U 1 1 5BDD61EC
P 6450 1350
F 0 "#PWR0103" H 6450 1100 50  0001 C CNN
F 1 "GND" V 6455 1222 50  0000 R CNN
F 2 "" H 6450 1350 50  0001 C CNN
F 3 "" H 6450 1350 50  0001 C CNN
	1    6450 1350
	0    -1   -1   0   
$EndComp
Wire Wire Line
	6450 1350 6350 1350
Text Label 5000 2550 0    50   ~ 0
UART_MOSI
Text Label 5000 2650 0    50   ~ 0
UART_MISO
Text Label 6800 1850 2    50   ~ 0
SLight_Sig
Wire Wire Line
	6350 1850 6800 1850
Text Label 5000 2150 0    50   ~ 0
Sense0
Text Label 5000 2050 0    50   ~ 0
Sense1
Text Label 5000 1950 0    50   ~ 0
Sense2
Wire Wire Line
	5450 2050 5000 2050
Wire Wire Line
	5000 2150 5450 2150
Text Label 6800 2250 2    50   ~ 0
SCL
Text Label 6800 2350 2    50   ~ 0
SDA
NoConn ~ 5450 2250
NoConn ~ 5450 2350
NoConn ~ 5450 2450
Wire Wire Line
	6800 2350 6350 2350
Wire Wire Line
	6350 2250 6800 2250
Wire Wire Line
	5000 1950 5450 1950
Text Label 6800 2150 2    50   ~ 0
PWM0
Text Label 6800 2050 2    50   ~ 0
PWM1
Text Label 6800 1950 2    50   ~ 0
PWM2
Wire Wire Line
	6800 2150 6350 2150
Wire Wire Line
	6350 2050 6800 2050
Wire Wire Line
	6800 1950 6350 1950
Wire Wire Line
	6350 1750 6800 1750
Text Label 6800 1550 2    50   ~ 0
LR32
Wire Wire Line
	6800 1550 6350 1550
Wire Wire Line
	6800 1650 6350 1650
NoConn ~ 6350 2750
NoConn ~ 6350 2650
NoConn ~ 6350 2550
NoConn ~ 5450 2750
Wire Wire Line
	5000 2550 5450 2550
Wire Wire Line
	5000 2650 5450 2650
Text Label 7450 3800 0    50   ~ 0
UART_MOSI
Wire Wire Line
	7450 3800 7900 3800
Text Label 7450 3900 0    50   ~ 0
UART_MISO
Wire Wire Line
	7450 3900 7900 3900
Text Label 7700 5000 0    50   ~ 0
Reset
Wire Wire Line
	7700 5000 7900 5000
Wire Wire Line
	8300 6000 8300 6050
Wire Wire Line
	8300 6050 8400 6050
Wire Wire Line
	9000 6050 9000 6000
Wire Wire Line
	8900 6050 8900 6000
Connection ~ 8900 6050
Wire Wire Line
	8900 6050 9000 6050
Wire Wire Line
	8800 6000 8800 6050
Connection ~ 8800 6050
Wire Wire Line
	8800 6050 8900 6050
Wire Wire Line
	8700 6000 8700 6050
Connection ~ 8700 6050
Wire Wire Line
	8700 6050 8800 6050
Wire Wire Line
	8600 6000 8600 6050
Connection ~ 8600 6050
Wire Wire Line
	8600 6050 8700 6050
Wire Wire Line
	8500 6000 8500 6050
Connection ~ 8500 6050
Wire Wire Line
	8500 6050 8600 6050
Wire Wire Line
	8400 6000 8400 6050
Connection ~ 8400 6050
Wire Wire Line
	8400 6050 8500 6050
$Comp
L power:GND #PWR0104
U 1 1 5BE303DA
P 8600 6050
F 0 "#PWR0104" H 8600 5800 50  0001 C CNN
F 1 "GND" H 8605 5877 50  0000 C CNN
F 2 "" H 8600 6050 50  0001 C CNN
F 3 "" H 8600 6050 50  0001 C CNN
	1    8600 6050
	1    0    0    -1  
$EndComp
Wire Wire Line
	8500 3400 8500 3350
Wire Wire Line
	8500 3350 8600 3350
Wire Wire Line
	8600 3350 8600 3400
Wire Wire Line
	8500 3350 8500 3300
Connection ~ 8500 3350
Wire Wire Line
	8900 3400 8900 3350
Wire Wire Line
	8900 3350 8800 3350
Wire Wire Line
	8800 3350 8800 3400
Wire Wire Line
	8800 3350 8800 3300
Connection ~ 8800 3350
$Comp
L power:+5V #PWR0105
U 1 1 5BE3BA9D
P 8500 3300
F 0 "#PWR0105" H 8500 3150 50  0001 C CNN
F 1 "+5V" H 8515 3473 50  0000 C CNN
F 2 "" H 8500 3300 50  0001 C CNN
F 3 "" H 8500 3300 50  0001 C CNN
	1    8500 3300
	1    0    0    -1  
$EndComp
$Comp
L power:+3V3 #PWR0106
U 1 1 5BE3BB2E
P 8800 3300
F 0 "#PWR0106" H 8800 3150 50  0001 C CNN
F 1 "+3V3" H 8815 3473 50  0000 C CNN
F 2 "" H 8800 3300 50  0001 C CNN
F 3 "" H 8800 3300 50  0001 C CNN
	1    8800 3300
	1    0    0    -1  
$EndComp
$Comp
L Device:R R1
U 1 1 5BE40641
P 5400 4200
F 0 "R1" V 5193 4200 50  0000 C CNN
F 1 "300" V 5284 4200 50  0000 C CNN
F 2 "Resistor_SMD:R_0603_1608Metric" V 5330 4200 50  0001 C CNN
F 3 "https://www.mouser.com/datasheet/2/447/PYu-RC_Group_51_RoHS_L_9-1314892.pdf" H 5400 4200 50  0001 C CNN
F 4 "603-RC0603FR-10300RL" H 5400 4200 50  0001 C CNN "MouserPartNumber"
	1    5400 4200
	0    1    1    0   
$EndComp
Wire Wire Line
	5250 4200 5050 4200
$Comp
L power:GND #PWR0107
U 1 1 5BE4E10A
P 5100 4450
F 0 "#PWR0107" H 5100 4200 50  0001 C CNN
F 1 "GND" H 5105 4277 50  0000 C CNN
F 2 "" H 5100 4450 50  0001 C CNN
F 3 "" H 5100 4450 50  0001 C CNN
	1    5100 4450
	1    0    0    -1  
$EndComp
Wire Wire Line
	5050 4400 5100 4400
Wire Wire Line
	5100 4400 5100 4450
$Comp
L power:+5V #PWR0108
U 1 1 5BE52BBD
P 5150 4300
F 0 "#PWR0108" H 5150 4150 50  0001 C CNN
F 1 "+5V" V 5165 4428 50  0000 L CNN
F 2 "" H 5150 4300 50  0001 C CNN
F 3 "" H 5150 4300 50  0001 C CNN
	1    5150 4300
	0    1    1    0   
$EndComp
Wire Wire Line
	5050 4300 5150 4300
$Comp
L power:+5V #PWR0109
U 1 1 5BE551D3
P 4300 3600
F 0 "#PWR0109" H 4300 3450 50  0001 C CNN
F 1 "+5V" H 4315 3773 50  0000 C CNN
F 2 "" H 4300 3600 50  0001 C CNN
F 3 "" H 4300 3600 50  0001 C CNN
	1    4300 3600
	1    0    0    -1  
$EndComp
Wire Wire Line
	4300 3600 4300 3650
$Comp
L power:GND #PWR0110
U 1 1 5BE5788F
P 4300 4000
F 0 "#PWR0110" H 4300 3750 50  0001 C CNN
F 1 "GND" H 4305 3827 50  0000 C CNN
F 2 "" H 4300 4000 50  0001 C CNN
F 3 "" H 4300 4000 50  0001 C CNN
	1    4300 4000
	1    0    0    -1  
$EndComp
Wire Wire Line
	4300 4000 4300 3950
$Comp
L Logic_LevelTranslator:SN74LVC1T45DBV U2
U 1 1 5BE641D8
P 6050 4200
F 0 "U2" H 6400 4050 50  0000 L CNN
F 1 "SN74LVC1T45DBV" H 6400 3950 50  0000 L CNN
F 2 "Package_TO_SOT_SMD:SOT-23-6" H 6050 3750 50  0001 C CNN
F 3 "http://www.ti.com/lit/ds/symlink/sn74lvc1t45.pdf" H 5150 3550 50  0001 C CNN
F 4 "595-SN74LVC1T45DBVT" H 6050 4200 50  0001 C CNN "MouserPartNumber"
	1    6050 4200
	1    0    0    -1  
$EndComp
$Comp
L power:+5V #PWR0111
U 1 1 5BE6A024
P 5950 3750
F 0 "#PWR0111" H 5950 3600 50  0001 C CNN
F 1 "+5V" H 5965 3923 50  0000 C CNN
F 2 "" H 5950 3750 50  0001 C CNN
F 3 "" H 5950 3750 50  0001 C CNN
	1    5950 3750
	1    0    0    -1  
$EndComp
Wire Wire Line
	5950 3750 5950 3800
$Comp
L power:+3V3 #PWR0112
U 1 1 5BE6BE5B
P 6150 3750
F 0 "#PWR0112" H 6150 3600 50  0001 C CNN
F 1 "+3V3" H 6165 3923 50  0000 C CNN
F 2 "" H 6150 3750 50  0001 C CNN
F 3 "" H 6150 3750 50  0001 C CNN
	1    6150 3750
	1    0    0    -1  
$EndComp
Wire Wire Line
	6150 3750 6150 3800
$Comp
L power:GND #PWR0113
U 1 1 5BE6DE4D
P 6050 4650
F 0 "#PWR0113" H 6050 4400 50  0001 C CNN
F 1 "GND" H 6055 4477 50  0000 C CNN
F 2 "" H 6050 4650 50  0001 C CNN
F 3 "" H 6050 4650 50  0001 C CNN
	1    6050 4650
	1    0    0    -1  
$EndComp
Wire Wire Line
	6050 4650 6050 4600
$Comp
L power:GND #PWR0114
U 1 1 5BE6FD9C
P 5600 4400
F 0 "#PWR0114" H 5600 4150 50  0001 C CNN
F 1 "GND" V 5605 4272 50  0000 R CNN
F 2 "" H 5600 4400 50  0001 C CNN
F 3 "" H 5600 4400 50  0001 C CNN
	1    5600 4400
	0    1    1    0   
$EndComp
Wire Wire Line
	5600 4400 5650 4400
Wire Wire Line
	5550 4200 5650 4200
Text Label 6900 4200 2    50   ~ 0
SLight_Sig
Wire Wire Line
	6900 4200 6450 4200
Text Notes 4150 4100 1    50   ~ 0
LED Power Cond\n
$Comp
L power:+5V #PWR0115
U 1 1 5BE81865
P 3000 1500
F 0 "#PWR0115" H 3000 1350 50  0001 C CNN
F 1 "+5V" V 3015 1628 50  0000 L CNN
F 2 "" H 3000 1500 50  0001 C CNN
F 3 "" H 3000 1500 50  0001 C CNN
	1    3000 1500
	0    1    1    0   
$EndComp
Wire Wire Line
	3000 1500 2900 1500
$Comp
L power:GND #PWR0116
U 1 1 5BE83B81
P 3000 1600
F 0 "#PWR0116" H 3000 1350 50  0001 C CNN
F 1 "GND" V 3005 1472 50  0000 R CNN
F 2 "" H 3000 1600 50  0001 C CNN
F 3 "" H 3000 1600 50  0001 C CNN
	1    3000 1600
	0    -1   -1   0   
$EndComp
Wire Wire Line
	3000 1600 2900 1600
$Comp
L power:+12V #PWR0117
U 1 1 5BE8CB38
P 3000 2000
F 0 "#PWR0117" H 3000 1850 50  0001 C CNN
F 1 "+12V" V 3015 2128 50  0000 L CNN
F 2 "" H 3000 2000 50  0001 C CNN
F 3 "" H 3000 2000 50  0001 C CNN
	1    3000 2000
	0    1    1    0   
$EndComp
Wire Wire Line
	3000 2000 2900 2000
$Comp
L power:GND #PWR0118
U 1 1 5BE8F0F9
P 3000 2100
F 0 "#PWR0118" H 3000 1850 50  0001 C CNN
F 1 "GND" V 3005 1972 50  0000 R CNN
F 2 "" H 3000 2100 50  0001 C CNN
F 3 "" H 3000 2100 50  0001 C CNN
	1    3000 2100
	0    -1   -1   0   
$EndComp
Wire Wire Line
	3000 2100 2900 2100
Text Notes 2550 1950 1    50   ~ 0
Power In
Text Label 10900 2200 2    50   ~ 0
PWM0
Text Label 10900 3100 2    50   ~ 0
PWM1
Text Label 10900 4000 2    50   ~ 0
PWM2
Text Label 10900 2300 2    50   ~ 0
Sense0
Text Label 10900 3200 2    50   ~ 0
Sense1
Text Label 10900 4100 2    50   ~ 0
Sense2
$Comp
L power:GND #PWR0119
U 1 1 5BEB1180
P 10550 2000
F 0 "#PWR0119" H 10550 1750 50  0001 C CNN
F 1 "GND" V 10555 1872 50  0000 R CNN
F 2 "" H 10550 2000 50  0001 C CNN
F 3 "" H 10550 2000 50  0001 C CNN
	1    10550 2000
	0    -1   -1   0   
$EndComp
$Comp
L power:+12V #PWR0120
U 1 1 5BEB38C8
P 10550 2100
F 0 "#PWR0120" H 10550 1950 50  0001 C CNN
F 1 "+12V" V 10565 2228 50  0000 L CNN
F 2 "" H 10550 2100 50  0001 C CNN
F 3 "" H 10550 2100 50  0001 C CNN
	1    10550 2100
	0    1    1    0   
$EndComp
$Comp
L power:GND #PWR0121
U 1 1 5BEB39E3
P 10550 2900
F 0 "#PWR0121" H 10550 2650 50  0001 C CNN
F 1 "GND" V 10555 2772 50  0000 R CNN
F 2 "" H 10550 2900 50  0001 C CNN
F 3 "" H 10550 2900 50  0001 C CNN
	1    10550 2900
	0    -1   -1   0   
$EndComp
$Comp
L power:+12V #PWR0122
U 1 1 5BEB39E9
P 10550 3000
F 0 "#PWR0122" H 10550 2850 50  0001 C CNN
F 1 "+12V" V 10565 3128 50  0000 L CNN
F 2 "" H 10550 3000 50  0001 C CNN
F 3 "" H 10550 3000 50  0001 C CNN
	1    10550 3000
	0    1    1    0   
$EndComp
$Comp
L power:GND #PWR0123
U 1 1 5BEB6077
P 10550 3800
F 0 "#PWR0123" H 10550 3550 50  0001 C CNN
F 1 "GND" V 10555 3672 50  0000 R CNN
F 2 "" H 10550 3800 50  0001 C CNN
F 3 "" H 10550 3800 50  0001 C CNN
	1    10550 3800
	0    -1   -1   0   
$EndComp
$Comp
L power:+12V #PWR0124
U 1 1 5BEB607D
P 10550 3900
F 0 "#PWR0124" H 10550 3750 50  0001 C CNN
F 1 "+12V" V 10565 4028 50  0000 L CNN
F 2 "" H 10550 3900 50  0001 C CNN
F 3 "" H 10550 3900 50  0001 C CNN
	1    10550 3900
	0    1    1    0   
$EndComp
Wire Wire Line
	10250 2000 10550 2000
Wire Wire Line
	10550 2100 10250 2100
Wire Wire Line
	10600 2200 10900 2200
Wire Wire Line
	10900 2300 10600 2300
Wire Wire Line
	10900 3200 10600 3200
Wire Wire Line
	10600 3100 10900 3100
Wire Wire Line
	10550 3000 10250 3000
Wire Wire Line
	10250 2900 10550 2900
Wire Wire Line
	10550 3800 10250 3800
Wire Wire Line
	10250 3900 10550 3900
Wire Wire Line
	10900 4000 10600 4000
Wire Wire Line
	10600 4100 10900 4100
$Comp
L Jumper:SolderJumper_2_Bridged JP2
U 1 1 5BEDCD30
P 10450 2300
F 0 "JP2" H 10450 2050 50  0000 C CNN
F 1 "SolderJumper_2_Bridged" H 10450 2000 50  0000 C CNN
F 2 "Jumper:SolderJumper-2_P1.3mm_Bridged_RoundedPad1.0x1.5mm" H 10450 2300 50  0001 C CNN
F 3 "~" H 10450 2300 50  0001 C CNN
	1    10450 2300
	1    0    0    -1  
$EndComp
$Comp
L Jumper:SolderJumper_2_Bridged JP1
U 1 1 5BEEC90E
P 10450 2200
F 0 "JP1" H 10450 2000 50  0000 C CNN
F 1 "SolderJumper_2_Bridged" H 10450 1950 50  0000 C CNN
F 2 "Jumper:SolderJumper-2_P1.3mm_Bridged_RoundedPad1.0x1.5mm" H 10450 2200 50  0001 C CNN
F 3 "~" H 10450 2200 50  0001 C CNN
	1    10450 2200
	1    0    0    -1  
$EndComp
$Comp
L Jumper:SolderJumper_2_Bridged JP4
U 1 1 5BEEFC80
P 10450 3200
F 0 "JP4" H 10450 2950 50  0000 C CNN
F 1 "SolderJumper_2_Bridged" H 10450 2900 50  0000 C CNN
F 2 "Jumper:SolderJumper-2_P1.3mm_Bridged_RoundedPad1.0x1.5mm" H 10450 3200 50  0001 C CNN
F 3 "~" H 10450 3200 50  0001 C CNN
	1    10450 3200
	1    0    0    -1  
$EndComp
$Comp
L Jumper:SolderJumper_2_Bridged JP3
U 1 1 5BEEFC86
P 10450 3100
F 0 "JP3" H 10450 2900 50  0000 C CNN
F 1 "SolderJumper_2_Bridged" H 10450 2850 50  0000 C CNN
F 2 "Jumper:SolderJumper-2_P1.3mm_Bridged_RoundedPad1.0x1.5mm" H 10450 3100 50  0001 C CNN
F 3 "~" H 10450 3100 50  0001 C CNN
	1    10450 3100
	1    0    0    -1  
$EndComp
$Comp
L Jumper:SolderJumper_2_Bridged JP6
U 1 1 5BEF616F
P 10450 4100
F 0 "JP6" H 10450 3850 50  0000 C CNN
F 1 "SolderJumper_2_Bridged" H 10450 3800 50  0000 C CNN
F 2 "Jumper:SolderJumper-2_P1.3mm_Bridged_RoundedPad1.0x1.5mm" H 10450 4100 50  0001 C CNN
F 3 "~" H 10450 4100 50  0001 C CNN
	1    10450 4100
	1    0    0    -1  
$EndComp
$Comp
L Jumper:SolderJumper_2_Bridged JP5
U 1 1 5BEF6175
P 10450 4000
F 0 "JP5" H 10450 3800 50  0000 C CNN
F 1 "SolderJumper_2_Bridged" H 10450 3750 50  0000 C CNN
F 2 "Jumper:SolderJumper-2_P1.3mm_Bridged_RoundedPad1.0x1.5mm" H 10450 4000 50  0001 C CNN
F 3 "~" H 10450 4000 50  0001 C CNN
	1    10450 4000
	1    0    0    -1  
$EndComp
Wire Wire Line
	10250 2200 10300 2200
Wire Wire Line
	10250 2300 10300 2300
Wire Wire Line
	10250 3200 10300 3200
Wire Wire Line
	10300 3100 10250 3100
Wire Wire Line
	10300 4100 10250 4100
Wire Wire Line
	10250 4000 10300 4000
$Comp
L Connector_Generic:Conn_02x10_Odd_Even J3
U 1 1 5BDCDA5F
P 1950 4700
F 0 "J3" H 2000 5317 50  0000 C CNN
F 1 "Conn_02x10_Counter_Clockwise" H 2000 5226 50  0000 C CNN
F 2 "Connector_PinSocket_2.54mm:PinSocket_2x10_P2.54mm_Vertical_SMD" H 1950 4700 50  0001 C CNN
F 3 "~" H 1950 4700 50  0001 C CNN
F 4 "855-M20-7811045" H 1950 4700 50  0001 C CNN "MouserPartNumber"
	1    1950 4700
	1    0    0    -1  
$EndComp
Text Label 1500 4500 0    50   ~ 0
SCL
Text Label 1500 4600 0    50   ~ 0
SDA
Text Label 1500 4800 0    50   ~ 0
LR32
Text Label 2600 4500 2    50   ~ 0
Sense0
Text Label 2600 4600 2    50   ~ 0
Sense1
Text Label 2600 4700 2    50   ~ 0
Sense2
Text Label 2600 4800 2    50   ~ 0
PWM0
Text Label 2600 4900 2    50   ~ 0
PWM1
Text Label 2600 5000 2    50   ~ 0
PWM2
Wire Wire Line
	2600 4500 2250 4500
Wire Wire Line
	2250 4600 2600 4600
Wire Wire Line
	2600 4700 2250 4700
Wire Wire Line
	2250 4800 2600 4800
Wire Wire Line
	2250 4900 2600 4900
Wire Wire Line
	2250 5000 2600 5000
Wire Wire Line
	1500 5000 1750 5000
Wire Wire Line
	1500 4900 1750 4900
Wire Wire Line
	1500 4800 1750 4800
Wire Wire Line
	1500 4700 1750 4700
Wire Wire Line
	1500 4600 1750 4600
Wire Wire Line
	1500 4500 1750 4500
$Comp
L power:+3V3 #PWR0125
U 1 1 5BE05409
P 1450 4400
F 0 "#PWR0125" H 1450 4250 50  0001 C CNN
F 1 "+3V3" V 1465 4528 50  0000 L CNN
F 2 "" H 1450 4400 50  0001 C CNN
F 3 "" H 1450 4400 50  0001 C CNN
	1    1450 4400
	0    -1   -1   0   
$EndComp
$Comp
L power:+3V3 #PWR0126
U 1 1 5BE054D6
P 2600 4400
F 0 "#PWR0126" H 2600 4250 50  0001 C CNN
F 1 "+3V3" V 2615 4528 50  0000 L CNN
F 2 "" H 2600 4400 50  0001 C CNN
F 3 "" H 2600 4400 50  0001 C CNN
	1    2600 4400
	0    1    1    0   
$EndComp
$Comp
L power:GND #PWR0127
U 1 1 5BE055C7
P 1450 4300
F 0 "#PWR0127" H 1450 4050 50  0001 C CNN
F 1 "GND" V 1455 4172 50  0000 R CNN
F 2 "" H 1450 4300 50  0001 C CNN
F 3 "" H 1450 4300 50  0001 C CNN
	1    1450 4300
	0    1    1    0   
$EndComp
$Comp
L power:GND #PWR0128
U 1 1 5BE05670
P 2600 4300
F 0 "#PWR0128" H 2600 4050 50  0001 C CNN
F 1 "GND" V 2605 4172 50  0000 R CNN
F 2 "" H 2600 4300 50  0001 C CNN
F 3 "" H 2600 4300 50  0001 C CNN
	1    2600 4300
	0    -1   -1   0   
$EndComp
$Comp
L power:GND #PWR0129
U 1 1 5BE0572F
P 2600 5200
F 0 "#PWR0129" H 2600 4950 50  0001 C CNN
F 1 "GND" V 2605 5072 50  0000 R CNN
F 2 "" H 2600 5200 50  0001 C CNN
F 3 "" H 2600 5200 50  0001 C CNN
	1    2600 5200
	0    -1   -1   0   
$EndComp
$Comp
L power:GND #PWR0130
U 1 1 5BE05811
P 1450 5200
F 0 "#PWR0130" H 1450 4950 50  0001 C CNN
F 1 "GND" V 1455 5072 50  0000 R CNN
F 2 "" H 1450 5200 50  0001 C CNN
F 3 "" H 1450 5200 50  0001 C CNN
	1    1450 5200
	0    1    1    0   
$EndComp
$Comp
L power:+5V #PWR0131
U 1 1 5BE058A5
P 1450 5100
F 0 "#PWR0131" H 1450 4950 50  0001 C CNN
F 1 "+5V" V 1465 5228 50  0000 L CNN
F 2 "" H 1450 5100 50  0001 C CNN
F 3 "" H 1450 5100 50  0001 C CNN
	1    1450 5100
	0    -1   -1   0   
$EndComp
$Comp
L power:+5V #PWR0132
U 1 1 5BE059A5
P 2600 5100
F 0 "#PWR0132" H 2600 4950 50  0001 C CNN
F 1 "+5V" V 2615 5228 50  0000 L CNN
F 2 "" H 2600 5100 50  0001 C CNN
F 3 "" H 2600 5100 50  0001 C CNN
	1    2600 5100
	0    1    1    0   
$EndComp
Wire Wire Line
	1450 4300 1750 4300
Wire Wire Line
	1750 4400 1450 4400
Wire Wire Line
	2250 4300 2600 4300
Wire Wire Line
	2600 4400 2250 4400
Wire Wire Line
	2250 5100 2600 5100
Wire Wire Line
	2600 5200 2250 5200
Wire Wire Line
	1750 5200 1450 5200
Wire Wire Line
	1450 5100 1750 5100
$Comp
L Connector_Generic:Conn_01x04 J4
U 1 1 5BE237BD
P 2350 3100
F 0 "J4" H 2270 2675 50  0000 C CNN
F 1 "Conn_01x04" H 2270 2766 50  0000 C CNN
F 2 "Connector_PinHeader_2.54mm:PinHeader_1x04_P2.54mm_Vertical" H 2350 3100 50  0001 C CNN
F 3 "https://www.mouser.com/datasheet/2/418/NG_CD_640454_Y3-1255737.pdf" H 2350 3100 50  0001 C CNN
F 4 "571-6404544" H 2350 3100 50  0001 C CNN "MouserPartNumber"
	1    2350 3100
	-1   0    0    1   
$EndComp
$Comp
L power:GND #PWR0133
U 1 1 5BE23905
P 2650 3100
F 0 "#PWR0133" H 2650 2850 50  0001 C CNN
F 1 "GND" V 2655 2972 50  0000 R CNN
F 2 "" H 2650 3100 50  0001 C CNN
F 3 "" H 2650 3100 50  0001 C CNN
	1    2650 3100
	0    -1   -1   0   
$EndComp
Text Label 3000 3000 2    50   ~ 0
UART_MOSI
Text Label 3000 2900 2    50   ~ 0
UART_MISO
Wire Wire Line
	2550 2900 3000 2900
Wire Wire Line
	2550 3000 3000 3000
Wire Wire Line
	2550 3100 2650 3100
Text Label 3000 3200 2    50   ~ 0
5V_SENSE
Wire Wire Line
	2550 3200 3000 3200
$Comp
L Device:D_Zener D1
U 1 1 5BE48131
P 7800 1900
F 0 "D1" V 7754 1979 50  0000 L CNN
F 1 "3.3V" V 7845 1979 50  0000 L CNN
F 2 "Diode_SMD:D_SOD-323" H 7800 1900 50  0001 C CNN
F 3 "https://www.mouser.com/datasheet/2/308/MM3Z2V4ST1-D-95078.pdf" H 7800 1900 50  0001 C CNN
F 4 "863-MM3Z3V3ST3G" H 7800 1900 50  0001 C CNN "MouserPartNumber"
	1    7800 1900
	0    1    1    0   
$EndComp
$Comp
L power:GND #PWR0134
U 1 1 5BE483F4
P 7800 2100
F 0 "#PWR0134" H 7800 1850 50  0001 C CNN
F 1 "GND" H 7805 1927 50  0000 C CNN
F 2 "" H 7800 2100 50  0001 C CNN
F 3 "" H 7800 2100 50  0001 C CNN
	1    7800 2100
	1    0    0    -1  
$EndComp
Wire Wire Line
	7800 2100 7800 2050
$Comp
L Device:R R5
U 1 1 5BE4D0A7
P 7500 1900
F 0 "R5" H 7570 1946 50  0000 L CNN
F 1 "10k" H 7570 1855 50  0000 L CNN
F 2 "Resistor_SMD:R_0603_1608Metric" V 7430 1900 50  0001 C CNN
F 3 "~" H 7500 1900 50  0001 C CNN
F 4 "603-RC0603FR-0710KL" H 7500 1900 50  0001 C CNN "MouserPartNumber"
	1    7500 1900
	1    0    0    -1  
$EndComp
$Comp
L power:GND #PWR0135
U 1 1 5BE4D26D
P 7500 2100
F 0 "#PWR0135" H 7500 1850 50  0001 C CNN
F 1 "GND" H 7505 1927 50  0000 C CNN
F 2 "" H 7500 2100 50  0001 C CNN
F 3 "" H 7500 2100 50  0001 C CNN
	1    7500 2100
	1    0    0    -1  
$EndComp
Wire Wire Line
	7500 2100 7500 2050
$Comp
L Device:R R4
U 1 1 5BE51D16
P 7500 1500
F 0 "R4" H 7570 1546 50  0000 L CNN
F 1 "62k" H 7570 1455 50  0000 L CNN
F 2 "Resistor_SMD:R_0603_1608Metric" V 7430 1500 50  0001 C CNN
F 3 "https://www.mouser.com/datasheet/2/447/PYu-AC_51_RoHS_L_6-1152827.pdf" H 7500 1500 50  0001 C CNN
F 4 "603-AC0603FR-0762KL" H 7500 1500 50  0001 C CNN "MouserPartNumber"
	1    7500 1500
	1    0    0    -1  
$EndComp
$Comp
L power:+12V #PWR0136
U 1 1 5BE51DCB
P 7500 1300
F 0 "#PWR0136" H 7500 1150 50  0001 C CNN
F 1 "+12V" H 7515 1473 50  0000 C CNN
F 2 "" H 7500 1300 50  0001 C CNN
F 3 "" H 7500 1300 50  0001 C CNN
	1    7500 1300
	1    0    0    -1  
$EndComp
Wire Wire Line
	7500 1300 7500 1350
Wire Wire Line
	7500 1750 7500 1700
Wire Wire Line
	7500 1700 7800 1700
Wire Wire Line
	7800 1700 7800 1750
Connection ~ 7500 1700
Wire Wire Line
	7500 1700 7500 1650
Wire Wire Line
	7800 1700 8200 1700
Connection ~ 7800 1700
Text Label 8200 1700 2    50   ~ 0
12V_Ref
$Comp
L Device:D_Zener D2
U 1 1 5BE6A278
P 8900 1950
F 0 "D2" V 8854 2029 50  0000 L CNN
F 1 "3.3V" V 8945 2029 50  0000 L CNN
F 2 "Diode_SMD:D_SOD-323" H 8900 1950 50  0001 C CNN
F 3 "https://www.mouser.com/datasheet/2/308/MM3Z2V4ST1-D-95078.pdf" H 8900 1950 50  0001 C CNN
F 4 "863-MM3Z3V3ST3G" H 8900 1950 50  0001 C CNN "MouserPartNumber"
	1    8900 1950
	0    1    1    0   
$EndComp
$Comp
L power:GND #PWR0137
U 1 1 5BE6A27E
P 8900 2150
F 0 "#PWR0137" H 8900 1900 50  0001 C CNN
F 1 "GND" H 8905 1977 50  0000 C CNN
F 2 "" H 8900 2150 50  0001 C CNN
F 3 "" H 8900 2150 50  0001 C CNN
	1    8900 2150
	1    0    0    -1  
$EndComp
Wire Wire Line
	8900 2150 8900 2100
$Comp
L Device:R R7
U 1 1 5BE6A286
P 8600 1950
F 0 "R7" H 8670 1996 50  0000 L CNN
F 1 "10k" H 8670 1905 50  0000 L CNN
F 2 "Resistor_SMD:R_0603_1608Metric" V 8530 1950 50  0001 C CNN
F 3 "~" H 8600 1950 50  0001 C CNN
F 4 "603-RC0603FR-0710KL" H 8600 1950 50  0001 C CNN "MouserPartNumber"
	1    8600 1950
	1    0    0    -1  
$EndComp
$Comp
L power:GND #PWR0138
U 1 1 5BE6A28C
P 8600 2150
F 0 "#PWR0138" H 8600 1900 50  0001 C CNN
F 1 "GND" H 8605 1977 50  0000 C CNN
F 2 "" H 8600 2150 50  0001 C CNN
F 3 "" H 8600 2150 50  0001 C CNN
	1    8600 2150
	1    0    0    -1  
$EndComp
Wire Wire Line
	8600 2150 8600 2100
$Comp
L Device:R R6
U 1 1 5BE6A294
P 8600 1550
F 0 "R6" H 8670 1596 50  0000 L CNN
F 1 "20k" H 8670 1505 50  0000 L CNN
F 2 "Resistor_SMD:R_0603_1608Metric" V 8530 1550 50  0001 C CNN
F 3 "https://www.mouser.com/datasheet/2/447/PYu-RC_Group_51_RoHS_L_9-1314892.pdf" H 8600 1550 50  0001 C CNN
F 4 "603-RC0603FR-1020KL" H 8600 1550 50  0001 C CNN "MouserPartNumber"
	1    8600 1550
	1    0    0    -1  
$EndComp
Wire Wire Line
	8600 1800 8600 1750
Wire Wire Line
	8600 1750 8900 1750
Wire Wire Line
	8900 1750 8900 1800
Connection ~ 8600 1750
Wire Wire Line
	8600 1750 8600 1700
Wire Wire Line
	8900 1750 9300 1750
Connection ~ 8900 1750
Text Label 8600 1000 3    50   ~ 0
5V_SENSE
Wire Wire Line
	8600 1000 8600 1400
Text Label 9300 1750 2    50   ~ 0
5V_Ref
Text Label 5150 1650 0    50   ~ 0
5V_Ref
Wire Wire Line
	5150 1650 5450 1650
Text Label 5150 1750 0    50   ~ 0
12V_Ref
Wire Wire Line
	5150 1750 5450 1750
$Comp
L Dokalman2:NCT75 U1
U 1 1 5BEA1149
P 6000 5750
F 0 "U1" H 5600 6200 50  0000 C CNN
F 1 "NCT75" H 5650 6150 50  0000 C CNN
F 2 "Package_SO:SOIC-8_3.9x4.9mm_P1.27mm" H 5600 6150 50  0001 C CNN
F 3 "https://www.mouser.com/datasheet/2/308/NCT75-D-62555.pdf" H 5600 6150 50  0001 C CNN
F 4 "863-NCT75DR2G" H 6000 5750 50  0001 C CNN "MouserPartNumber"
	1    6000 5750
	1    0    0    -1  
$EndComp
$Comp
L power:+3V3 #PWR0139
U 1 1 5BEA157C
P 6000 5300
F 0 "#PWR0139" H 6000 5150 50  0001 C CNN
F 1 "+3V3" H 6015 5473 50  0000 C CNN
F 2 "" H 6000 5300 50  0001 C CNN
F 3 "" H 6000 5300 50  0001 C CNN
	1    6000 5300
	1    0    0    -1  
$EndComp
$Comp
L power:GND #PWR0140
U 1 1 5BEA162B
P 6000 6050
F 0 "#PWR0140" H 6000 5800 50  0001 C CNN
F 1 "GND" H 6005 5877 50  0000 C CNN
F 2 "" H 6000 6050 50  0001 C CNN
F 3 "" H 6000 6050 50  0001 C CNN
	1    6000 6050
	1    0    0    -1  
$EndComp
Text Label 6750 5550 2    50   ~ 0
SDA
Wire Wire Line
	6750 5550 6550 5550
Text Label 6750 5650 2    50   ~ 0
SCL
Wire Wire Line
	6750 5650 6550 5650
$Comp
L Device:R R2
U 1 1 5BEBD68A
P 6800 3250
F 0 "R2" H 6870 3296 50  0000 L CNN
F 1 "2k" H 6870 3205 50  0000 L CNN
F 2 "Resistor_SMD:R_0603_1608Metric" V 6730 3250 50  0001 C CNN
F 3 "https://www.mouser.com/datasheet/2/447/PYu-RC_Group_51_RoHS_L_9-1314892.pdf" H 6800 3250 50  0001 C CNN
F 4 "603-RC0603FR-072KL" H 6800 3250 50  0001 C CNN "MouserPartNumber"
	1    6800 3250
	1    0    0    -1  
$EndComp
$Comp
L Device:R R3
U 1 1 5BEBD7C6
P 7450 3250
F 0 "R3" H 7520 3296 50  0000 L CNN
F 1 "2k" H 7520 3205 50  0000 L CNN
F 2 "Resistor_SMD:R_0603_1608Metric" V 7380 3250 50  0001 C CNN
F 3 "https://www.mouser.com/datasheet/2/447/PYu-RC_Group_51_RoHS_L_9-1314892.pdf" H 7450 3250 50  0001 C CNN
F 4 "603-RC0603FR-072KL" H 7450 3250 50  0001 C CNN "MouserPartNumber"
	1    7450 3250
	1    0    0    -1  
$EndComp
$Comp
L power:+3V3 #PWR0141
U 1 1 5BEC300E
P 6800 3050
F 0 "#PWR0141" H 6800 2900 50  0001 C CNN
F 1 "+3V3" H 6815 3223 50  0000 C CNN
F 2 "" H 6800 3050 50  0001 C CNN
F 3 "" H 6800 3050 50  0001 C CNN
	1    6800 3050
	1    0    0    -1  
$EndComp
$Comp
L power:+3V3 #PWR0142
U 1 1 5BEC3109
P 7450 3050
F 0 "#PWR0142" H 7450 2900 50  0001 C CNN
F 1 "+3V3" H 7465 3223 50  0000 C CNN
F 2 "" H 7450 3050 50  0001 C CNN
F 3 "" H 7450 3050 50  0001 C CNN
	1    7450 3050
	1    0    0    -1  
$EndComp
Wire Wire Line
	7450 3050 7450 3100
Wire Wire Line
	6800 3050 6800 3100
Text Label 6600 3450 0    50   ~ 0
SDA
Text Label 7250 3450 0    50   ~ 0
SCL
Wire Wire Line
	7250 3450 7450 3450
Wire Wire Line
	7450 3450 7450 3400
Wire Wire Line
	6600 3450 6800 3450
Wire Wire Line
	6800 3450 6800 3400
$Comp
L power:GND #PWR0143
U 1 1 5BEE5A3F
P 5400 5800
F 0 "#PWR0143" H 5400 5550 50  0001 C CNN
F 1 "GND" H 5405 5627 50  0000 C CNN
F 2 "" H 5400 5800 50  0001 C CNN
F 3 "" H 5400 5800 50  0001 C CNN
	1    5400 5800
	1    0    0    -1  
$EndComp
Wire Wire Line
	5400 5800 5400 5750
Wire Wire Line
	5400 5550 5450 5550
Wire Wire Line
	5450 5650 5400 5650
Connection ~ 5400 5650
Wire Wire Line
	5400 5650 5400 5550
Wire Wire Line
	5450 5750 5400 5750
Connection ~ 5400 5750
Wire Wire Line
	5400 5750 5400 5650
Text Notes 6150 5350 0    50   ~ 0
I2C Addr 0x48
Text Notes 2700 2700 0    50   ~ 0
Kangaroo
Text Notes 1800 4050 0    50   ~ 0
Aux Header
Text Notes 5350 5150 0    50   ~ 0
Temp Sensor
$Comp
L Connector:Conn_01x04_Male J5
U 1 1 5BF81812
P 10050 4800
F 0 "J5" H 10156 5078 50  0000 C CNN
F 1 "Conn_01x04_Male" H 10156 4987 50  0000 C CNN
F 2 "Connector:FanPinHeader_1x04_P2.54mm_Vertical" H 10050 4800 50  0001 C CNN
F 3 "~" H 10050 4800 50  0001 C CNN
F 4 "538-47053-1000" H 10050 4800 50  0001 C CNN "MouserPartNumber"
	1    10050 4800
	1    0    0    -1  
$EndComp
Text Label 10900 4900 2    50   ~ 0
PWM3
Text Label 10900 5000 2    50   ~ 0
Sense3
$Comp
L power:GND #PWR03
U 1 1 5BF8181B
P 10550 4700
F 0 "#PWR03" H 10550 4450 50  0001 C CNN
F 1 "GND" V 10555 4572 50  0000 R CNN
F 2 "" H 10550 4700 50  0001 C CNN
F 3 "" H 10550 4700 50  0001 C CNN
	1    10550 4700
	0    -1   -1   0   
$EndComp
$Comp
L power:+12V #PWR04
U 1 1 5BF81821
P 10550 4800
F 0 "#PWR04" H 10550 4650 50  0001 C CNN
F 1 "+12V" V 10565 4928 50  0000 L CNN
F 2 "" H 10550 4800 50  0001 C CNN
F 3 "" H 10550 4800 50  0001 C CNN
	1    10550 4800
	0    1    1    0   
$EndComp
Wire Wire Line
	10550 4700 10250 4700
Wire Wire Line
	10250 4800 10550 4800
Wire Wire Line
	10900 4900 10600 4900
Wire Wire Line
	10600 5000 10900 5000
$Comp
L Jumper:SolderJumper_2_Bridged JP8
U 1 1 5BF8182B
P 10450 5000
F 0 "JP8" H 10450 4750 50  0000 C CNN
F 1 "SolderJumper_2_Bridged" H 10450 4700 50  0000 C CNN
F 2 "Jumper:SolderJumper-2_P1.3mm_Bridged_RoundedPad1.0x1.5mm" H 10450 5000 50  0001 C CNN
F 3 "~" H 10450 5000 50  0001 C CNN
	1    10450 5000
	1    0    0    -1  
$EndComp
$Comp
L Jumper:SolderJumper_2_Bridged JP7
U 1 1 5BF81832
P 10450 4900
F 0 "JP7" H 10450 4700 50  0000 C CNN
F 1 "SolderJumper_2_Bridged" H 10450 4650 50  0000 C CNN
F 2 "Jumper:SolderJumper-2_P1.3mm_Bridged_RoundedPad1.0x1.5mm" H 10450 4900 50  0001 C CNN
F 3 "~" H 10450 4900 50  0001 C CNN
	1    10450 4900
	1    0    0    -1  
$EndComp
Wire Wire Line
	10300 5000 10250 5000
Wire Wire Line
	10250 4900 10300 4900
Text Label 5000 1850 0    50   ~ 0
Sense3
Wire Wire Line
	5000 1850 5450 1850
Text Label 6800 1750 2    50   ~ 0
PWM3
Text Label 1500 4700 0    50   ~ 0
PWM3
Text Label 1500 5000 0    50   ~ 0
Sense3
$Comp
L Device:C C2
U 1 1 5BFB231A
P 4600 5600
F 0 "C2" H 4715 5646 50  0000 L CNN
F 1 "0.1uF" H 4715 5555 50  0000 L CNN
F 2 "Capacitor_SMD:C_0603_1608Metric" H 4638 5450 50  0001 C CNN
F 3 "https://www.mouser.com/datasheet/2/445/885012206071-554587.pdf" H 4600 5600 50  0001 C CNN
F 4 "710-885012206071" H 4600 5600 50  0001 C CNN "MouserPartNumber"
	1    4600 5600
	1    0    0    -1  
$EndComp
$Comp
L power:+3V3 #PWR01
U 1 1 5BFB2568
P 4600 5400
F 0 "#PWR01" H 4600 5250 50  0001 C CNN
F 1 "+3V3" H 4615 5573 50  0000 C CNN
F 2 "" H 4600 5400 50  0001 C CNN
F 3 "" H 4600 5400 50  0001 C CNN
	1    4600 5400
	1    0    0    -1  
$EndComp
Wire Wire Line
	4600 5400 4600 5450
$Comp
L power:GND #PWR02
U 1 1 5BFB9022
P 4600 5800
F 0 "#PWR02" H 4600 5550 50  0001 C CNN
F 1 "GND" H 4605 5627 50  0000 C CNN
F 2 "" H 4600 5800 50  0001 C CNN
F 3 "" H 4600 5800 50  0001 C CNN
	1    4600 5800
	1    0    0    -1  
$EndComp
Wire Wire Line
	4600 5800 4600 5750
$Comp
L Connector:Conn_01x02_Male J6
U 1 1 5BDEFEB9
P 3150 6800
F 0 "J6" H 3256 6978 50  0000 C CNN
F 1 "E-Stop" H 3256 6887 50  0000 C CNN
F 2 "Dokalman2:PC-HSG-PP75" H 3150 6800 50  0001 C CNN
F 3 "~" H 3150 6800 50  0001 C CNN
F 4 "879-1336G1,879-1337G1" H 3150 6800 50  0001 C CNN "MouserPartNumber"
	1    3150 6800
	-1   0    0    1   
$EndComp
$Comp
L Isolator:NSL-32 U3
U 1 1 5BDFDD1F
P 2500 6750
F 0 "U3" H 2500 7067 50  0000 C CNN
F 1 "NSL-32" H 2500 6976 50  0000 C CNN
F 2 "Dokalman2:SOP-8-PANASONIC" H 2500 6450 50  0001 C CNN
F 3 "https://www.mouser.com/datasheet/2/315/panasonic_AQW,AQY280,282,284-1196946.pdf" H 2550 6750 50  0001 C CNN
F 4 "769-AQY282SX" H 2500 6750 50  0001 C CNN "MouserPartNumber"
	1    2500 6750
	1    0    0    -1  
$EndComp
Wire Wire Line
	2950 6700 2900 6700
Wire Wire Line
	2900 6700 2900 6650
Wire Wire Line
	2900 6650 2800 6650
Wire Wire Line
	2800 6850 2900 6850
Wire Wire Line
	2900 6850 2900 6800
Wire Wire Line
	2900 6800 2950 6800
$Comp
L Device:R R8
U 1 1 5BE35BFC
P 2000 6850
F 0 "R8" V 2207 6850 50  0000 C CNN
F 1 "430" V 2116 6850 50  0000 C CNN
F 2 "Resistor_SMD:R_0603_1608Metric" V 1930 6850 50  0001 C CNN
F 3 "~" H 2000 6850 50  0001 C CNN
F 4 "603-RC0603FR-07430RL" H 2000 6850 50  0001 C CNN "MouserPartNumber"
	1    2000 6850
	0    -1   -1   0   
$EndComp
Wire Wire Line
	2200 6850 2150 6850
$Comp
L power:GND #PWR0144
U 1 1 5BE3D5DC
P 1800 6900
F 0 "#PWR0144" H 1800 6650 50  0001 C CNN
F 1 "GND" H 1805 6727 50  0000 C CNN
F 2 "" H 1800 6900 50  0001 C CNN
F 3 "" H 1800 6900 50  0001 C CNN
	1    1800 6900
	1    0    0    -1  
$EndComp
Wire Wire Line
	1800 6900 1800 6850
Wire Wire Line
	1800 6850 1850 6850
Text Label 2100 6350 3    50   ~ 0
ESTOP
Wire Wire Line
	2100 6650 2200 6650
Wire Wire Line
	2100 6650 2100 6350
Text Label 6800 1650 2    50   ~ 0
ESTOP
Text Label 1500 4900 0    50   ~ 0
ESTOP
$EndSCHEMATC
