(module LOGO (layer F.Cu)
  (at 0 0)
 (fp_text reference "G***" (at 0 0) (layer F.SilkS) hide
  (effects (font (thickness 0.3)))
  )
  (fp_text value "LOGO" (at 0.75 0) (layer F.SilkS) hide
  (effects (font (thickness 0.3)))
  )
  (fp_poly (pts (xy -1.418776 0.769384) (xy -1.063546 0.913962) (xy -0.763333 1.165892) (xy -0.603128 1.400751) (xy -0.491682 1.752858) (xy -0.486650 2.142714) (xy -0.585100 2.512625) (xy -0.667401 2.664874)
     (xy -0.939018 2.954467) (xy -1.286484 3.146200) (xy -1.672373 3.227341) (xy -2.059258 3.185161) (xy -2.129595 3.162226) (xy -2.500762 2.959550) (xy -2.768312 2.676133) (xy -2.927628 2.337376)
     (xy -2.974091 1.968679) (xy -2.903083 1.595441) (xy -2.709985 1.243064) (xy -2.516075 1.036588) (xy -2.174891 0.825015) (xy -1.799175 0.737840) (xy -1.418776 0.769384) )(layer F.SilkS) (width  0.010000)
  )
  (fp_poly (pts (xy 4.777093 0.742900) (xy 5.131505 0.880019) (xy 5.438062 1.132527) (xy 5.668552 1.487714) (xy 5.784022 1.847421) (xy 5.775410 2.190081) (xy 5.664675 2.517057) (xy 5.444572 2.837400)
     (xy 5.133053 3.072010) (xy 4.765245 3.206240) (xy 4.376277 3.225440) (xy 4.113625 3.163854) (xy 3.780817 2.996048) (xy 3.544171 2.756730) (xy 3.402202 2.503714) (xy 3.282734 2.089915)
     (xy 3.304275 1.691007) (xy 3.463782 1.322986) (xy 3.674062 1.075045) (xy 4.023638 0.835295) (xy 4.399560 0.726286) (xy 4.777093 0.742900) )(layer F.SilkS) (width  0.010000)
  )
  (fp_poly (pts (xy -2.858326 -0.421771) (xy -2.851241 -0.414915) (xy -2.812547 -0.356263) (xy -2.823358 -0.283669) (xy -2.898198 -0.176361) (xy -3.051594 -0.013569) (xy -3.298072 0.225477) (xy -3.301124 0.228388)
     (xy -3.582735 0.483760) (xy -3.877570 0.729016) (xy -4.159946 0.945096) (xy -4.404178 1.112937) (xy -4.584584 1.213479) (xy -4.655745 1.233714) (xy -4.731562 1.178544) (xy -4.779612 1.109201)
     (xy -4.798699 1.024305) (xy -4.736881 0.938809) (xy -4.571908 0.827080) (xy -4.496770 0.783353) (xy -4.293271 0.647027) (xy -4.026899 0.440704) (xy -3.737885 0.196540) (xy -3.552589 0.028707)
     (xy -3.291673 -0.211618) (xy -3.112956 -0.363440) (xy -2.995270 -0.440147) (xy -2.917449 -0.455128) (xy -2.858326 -0.421771) )(layer F.SilkS) (width  0.010000)
  )
  (fp_poly (pts (xy 0.134712 0.045984) (xy 0.284776 0.175563) (xy 0.447740 0.305835) (xy 0.681172 0.444075) (xy 0.821491 0.511063) (xy 1.063356 0.600942) (xy 1.283726 0.639686) (xy 1.550839 0.636317)
     (xy 1.685208 0.625278) (xy 1.945824 0.604541) (xy 2.093737 0.607112) (xy 2.160335 0.638872) (xy 2.177006 0.705703) (xy 2.177143 0.717443) (xy 2.150959 0.824207) (xy 2.056865 0.892267)
     (xy 1.871546 0.928955) (xy 1.571689 0.941604) (xy 1.463636 0.941835) (xy 0.985639 0.898064) (xy 0.653143 0.792586) (xy 0.400291 0.653555) (xy 0.172631 0.485509) (xy -0.001259 0.314884)
     (xy -0.092805 0.168114) (xy -0.095450 0.100089) (xy -0.006149 0.007917) (xy 0.134712 0.045984) )(layer F.SilkS) (width  0.010000)
  )
  (fp_poly (pts (xy 4.485644 -0.847797) (xy 4.499429 -0.812067) (xy 4.446117 -0.720142) (xy 4.302739 -0.561924) (xy 4.094135 -0.359794) (xy 3.845143 -0.136137) (xy 3.580600 0.086664) (xy 3.325346 0.286228)
     (xy 3.123493 0.427851) (xy 2.842263 0.601990) (xy 2.653948 0.694714) (xy 2.535433 0.711802) (xy 2.463601 0.659036) (xy 2.434754 0.600098) (xy 2.427134 0.484891) (xy 2.459364 0.450212)
     (xy 2.622776 0.368756) (xy 2.862305 0.216700) (xy 3.144282 0.018380) (xy 3.435039 -0.201865) (xy 3.700904 -0.419699) (xy 3.855396 -0.558884) (xy 4.110901 -0.783279) (xy 4.295279 -0.902861)
     (xy 4.388118 -0.918127) (xy 4.485644 -0.847797) )(layer F.SilkS) (width  0.010000)
  )
  (fp_poly (pts (xy -1.465353 -0.843096) (xy -1.139667 -0.789077) (xy -0.851547 -0.701260) (xy -0.709457 -0.632432) (xy -0.430731 -0.453158) (xy -0.278880 -0.312246) (xy -0.244540 -0.198003) (xy -0.296519 -0.116912)
     (xy -0.376347 -0.076783) (xy -0.486779 -0.102530) (xy -0.662519 -0.205323) (xy -0.745848 -0.261549) (xy -1.190417 -0.484934) (xy -1.666004 -0.566664) (xy -2.122215 -0.517670) (xy -2.387967 -0.470213)
     (xy -2.541990 -0.482740) (xy -2.606659 -0.559714) (xy -2.612571 -0.615512) (xy -2.546783 -0.726502) (xy -2.369319 -0.805021) (xy -2.110028 -0.850803) (xy -1.798756 -0.863583) (xy -1.465353 -0.843096) )(layer F.SilkS) (width  0.010000)
  )
  (fp_poly (pts (xy 6.082856 -2.742950) (xy 6.130354 -2.593960) (xy 6.113572 -2.339270) (xy 6.047386 -1.966317) (xy 5.986075 -1.660281) (xy 5.909137 -1.296897) (xy 5.834986 -0.981479) (xy 5.771026 -0.743232)
     (xy 5.724663 -0.611360) (xy 5.716919 -0.598714) (xy 5.635906 -0.532591) (xy 5.532359 -0.524984) (xy 5.389225 -0.585080) (xy 5.189454 -0.722066) (xy 4.915991 -0.945129) (xy 4.658589 -1.168869)
     (xy 4.303959 -1.486305) (xy 4.061829 -1.728155) (xy 3.936127 -1.912637) (xy 3.930775 -2.057967) (xy 4.049699 -2.182365) (xy 4.296822 -2.304046) (xy 4.676071 -2.441230) (xy 4.952513 -2.533227)
     (xy 5.405905 -2.681380) (xy 5.735508 -2.774095) (xy 5.956200 -2.798807) (xy 6.082856 -2.742950) )(layer F.SilkS) (width  0.010000)
  )
  (fp_poly (pts (xy -4.643618 -3.192886) (xy -4.328052 -3.053228) (xy -4.037681 -2.829969) (xy -3.822938 -2.565171) (xy -3.773701 -2.467396) (xy -3.710556 -2.170393) (xy -3.721406 -1.818712) (xy -3.798658 -1.477717)
     (xy -3.916695 -1.236751) (xy -4.157364 -1.003311) (xy -4.481262 -0.826199) (xy -4.828946 -0.735065) (xy -4.934857 -0.728902) (xy -5.166459 -0.760327) (xy -5.425288 -0.838372) (xy -5.486322 -0.863995)
     (xy -5.819793 -1.086884) (xy -6.040759 -1.401415) (xy -6.148995 -1.807249) (xy -6.154367 -1.861698) (xy -6.144952 -2.260340) (xy -6.032699 -2.581380) (xy -5.803512 -2.862069) (xy -5.761438 -2.900138)
     (xy -5.406208 -3.128155) (xy -5.019960 -3.226872) (xy -4.643618 -3.192886) )(layer F.SilkS) (width  0.010000)
  )
  (fp_poly (pts (xy 1.595486 -3.198496) (xy 1.933928 -3.064616) (xy 2.219922 -2.836372) (xy 2.429871 -2.524910) (xy 2.540179 -2.141378) (xy 2.551081 -1.954207) (xy 2.492841 -1.537269) (xy 2.320670 -1.207450)
     (xy 2.027614 -0.954465) (xy 1.795818 -0.837339) (xy 1.402786 -0.735882) (xy 1.018663 -0.772304) (xy 0.741907 -0.879464) (xy 0.423913 -1.110208) (xy 0.206077 -1.419140) (xy 0.091944 -1.776129)
     (xy 0.085061 -2.151045) (xy 0.188975 -2.513756) (xy 0.407231 -2.834133) (xy 0.501432 -2.922480) (xy 0.855642 -3.138575) (xy 1.228192 -3.226865) (xy 1.595486 -3.198496) )(layer F.SilkS) (width  0.010000)
  )
)
