(module M0_RFM95_LoRa_Radio (layer F.Cu) (tedit 5BC7AD6E)
  (fp_text reference LoRa** (at 5.08 -5.08) (layer F.SilkS)
    (effects (font (size 1 1) (thickness 0.15)))
  )
  (fp_text value M0RFM95_LoRa (at 5.08 20.32) (layer F.Fab)
    (effects (font (size 1 1) (thickness 0.15)))
  )
  (fp_circle (center -17.78 -1.27) (end -19.05 -2.54) (layer F.SilkS) (width 0.15))
  (fp_circle (center -17.78 16.51) (end -19.05 17.78) (layer F.SilkS) (width 0.15))
  (fp_arc (start 27.94 16.51) (end 27.94 19.05) (angle -90) (layer F.SilkS) (width 0.15))
  (fp_arc (start 27.94 -1.27) (end 30.48 -1.27) (angle -90) (layer F.SilkS) (width 0.15))
  (fp_arc (start -17.78 -1.27) (end -17.78 -3.81) (angle -90) (layer F.SilkS) (width 0.15))
  (fp_arc (start -17.78 16.51) (end -20.32 16.51) (angle -90) (layer F.SilkS) (width 0.15))
  (fp_text user LoRa (at 17.78 7.62) (layer F.SilkS)
    (effects (font (size 1 1) (thickness 0.15)))
  )
  (fp_text user RFM9x (at 17.78 6.35) (layer F.SilkS)
    (effects (font (size 1 1) (thickness 0.15)))
  )
  (fp_text user SDA (at 24.13 2.54) (layer F.SilkS)
    (effects (font (size 1 1) (thickness 0.15)))
  )
  (fp_text user SCL (at 21.59 1.27) (layer F.SilkS)
    (effects (font (size 1 1) (thickness 0.15)))
  )
  (fp_text user 5 (at 19.05 2.54) (layer F.SilkS)
    (effects (font (size 1 1) (thickness 0.15)))
  )
  (fp_text user 6 (at 16.51 1.27) (layer F.SilkS)
    (effects (font (size 1 1) (thickness 0.15)))
  )
  (fp_text user 9 (at 13.97 2.54) (layer F.SilkS)
    (effects (font (size 1 1) (thickness 0.15)))
  )
  (fp_text user ia1 (at 24.13 12.7) (layer F.SilkS)
    (effects (font (size 1 1) (thickness 0.15)))
  )
  (fp_text user TX1 (at 21.59 13.97) (layer F.SilkS)
    (effects (font (size 1 1) (thickness 0.15)))
  )
  (fp_text user RX0 (at 19.05 12.7) (layer F.SilkS)
    (effects (font (size 1 1) (thickness 0.15)))
  )
  (fp_text user MIS (at 16.51 13.97) (layer F.SilkS)
    (effects (font (size 1 1) (thickness 0.15)))
  )
  (fp_text user MOS (at 13.97 12.7) (layer F.SilkS)
    (effects (font (size 1 1) (thickness 0.15)))
  )
  (fp_text user SCK (at 11.43 13.97) (layer F.SilkS)
    (effects (font (size 1 1) (thickness 0.15)))
  )
  (fp_text user A5 (at 8.89 15.24) (layer F.SilkS)
    (effects (font (size 1 1) (thickness 0.15)))
  )
  (fp_text user A4 (at 6.35 15.24) (layer F.SilkS)
    (effects (font (size 1 1) (thickness 0.15)))
  )
  (fp_text user A3 (at 3.81 15.24) (layer F.SilkS)
    (effects (font (size 1 1) (thickness 0.15)))
  )
  (fp_text user A2 (at 1.27 15.24) (layer F.SilkS)
    (effects (font (size 1 1) (thickness 0.15)))
  )
  (fp_text user A1 (at -1.27 15.24) (layer F.SilkS)
    (effects (font (size 1 1) (thickness 0.15)))
  )
  (fp_text user A0 (at -3.81 15.24) (layer F.SilkS)
    (effects (font (size 1 1) (thickness 0.15)))
  )
  (fp_text user GND (at -6.35 15.24) (layer F.SilkS)
    (effects (font (size 1 1) (thickness 0.15)))
  )
  (fp_text user ARf (at -8.89 15.24) (layer F.SilkS)
    (effects (font (size 1 1) (thickness 0.15)))
  )
  (fp_text user 3V (at -11.43 15.24) (layer F.SilkS)
    (effects (font (size 1 1) (thickness 0.15)))
  )
  (fp_text user RST (at -13.97 15.24) (layer F.SilkS)
    (effects (font (size 1 1) (thickness 0.15)))
  )
  (fp_text user 10 (at 11.43 1.27) (layer F.SilkS)
    (effects (font (size 1 1) (thickness 0.15)))
  )
  (fp_text user 11 (at 8.89 0) (layer F.SilkS)
    (effects (font (size 1 1) (thickness 0.15)))
  )
  (fp_text user 12 (at 6.35 0) (layer F.SilkS)
    (effects (font (size 1 1) (thickness 0.15)))
  )
  (fp_text user 13 (at 3.81 0) (layer F.SilkS)
    (effects (font (size 1 1) (thickness 0.15)))
  )
  (fp_text user USB (at 1.27 0) (layer F.SilkS)
    (effects (font (size 1 1) (thickness 0.15)))
  )
  (fp_text user En (at -1.27 0) (layer F.SilkS)
    (effects (font (size 1 1) (thickness 0.15)))
  )
  (fp_text user BAT (at -3.81 0) (layer F.SilkS)
    (effects (font (size 1 1) (thickness 0.15)))
  )
  (fp_line (start 11.43 15.24) (end 25.4 15.24) (layer F.SilkS) (width 0.15))
  (fp_line (start 25.4 0) (end 11.43 0) (layer F.SilkS) (width 0.15))
  (fp_line (start -20.32 16.51) (end -20.32 -1.27) (layer F.SilkS) (width 0.15))
  (fp_line (start 27.94 19.05) (end -17.78 19.05) (layer F.SilkS) (width 0.15))
  (fp_line (start 30.48 -1.27) (end 30.48 16.51) (layer F.SilkS) (width 0.15))
  (fp_line (start -17.78 -3.81) (end 27.94 -3.81) (layer F.SilkS) (width 0.15))
  (pad 32 thru_hole circle (at 29.21 1.27) (size 1.524 1.524) (drill 0.762) (layers *.Cu *.Mask))
  (pad 31 thru_hole circle (at 29.21 3.81) (size 1.524 1.524) (drill 0.762) (layers *.Cu *.Mask))
  (pad 30 thru_hole circle (at 29.21 6.35) (size 1.524 1.524) (drill 0.762) (layers *.Cu *.Mask))
  (pad 29 thru_hole circle (at 29.21 13.97) (size 1.524 1.524) (drill 0.762) (layers *.Cu *.Mask))
  (pad 28 thru_hole circle (at -13.97 17.78) (size 1.524 1.524) (drill 0.762) (layers *.Cu *.Mask))
  (pad 27 thru_hole circle (at -11.43 17.78) (size 1.524 1.524) (drill 0.762) (layers *.Cu *.Mask))
  (pad 26 thru_hole circle (at -8.89 17.78) (size 1.524 1.524) (drill 0.762) (layers *.Cu *.Mask))
  (pad 25 thru_hole circle (at -6.35 17.78) (size 1.524 1.524) (drill 0.762) (layers *.Cu *.Mask))
  (pad 24 thru_hole circle (at -3.81 17.78) (size 1.524 1.524) (drill 0.762) (layers *.Cu *.Mask))
  (pad 23 thru_hole circle (at -1.27 17.78) (size 1.524 1.524) (drill 0.762) (layers *.Cu *.Mask))
  (pad 22 thru_hole circle (at 1.27 17.78) (size 1.524 1.524) (drill 0.762) (layers *.Cu *.Mask))
  (pad 21 thru_hole circle (at 3.81 17.78) (size 1.524 1.524) (drill 0.762) (layers *.Cu *.Mask))
  (pad 20 thru_hole circle (at 6.35 17.78) (size 1.524 1.524) (drill 0.762) (layers *.Cu *.Mask))
  (pad 19 thru_hole circle (at 8.89 17.78) (size 1.524 1.524) (drill 0.762) (layers *.Cu *.Mask))
  (pad 18 thru_hole circle (at 11.43 17.78) (size 1.524 1.524) (drill 0.762) (layers *.Cu *.Mask))
  (pad 17 thru_hole circle (at 13.97 17.78) (size 1.524 1.524) (drill 0.762) (layers *.Cu *.Mask))
  (pad 16 thru_hole circle (at 16.51 17.78) (size 1.524 1.524) (drill 0.762) (layers *.Cu *.Mask))
  (pad 15 thru_hole circle (at 19.05 17.78) (size 1.524 1.524) (drill 0.762) (layers *.Cu *.Mask))
  (pad 14 thru_hole circle (at 21.59 17.78) (size 1.524 1.524) (drill 0.762) (layers *.Cu *.Mask))
  (pad 13 thru_hole circle (at 24.13 17.78) (size 1.524 1.524) (drill 0.762) (layers *.Cu *.Mask))
  (pad 12 thru_hole circle (at 24.13 -2.54) (size 1.524 1.524) (drill 0.762) (layers *.Cu *.Mask))
  (pad 11 thru_hole circle (at 21.59 -2.54) (size 1.524 1.524) (drill 0.762) (layers *.Cu *.Mask))
  (pad 10 thru_hole circle (at 19.05 -2.54) (size 1.524 1.524) (drill 0.762) (layers *.Cu *.Mask))
  (pad 9 thru_hole circle (at 16.51 -2.54) (size 1.524 1.524) (drill 0.762) (layers *.Cu *.Mask))
  (pad 8 thru_hole circle (at 13.97 -2.54) (size 1.524 1.524) (drill 0.762) (layers *.Cu *.Mask))
  (pad 7 thru_hole circle (at 11.43 -2.54) (size 1.524 1.524) (drill 0.762) (layers *.Cu *.Mask))
  (pad 6 thru_hole circle (at 8.89 -2.54) (size 1.524 1.524) (drill 0.762) (layers *.Cu *.Mask))
  (pad 5 thru_hole circle (at 6.35 -2.54) (size 1.524 1.524) (drill 0.762) (layers *.Cu *.Mask))
  (pad 4 thru_hole circle (at 3.81 -2.54) (size 1.524 1.524) (drill 0.762) (layers *.Cu *.Mask))
  (pad 3 thru_hole circle (at 1.27 -2.54) (size 1.524 1.524) (drill 0.762) (layers *.Cu *.Mask))
  (pad 2 thru_hole circle (at -1.27 -2.54) (size 1.524 1.524) (drill 0.762) (layers *.Cu *.Mask))
  (pad 1 thru_hole circle (at -3.81 -2.54) (size 1.524 1.524) (drill 0.762) (layers *.Cu *.Mask))
)
